filename,x_from,y_from,width,height,sign_class,overlap
autosave01_02_2012_09_13_54.jpg,143,372,26,35,5_16,10.0
autosave01_02_2012_09_13_59.jpg,683,338,16,24,5_16,0.0
autosave01_02_2012_09_14_01.jpg,867,178,55,74,5_16,0.0
autosave01_02_2012_09_15_19.jpg,706,363,17,23,5_16,0.0
autosave01_02_2012_09_15_20.jpg,718,355,20,25,5_16,0.0
autosave01_02_2012_09_17_42.jpg,265,392,17,23,5_16,10.0
autosave01_02_2012_09_17_43.jpg,35,361,30,42,5_16,5.0
autosave01_02_2012_09_17_47.jpg,703,363,16,22,5_16,0.0
autosave01_02_2012_09_18_26.jpg,227,375,20,29,5_16,10.0
autosave01_02_2012_09_18_30.jpg,652,358,18,27,5_16,0.0
autosave01_02_2012_09_18_31.jpg,701,312,27,43,5_16,0.0
autosave01_02_2012_09_21_35.jpg,1082,310,29,37,5_16,0.0
autosave01_02_2012_09_22_30.jpg,689,386,18,20,5_16,0.0
autosave01_02_2012_09_22_37.jpg,779,335,26,35,5_16,0.0
autosave01_02_2012_09_22_47.jpg,651,382,16,19,7_3,0.0
autosave01_02_2012_09_29_12.jpg,887,203,35,47,5_16,0.0
autosave01_02_2012_09_30_03.jpg,1055,292,21,29,5_16,0.0
autosave01_02_2012_09_30_28.jpg,829,322,16,21,5_16,0.0
autosave01_02_2012_09_31_36.jpg,719,396,16,23,7_2,0.0
autosave01_02_2012_09_32_18.jpg,967,321,17,23,5_16,0.0
autosave01_02_2012_09_33_50.jpg,824,364,16,19,5_16,0.0
autosave01_02_2012_09_34_15.jpg,812,366,23,32,7_12,40.0
autosave01_02_2012_09_34_48.jpg,1208,249,51,69,7_3,0.0
autosave01_02_2012_09_34_53.jpg,761,370,18,24,7_3,0.0
autosave01_02_2012_09_35_56.jpg,875,365,16,21,7_3,0.0
autosave01_02_2012_09_37_43.jpg,1193,53,50,60,5_16,0.0
autosave01_02_2012_09_39_13.jpg,969,306,19,26,5_16,0.0
autosave01_02_2012_09_39_33.jpg,712,349,18,28,7_4,0.0
autosave01_02_2012_09_39_33.jpg,713,378,20,26,7_3,0.0
autosave01_02_2012_09_39_41.jpg,811,321,16,21,5_16,0.0
autosave01_02_2012_09_39_43.jpg,745,383,16,22,7_3,0.0
autosave01_02_2012_09_40_30.jpg,818,286,21,29,5_16,0.0
autosave01_02_2012_09_40_45.jpg,817,386,21,27,7_11,0.0
autosave01_02_2012_09_42_37.jpg,819,332,19,24,5_16,0.0
autosave01_02_2012_09_43_37.jpg,975,270,23,34,5_16,0.0
autosave01_02_2012_09_44_14.jpg,865,324,17,23,5_16,0.0
autosave01_02_2012_09_45_21.jpg,921,347,33,47,7_3,0.0
autosave01_02_2012_09_47_03.jpg,944,349,33,42,7_3,0.0
autosave01_02_2012_09_49_04.jpg,893,308,19,26,5_16,0.0
autosave01_02_2012_09_51_09.jpg,901,301,24,30,5_16,0.0
autosave01_02_2012_09_51_28.jpg,713,388,17,22,7_3,0.0
autosave01_02_2012_09_51_43.jpg,742,323,18,24,5_16,0.0
autosave01_02_2012_09_51_59.jpg,759,372,27,38,7_4,0.0
autosave01_02_2012_09_52_11.jpg,756,349,29,41,7_2,0.0
autosave01_02_2012_09_56_05.jpg,721,381,25,35,7_3,0.0
autosave01_02_2012_09_57_52.jpg,895,305,27,39,5_16,0.0
autosave01_02_2012_10_03_28.jpg,809,329,18,24,5_16,0.0
autosave01_02_2012_10_04_30.jpg,727,347,16,24,5_16,0.0
autosave01_02_2012_10_04_33.jpg,800,268,38,54,5_16,0.0
autosave01_02_2012_10_07_12.jpg,757,254,29,41,5_16,0.0
autosave01_02_2012_10_08_18.jpg,701,325,19,27,5_16,0.0
autosave01_02_2012_10_09_14.jpg,680,362,21,28,7_3,0.0
autosave01_02_2012_10_09_14.jpg,682,392,19,27,7_11,0.0
autosave01_02_2012_10_09_38.jpg,846,344,33,42,7_11,0.0
autosave01_02_2012_10_10_30.jpg,936,248,30,45,5_16,0.0
autosave01_02_2012_10_11_48.jpg,1157,279,26,33,5_16,0.0
autosave01_02_2012_10_13_17.jpg,1064,237,28,37,5_16,0.0
autosave01_02_2012_10_14_46.jpg,843,290,21,30,5_16,0.0
autosave01_02_2012_10_15_35.jpg,703,359,25,35,7_7,0.0
autosave01_02_2012_10_25_06.jpg,235,370,25,35,5_16,0.0
autosave01_02_2012_10_26_59.jpg,886,256,34,47,5_16,0.0
autosave01_02_2012_10_32_14.jpg,589,372,16,21,5_16,0.0
autosave01_02_2012_10_40_31.jpg,749,341,18,24,5_16,0.0
autosave01_02_2012_10_43_14.jpg,751,354,18,24,5_16,0.0
autosave01_02_2012_10_43_37.jpg,798,333,16,27,5_16,0.0
autosave01_02_2012_10_45_07.jpg,582,373,24,34,7_3,0.0
autosave01_02_2012_10_47_50.jpg,725,340,17,26,5_16,0.0
autosave01_02_2012_10_48_59.jpg,853,374,26,38,5_16,0.0
autosave01_02_2012_10_49_44.jpg,882,329,17,24,5_16,0.0
autosave01_02_2012_10_49_46.jpg,925,288,28,40,5_16,0.0
autosave01_02_2012_10_49_47.jpg,1093,183,45,66,5_16,0.0
autosave01_02_2012_11_03_55.jpg,789,344,19,24,5_16,0.0
autosave01_02_2012_11_05_00.jpg,871,324,22,30,5_16,0.0
autosave01_02_2012_11_06_03.jpg,763,356,18,26,5_16,0.0
autosave01_02_2012_11_06_28.jpg,744,355,17,25,5_16,0.0
autosave01_02_2012_11_06_53.jpg,878,324,28,39,5_16,0.0
autosave01_02_2012_11_07_51.jpg,842,347,20,25,5_16,0.0
autosave01_02_2012_11_08_35.jpg,835,320,19,27,5_16,0.0
autosave01_02_2012_11_09_28.jpg,762,353,18,25,5_16,0.0
autosave01_02_2012_11_10_49.jpg,958,362,16,22,7_3,0.0
autosave01_02_2012_11_10_51.jpg,909,330,24,34,7_3,0.0
autosave01_02_2012_11_13_21.jpg,815,354,17,26,5_16,0.0
autosave01_02_2012_11_13_23.jpg,1090,256,41,62,5_16,0.0
autosave01_02_2012_11_28_21.jpg,890,306,22,34,5_16,0.0
autosave01_02_2012_11_29_42.jpg,712,337,19,28,7_3,0.0
autosave01_02_2012_11_29_43.jpg,772,292,32,46,7_3,0.0
autosave01_02_2012_11_32_09.jpg,893,315,17,28,5_16,0.0
autosave01_02_2012_11_32_51.jpg,1219,116,52,75,5_16,0.0
autosave01_02_2012_11_50_56.jpg,756,341,17,25,5_16,0.0
autosave01_02_2012_11_50_59.jpg,1017,229,37,54,5_16,0.0
autosave01_02_2012_11_51_03.jpg,710,338,19,24,5_18,40.0
autosave01_02_2012_11_57_36.jpg,1216,116,51,68,5_16,0.0
autosave01_02_2012_11_58_40.jpg,741,339,17,25,5_16,0.0
autosave01_02_2012_11_59_38.jpg,934,274,20,33,5_16,0.0
autosave01_02_2012_12_01_26.jpg,657,358,16,23,7_3,0.0
autosave01_02_2012_12_01_27.jpg,727,296,28,41,7_3,0.0
autosave01_02_2012_12_01_27.jpg,731,339,30,40,7_5,0.0
autosave01_02_2012_12_01_35.jpg,778,327,19,25,5_16,5.0
autosave01_02_2012_12_02_48.jpg,800,337,19,29,5_16,0.0
autosave01_02_2012_12_03_19.jpg,802,321,23,34,5_16,0.0
autosave01_02_2012_12_04_26.jpg,673,348,17,30,7_3,0.0
autosave01_02_2012_12_04_33.jpg,851,340,17,25,7_3,0.0
autosave01_02_2012_12_04_35.jpg,1020,303,26,38,7_3,0.0
autosave01_02_2012_12_05_02.jpg,62,143,84,132,7_3,0.0
autosave01_02_2012_12_07_54.jpg,877,300,20,29,5_16,0.0
autosave01_02_2012_12_10_49.jpg,1014,312,19,30,5_16,0.0
autosave01_02_2012_12_13_22.jpg,110,344,31,47,5_16,15.0
autosave01_02_2012_12_16_56.jpg,328,416,18,26,7_5,0.0
autosave01_02_2012_12_16_57.jpg,303,419,20,30,7_5,0.0
autosave01_02_2012_12_19_00.jpg,730,272,22,33,5_16,0.0
autosave01_02_2012_12_38_42.jpg,853,297,18,27,5_16,0.0
autosave01_02_2012_12_40_11.jpg,754,325,18,25,5_16,0.0
autosave01_02_2012_12_42_03.jpg,809,310,20,27,5_16,15.0
autosave01_02_2012_13_02_49.jpg,832,379,27,37,7_4,0.0
autosave01_02_2012_13_03_21.jpg,918,315,24,33,5_16,5.0
autosave01_02_2012_13_03_44.jpg,770,394,16,21,7_3,0.0
autosave01_02_2012_13_08_40.jpg,810,345,17,23,5_16,0.0
autosave01_02_2012_13_09_53.jpg,882,329,16,23,5_16,0.0
autosave01_02_2012_13_10_56.jpg,735,376,16,24,7_3,0.0
autosave01_02_2012_13_11_15.jpg,816,335,17,25,5_16,0.0
autosave01_02_2012_13_12_45.jpg,897,330,17,23,5_16,0.0
autosave01_02_2012_13_13_46.jpg,1003,289,27,34,5_16,0.0
autosave01_02_2012_13_13_56.jpg,794,380,20,28,7_11,0.0
autosave01_02_2012_13_14_12.jpg,797,390,17,23,7_11,0.0
autosave01_02_2012_13_14_50.jpg,1191,241,27,38,5_16,0.0
autosave01_02_2012_13_16_13.jpg,1090,252,32,38,5_16,0.0
autosave01_02_2012_13_16_48.jpg,914,312,18,23,5_16,0.0
autosave01_02_2012_13_17_54.jpg,961,298,21,30,5_16,0.0
autosave01_02_2012_13_18_11.jpg,881,356,25,40,7_11,0.0
autosave01_02_2012_13_19_38.jpg,991,310,18,26,5_16,0.0
autosave01_02_2012_13_22_40.jpg,60,410,16,22,5_16,0.0
autosave01_02_2012_13_22_54.jpg,996,311,16,25,5_16,0.0
autosave01_02_2012_13_24_43.jpg,784,384,18,26,7_2,0.0
autosave01_02_2012_13_24_53.jpg,882,275,19,28,5_16,0.0
autosave01_02_2012_13_24_58.jpg,74,371,16,21,5_16,0.0
autosave01_02_2012_13_25_38.jpg,945,370,24,31,7_2,0.0
autosave01_02_2012_13_30_12.jpg,894,331,17,24,5_16,0.0
autosave01_02_2012_13_37_37.jpg,1123,315,21,30,5_16,0.0
autosave01_02_2012_13_38_56.jpg,1017,302,18,24,5_16,5.0
autosave01_02_2012_13_39_36.jpg,1070,266,25,33,5_16,0.0
autosave01_02_2012_13_40_57.jpg,959,356,17,26,5_16,0.0
autosave01_02_2012_13_41_21.jpg,819,359,17,24,7_6,0.0
autosave01_02_2012_13_41_21.jpg,821,385,18,24,7_7,0.0
autosave01_02_2012_13_41_55.jpg,942,382,18,25,7_6,0.0
autosave01_02_2012_13_41_57.jpg,913,383,17,24,7_3,0.0
autosave01_02_2012_13_42_16.jpg,1127,301,30,40,5_16,0.0
autosave01_02_2012_13_42_28.jpg,1074,355,23,32,7_3,0.0
autosave01_02_2012_13_42_32.jpg,973,375,23,31,7_3,0.0
autosave01_02_2012_13_47_35.jpg,146,391,26,37,5_16,0.0
autosave01_02_2012_13_47_37.jpg,717,348,18,27,5_16,0.0
autosave01_02_2012_13_48_21.jpg,868,272,35,46,5_16,0.0
autosave01_02_2012_13_49_46.jpg,723,341,21,29,5_16,0.0
autosave01_02_2012_13_50_42.jpg,315,394,21,28,5_16,10.0
autosave01_02_2012_13_50_48.jpg,708,352,18,25,5_16,5.0
autosave01_02_2012_13_50_51.jpg,904,222,47,63,5_16,0.0
autosave01_02_2012_13_51_58.jpg,239,399,20,29,5_16,10.0
autosave01_02_2012_13_52_02.jpg,712,360,16,23,5_16,0.0
autosave01_02_2012_13_52_42.jpg,200,388,19,29,5_16,5.0
autosave02_10_2012_11_55_00_2.jpg,292,299,18,25,5_16,10.0
autosave02_10_2012_11_56_16_2.jpg,927,250,20,30,5_16,0.0
autosave02_10_2012_12_03_29_1.jpg,715,279,20,26,7_5,0.0
autosave02_10_2012_12_03_58_1.jpg,1203,242,22,46,7_5,5.0
autosave02_10_2012_12_05_32_0.jpg,663,253,16,28,7_2,0.0
autosave02_10_2012_12_06_35_2.jpg,701,287,19,32,7_1,10.0
autosave02_10_2012_12_08_34_1.jpg,980,297,18,26,5_16,0.0
autosave02_10_2012_12_10_11_2.jpg,810,241,22,29,5_16,0.0
autosave02_10_2012_12_11_03_0.jpg,651,283,16,24,5_16,0.0
autosave02_10_2012_12_13_19_0.jpg,825,197,23,38,5_16,0.0
autosave02_10_2012_12_14_30_2.jpg,742,255,21,30,5_16,0.0
autosave02_10_2012_12_16_34_1.jpg,774,261,18,24,5_16,0.0
autosave02_10_2012_12_26_26_2.jpg,832,287,17,23,5_16,0.0
autosave02_10_2012_12_26_35_2.jpg,895,240,21,36,7_5,0.0
autosave02_10_2012_12_29_05_2.jpg,933,263,16,24,5_16,0.0
autosave02_10_2012_12_44_59_2.jpg,94,297,30,36,5_16,0.0
autosave02_10_2012_12_45_02_0.jpg,756,270,32,42,5_16,0.0
autosave02_10_2012_12_55_25_2.jpg,670,258,24,35,7_3,0.0
autosave02_10_2012_12_55_26_1.jpg,698,227,30,45,7_3,0.0
autosave09_10_2012_07_49_23_2.jpg,868,340,16,21,5_16,0.0
autosave09_10_2012_07_49_34_0.jpg,725,336,17,25,7_7,0.0
autosave09_10_2012_07_49_34_1.jpg,749,328,19,28,7_7,0.0
autosave09_10_2012_07_49_34_1.jpg,779,337,16,22,7_3,0.0
autosave09_10_2012_07_49_43_0.jpg,856,292,17,24,5_16,0.0
autosave09_10_2012_07_50_04_1.jpg,853,326,19,25,5_16,0.0
autosave09_10_2012_07_50_23_2.jpg,926,347,16,20,5_16,0.0
autosave09_10_2012_07_50_23_3.jpg,977,350,17,22,5_16,0.0
autosave09_10_2012_07_56_36_0.jpg,811,289,22,33,5_16,0.0
autosave09_10_2012_07_56_57_0.jpg,671,347,16,23,7_3,20.0
autosave09_10_2012_07_57_59_0.jpg,909,283,25,36,5_16,0.0
autosave09_10_2012_08_08_12_3.jpg,834,249,20,28,5_16,5.0
autosave09_10_2012_08_08_15_0.jpg,295,280,16,22,5_16,0.0
autosave09_10_2012_08_08_15_0.jpg,880,225,24,34,5_16,0.0
autosave09_10_2012_08_13_18_1.jpg,77,300,21,23,5_16,10.0
autosave09_10_2012_08_13_42_1.jpg,1042,326,17,24,5_16,0.0
autosave09_10_2012_08_14_57_1.jpg,1014,311,20,28,5_16,0.0
autosave09_10_2012_08_16_55_2.jpg,1165,341,18,24,5_16,0.0
autosave09_10_2012_08_18_17_1.jpg,948,341,18,25,7_3,0.0
autosave09_10_2012_08_20_25_1.jpg,737,352,19,25,7_3,0.0
autosave09_10_2012_08_20_38_1.jpg,726,342,17,24,7_3,0.0
autosave09_10_2012_08_23_29_0.jpg,756,329,16,23,7_3,0.0
autosave09_10_2012_08_26_17_1.jpg,796,268,19,26,5_16,0.0
autosave09_10_2012_08_27_35_2.jpg,774,336,16,20,7_3,0.0
autosave09_10_2012_08_29_00_0.jpg,457,335,20,30,7_12,0.0
autosave09_10_2012_08_29_00_0.jpg,878,344,21,28,7_12,0.0
autosave09_10_2012_08_29_50_2.jpg,1075,372,20,25,7_3,0.0
autosave09_10_2012_08_32_49_1.jpg,842,315,17,25,5_16,0.0
autosave09_10_2012_08_33_27_0.jpg,749,342,18,26,7_3,0.0
autosave09_10_2012_08_33_53_0.jpg,821,352,16,23,7_3,0.0
autosave09_10_2012_08_33_54_0.jpg,1066,339,33,41,7_3,0.0
autosave09_10_2012_08_35_49_0.jpg,737,334,20,28,7_3,0.0
autosave09_10_2012_08_36_06_0.jpg,717,348,18,26,7_3,0.0
autosave09_10_2012_08_36_06_2.jpg,775,328,24,35,7_3,0.0
autosave09_10_2012_08_36_07_1.jpg,881,305,35,52,7_3,0.0
autosave09_10_2012_08_36_26_1.jpg,904,299,18,29,5_16,0.0
autosave09_10_2012_08_37_00_2.jpg,799,317,16,23,5_16,0.0
autosave09_10_2012_08_37_01_1.jpg,884,295,21,32,5_16,0.0
autosave09_10_2012_08_38_48_1.jpg,817,315,17,24,5_16,0.0
autosave09_10_2012_08_39_15_0.jpg,688,331,18,28,7_3,0.0
autosave09_10_2012_08_39_16_2.jpg,897,247,55,84,7_3,0.0
autosave09_10_2012_08_39_17_0.jpg,1001,205,77,109,7_3,0.0
autosave09_10_2012_08_39_17_0.jpg,939,283,19,29,5_16,0.0
autosave09_10_2012_08_39_17_1.jpg,1058,243,26,39,5_16,0.0
autosave09_10_2012_08_41_32_0.jpg,663,350,16,23,7_11,0.0
autosave09_10_2012_08_42_24_0.jpg,754,338,16,25,7_3,0.0
autosave09_10_2012_08_42_38_1.jpg,825,340,19,28,7_3,0.0
autosave09_10_2012_08_42_39_0.jpg,969,318,30,45,7_3,0.0
autosave09_10_2012_08_42_44_1.jpg,810,324,17,26,5_16,0.0
autosave09_10_2012_08_44_08_2.jpg,822,312,16,24,5_16,0.0
autosave09_10_2012_08_50_38_2.jpg,695,339,18,26,7_11,0.0
autosave09_10_2012_08_51_13_1.jpg,766,329,16,26,7_11,0.0
autosave09_10_2012_08_51_15_0.jpg,950,278,36,56,7_11,0.0
autosave09_10_2012_08_51_15_1.jpg,1162,201,58,92,7_11,0.0
autosave09_10_2012_08_51_57_0.jpg,680,337,16,25,7_12,0.0
autosave09_10_2012_08_52_38_0.jpg,733,330,16,24,7_3,0.0
autosave09_10_2012_08_53_12_0.jpg,785,274,38,63,7_3,0.0
autosave09_10_2012_09_08_25_1.jpg,679,349,16,23,7_11,0.0
autosave09_10_2012_09_08_54_1.jpg,923,343,19,27,7_11,0.0
autosave09_10_2012_09_11_40_1.jpg,715,349,17,22,7_11,0.0
autosave09_10_2012_09_12_14_0.jpg,771,340,16,22,7_11,0.0
autosave09_10_2012_09_27_50_1.jpg,242,295,17,23,5_16,0.0
autosave09_10_2012_09_27_52_2.jpg,838,307,16,23,5_16,0.0
autosave09_10_2012_09_29_00_1.jpg,1029,240,33,52,5_16,0.0
autosave09_10_2012_09_30_58_1.jpg,160,321,18,24,5_16,0.0
autosave09_10_2012_09_31_00_1.jpg,921,303,19,28,5_16,0.0
autosave09_10_2012_09_31_38_0.jpg,851,287,36,54,7_3,0.0
autosave09_10_2012_09_31_48_0.jpg,255,337,21,28,7_6,20.0
autosave09_10_2012_09_31_48_0.jpg,284,340,19,26,7_7,0.0
autosave09_10_2012_09_31_56_1.jpg,745,351,17,25,7_3,0.0
autosave09_10_2012_09_33_40_1.jpg,238,332,18,26,5_16,0.0
autosave09_10_2012_09_33_42_1.jpg,947,305,20,28,5_16,0.0
autosave09_10_2012_09_35_26_1.jpg,816,321,16,22,5_16,0.0
autosave09_10_2012_09_36_31_1.jpg,163,297,16,23,5_16,0.0
autosave09_10_2012_09_36_32_0.jpg,73,278,21,30,5_16,0.0
autosave09_10_2012_09_37_08_0.jpg,825,306,16,21,5_16,0.0
autosave09_10_2012_09_37_08_2.jpg,950,285,22,32,5_16,0.0
autosave09_10_2012_09_40_03_0.jpg,169,309,17,24,5_16,0.0
autosave09_10_2012_09_40_03_1.jpg,57,292,22,28,5_16,0.0
autosave09_10_2012_09_40_07_0.jpg,787,313,16,24,5_16,0.0
autosave09_10_2012_09_40_08_0.jpg,990,249,29,47,5_16,0.0
autosave09_10_2012_09_41_02_3.jpg,49,284,24,34,5_16,0.0
autosave09_10_2012_09_41_07_1.jpg,733,337,18,26,7_7,0.0
autosave09_10_2012_09_41_31_1.jpg,700,340,17,24,7_12,0.0
autosave09_10_2012_09_41_34_0.jpg,720,343,16,24,7_7,0.0
autosave09_10_2012_09_42_07_0.jpg,755,327,16,24,7_12,0.0
autosave09_10_2012_09_43_58_2.jpg,710,336,17,26,7_3,0.0
autosave09_10_2012_09_44_08_1.jpg,738,333,18,28,7_3,0.0
autosave09_10_2012_09_44_18_0.jpg,735,333,19,31,7_3,0.0
autosave09_10_2012_09_44_29_1.jpg,849,330,19,30,7_3,0.0
autosave09_10_2012_09_45_06_2.jpg,149,320,16,23,5_16,0.0
autosave09_10_2012_09_45_08_0.jpg,907,332,17,24,5_16,0.0
autosave09_10_2012_09_47_36_0.jpg,134,336,17,24,5_16,0.0
autosave09_10_2012_09_47_37_1.jpg,962,330,18,26,5_16,0.0
autosave09_10_2012_09_52_29_2.jpg,680,352,16,25,7_3,0.0
autosave09_10_2012_09_52_42_1.jpg,689,340,19,28,7_7,0.0
autosave09_10_2012_09_52_53_2.jpg,778,346,17,25,7_3,0.0
autosave09_10_2012_09_56_07_2.jpg,798,341,20,30,7_3,0.0
autosave09_10_2012_09_56_16_0.jpg,834,372,20,30,7_3,0.0
autosave09_10_2012_09_57_39_1.jpg,868,330,18,26,5_16,0.0
autosave09_10_2012_09_57_39_1.jpg,252,325,17,26,5_16,0.0
autosave09_10_2012_09_57_40_0.jpg,1042,308,28,40,5_16,0.0
autosave09_10_2012_09_57_40_0.jpg,83,307,25,35,5_16,0.0
autosave09_10_2012_09_59_19_0.jpg,788,338,16,23,5_16,0.0
autosave09_10_2012_09_59_19_1.jpg,862,327,21,33,5_16,0.0
autosave09_10_2012_09_59_19_2.jpg,969,317,28,44,5_16,0.0
autosave09_10_2012_09_59_19_2.jpg,4,309,19,33,5_16,0.0
autosave09_10_2012_10_00_48_2.jpg,741,345,17,26,7_6,0.0
autosave09_10_2012_10_00_48_2.jpg,762,345,17,27,7_7,0.0
autosave09_10_2012_10_01_25_0.jpg,741,332,18,28,7_7,0.0
autosave09_10_2012_10_01_25_0.jpg,763,331,18,30,7_6,0.0
autosave09_10_2012_10_02_53_0.jpg,281,307,16,23,5_16,0.0
autosave09_10_2012_10_02_53_3.jpg,47,252,26,38,5_16,0.0
autosave09_10_2012_10_05_02_1.jpg,775,324,17,25,5_16,0.0
autosave09_10_2012_10_05_02_2.jpg,820,309,20,28,5_16,0.0
autosave09_10_2012_10_05_02_3.jpg,883,303,23,37,5_16,0.0
autosave09_10_2012_10_05_03_0.jpg,1042,271,38,54,5_16,0.0
autosave09_10_2012_10_05_03_0.jpg,189,304,20,28,5_16,0.0
autosave09_10_2012_10_06_49_1.jpg,707,343,17,25,7_11,0.0
autosave09_10_2012_10_07_08_1.jpg,778,345,19,27,7_11,0.0
autosave09_10_2012_10_07_12_3.jpg,87,332,18,27,5_16,0.0
autosave09_10_2012_10_13_28_2.jpg,810,313,16,22,5_16,0.0
autosave09_10_2012_10_13_32_2.jpg,196,287,17,23,5_16,0.0
autosave09_10_2012_10_14_45_2.jpg,263,311,16,22,5_16,0.0
autosave09_10_2012_10_14_46_0.jpg,218,301,19,25,5_16,0.0
autosave09_10_2012_10_14_47_2.jpg,827,307,16,23,5_16,0.0
autosave09_10_2012_10_16_45_1.jpg,820,308,16,23,5_16,0.0
autosave09_10_2012_10_18_12_0.jpg,732,304,17,27,7_7,0.0
autosave09_10_2012_10_18_15_1.jpg,820,323,16,24,5_16,0.0
autosave09_10_2012_10_20_51_3.jpg,823,307,17,24,5_16,0.0
autosave09_10_2012_10_22_14_1.jpg,738,334,17,25,7_3,0.0
autosave09_10_2012_10_22_17_2.jpg,126,306,18,24,5_16,0.0
autosave09_10_2012_10_22_19_0.jpg,888,295,20,29,5_16,0.0
autosave09_10_2012_10_22_32_1.jpg,794,327,20,31,7_3,0.0
autosave09_10_2012_10_22_37_2.jpg,791,330,21,33,7_7,0.0
autosave09_10_2012_10_22_53_1.jpg,698,332,17,24,7_11,0.0
autosave09_10_2012_11_02_21_1.jpg,838,367,16,24,7_3,0.0
autosave09_10_2012_11_05_10_1.jpg,140,279,17,25,5_16,0.0
autosave09_10_2012_11_05_12_2.jpg,900,268,20,30,5_16,0.0
autosave09_10_2012_11_07_29_1.jpg,939,321,20,32,5_16,0.0
autosave09_10_2012_11_08_35_0.jpg,84,271,20,30,5_16,0.0
autosave09_10_2012_11_08_36_3.jpg,854,273,19,26,5_16,0.0
autosave09_10_2012_11_10_52_2.jpg,778,337,16,25,7_3,0.0
autosave09_10_2012_11_11_13_1.jpg,836,356,17,22,7_3,0.0
autosave09_10_2012_11_13_59_0.jpg,738,329,17,27,7_12,0.0
autosave09_10_2012_11_14_30_1.jpg,682,332,16,22,7_12,0.0
autosave09_10_2012_11_14_32_2.jpg,709,334,16,26,7_12,0.0
autosave09_10_2012_11_14_34_0.jpg,728,318,22,30,7_12,0.0
autosave09_10_2012_11_15_12_2.jpg,742,348,16,22,7_2,15.0
autosave09_10_2012_11_15_23_0.jpg,677,324,17,26,7_2,0.0
autosave09_10_2012_11_15_24_1.jpg,730,294,26,38,7_2,0.0
autosave09_10_2012_11_15_24_2.jpg,756,276,29,45,7_2,0.0
autosave09_10_2012_11_15_25_0.jpg,788,259,36,54,7_2,0.0
autosave09_10_2012_11_16_42_1.jpg,1034,312,20,31,5_16,0.0
autosave09_10_2012_11_18_10_1.jpg,909,284,21,32,5_16,0.0
autosave09_10_2012_11_18_49_1.jpg,785,338,19,27,7_11,0.0
autosave09_10_2012_11_19_05_1.jpg,715,347,16,21,7_11,0.0
autosave09_10_2012_11_20_07_0.jpg,113,293,17,21,5_16,0.0
autosave09_10_2012_11_20_08_2.jpg,864,298,21,29,5_16,0.0
autosave09_10_2012_11_20_09_1.jpg,1160,211,37,58,5_16,0.0
autosave09_10_2012_11_21_29_1.jpg,814,296,18,26,5_16,0.0
autosave09_10_2012_11_21_54_2.jpg,760,344,18,26,7_6,0.0
autosave09_10_2012_11_22_03_1.jpg,737,353,17,23,7_3,0.0
autosave09_10_2012_11_22_19_0.jpg,754,332,16,25,7_3,0.0
autosave09_10_2012_11_23_04_1.jpg,269,309,16,20,5_16,0.0
autosave09_10_2012_11_23_09_0.jpg,838,314,16,22,5_16,0.0
autosave09_10_2012_11_25_04_1.jpg,705,332,18,26,7_6,0.0
autosave09_10_2012_11_25_44_0.jpg,192,279,21,29,5_16,0.0
autosave09_10_2012_11_25_45_2.jpg,875,300,17,27,5_16,0.0
autosave09_10_2012_11_26_51_3.jpg,191,272,21,30,5_16,0.0
autosave09_10_2012_11_26_54_0.jpg,839,309,19,26,5_16,0.0
autosave09_10_2012_11_26_55_0.jpg,1151,202,35,55,5_16,0.0
autosave09_10_2012_11_27_30_1.jpg,712,344,16,22,7_3,0.0
autosave09_10_2012_11_46_03_0.jpg,276,278,19,28,5_16,0.0
autosave09_10_2012_11_46_24_0.jpg,729,325,18,24,5_16,0.0
autosave09_10_2012_11_48_26_0.jpg,723,337,18,31,7_3,10.0
autosave09_10_2012_11_49_46_2.jpg,715,360,16,22,7_3,0.0
autosave09_10_2012_11_56_16_3.jpg,721,335,17,24,5_16,0.0
autosave09_10_2012_11_56_16_3.jpg,353,340,18,24,5_16,0.0
autosave09_10_2012_11_57_30_2.jpg,231,306,26,38,5_16,0.0
autosave09_10_2012_11_57_32_1.jpg,749,320,18,26,5_16,0.0
autosave09_10_2012_11_58_12_1.jpg,385,336,18,25,5_16,0.0
autosave09_10_2012_11_58_14_3.jpg,905,301,27,41,5_16,0.0
autosave09_10_2012_11_59_37_1.jpg,258,301,18,26,5_16,0.0
autosave09_10_2012_11_59_39_3.jpg,722,303,24,33,5_16,0.0
autosave09_10_2012_12_01_34_1.jpg,305,308,21,32,5_16,0.0
autosave09_10_2012_12_01_36_0.jpg,742,345,19,28,5_16,0.0
autosave09_10_2012_12_02_37_0.jpg,728,333,17,24,5_16,0.0
autosave09_10_2012_12_02_37_1.jpg,764,323,19,28,5_16,0.0
autosave09_10_2012_12_02_37_1.jpg,299,309,18,27,5_16,0.0
autosave09_10_2012_12_14_54_0.jpg,702,324,17,26,7_3,0.0
autosave09_10_2012_12_16_26_1.jpg,716,333,18,30,7_3,20.0
autosave09_10_2012_12_16_26_2.jpg,976,240,61,90,7_3,0.0
autosave09_10_2012_12_17_33_0.jpg,896,344,21,28,7_3,0.0
autosave09_10_2012_12_17_37_1.jpg,1091,201,75,114,7_3,0.0
autosave09_10_2012_12_32_46_0.jpg,683,319,17,26,7_2,10.0
autosave09_10_2012_12_37_00_1.jpg,803,338,16,23,5_16,0.0
autosave09_10_2012_12_39_05_0.jpg,714,321,19,26,5_16,0.0
autosave09_10_2012_12_39_07_1.jpg,1049,219,56,80,5_16,0.0
autosave09_10_2012_12_40_12_0.jpg,929,272,35,47,5_16,0.0
autosave09_10_2012_12_46_05_2.jpg,701,292,17,24,5_16,0.0
autosave09_10_2012_12_46_06_1.jpg,720,281,18,25,5_16,0.0
autosave09_10_2012_12_46_06_3.jpg,742,274,19,30,5_16,0.0
autosave09_10_2012_12_49_55_3.jpg,696,298,19,28,5_16,0.0
autosave09_10_2012_13_05_02_2.jpg,815,348,16,22,5_16,0.0
autosave09_10_2012_13_07_26_1.jpg,640,336,16,23,5_16,0.0
autosave09_10_2012_13_08_03_1.jpg,770,296,18,28,5_16,0.0
autosave09_10_2012_13_10_08_2.jpg,723,316,16,22,5_16,0.0
autosave09_10_2012_13_12_44_0.jpg,801,361,16,23,5_16,0.0
autosave09_10_2012_13_18_33_1.jpg,316,339,17,22,5_16,0.0
autosave09_10_2012_13_18_34_2.jpg,757,313,18,27,5_16,0.0
autosave09_10_2012_13_19_15_2.jpg,754,359,17,23,7_7,0.0
autosave09_10_2012_13_19_18_1.jpg,766,336,16,24,5_16,0.0
autosave09_10_2012_13_19_26_1.jpg,230,320,18,26,5_16,0.0
autosave09_10_2012_13_19_51_1.jpg,227,326,23,33,5_16,0.0
autosave09_10_2012_13_19_51_2.jpg,161,298,25,37,5_16,0.0
autosave09_10_2012_13_19_52_2.jpg,780,330,16,26,5_16,0.0
autosave09_10_2012_13_20_25_0.jpg,226,298,19,29,5_16,0.0
autosave09_10_2012_13_20_25_1.jpg,132,296,22,32,5_16,0.0
autosave09_10_2012_13_20_25_2.jpg,8,277,29,43,5_16,0.0
autosave09_10_2012_13_20_25_2.jpg,729,336,16,21,7_3,0.0
autosave09_10_2012_13_20_26_0.jpg,753,323,17,24,7_3,0.0
autosave09_10_2012_13_20_26_1.jpg,789,318,19,28,7_3,0.0
autosave09_10_2012_13_23_01_3.jpg,808,362,21,28,7_3,0.0
autosave09_10_2012_13_23_07_1.jpg,794,337,17,25,5_16,0.0
autosave09_10_2012_13_23_43_2.jpg,284,326,18,24,5_16,0.0
autosave09_10_2012_13_23_44_1.jpg,138,289,25,37,5_16,0.0
autosave09_10_2012_13_24_15_3.jpg,830,327,17,25,5_16,0.0
autosave09_10_2012_13_24_23_2.jpg,747,324,19,28,7_7,0.0
autosave09_10_2012_13_24_24_0.jpg,813,303,25,36,7_7,0.0
autosave09_10_2012_13_24_24_0.jpg,265,327,17,25,5_16,0.0
autosave09_10_2012_13_25_14_3.jpg,267,319,18,29,5_16,0.0
autosave09_10_2012_13_25_15_2.jpg,756,334,17,26,5_16,0.0
autosave09_10_2012_13_29_32_1.jpg,705,330,17,27,7_7,0.0
autosave09_10_2012_13_29_34_1.jpg,888,228,46,74,7_7,0.0
autosave09_10_2012_13_29_37_1.jpg,683,333,16,23,7_7,0.0
autosave09_10_2012_13_31_04_0.jpg,7,289,20,28,5_16,0.0
autosave09_10_2012_13_31_09_2.jpg,775,319,16,23,5_16,0.0
autosave09_10_2012_13_31_21_1.jpg,666,329,19,31,7_3,0.0
autosave09_10_2012_13_37_56_1.jpg,874,296,21,29,5_16,0.0
autosave09_10_2012_13_39_41_1.jpg,747,340,20,34,5_16,20.0
autosave09_10_2012_13_41_02_1.jpg,658,324,25,32,5_16,35.0
autosave09_10_2012_13_41_36_0.jpg,685,355,17,24,5_16,8.0
autosave09_10_2012_13_42_03_1.jpg,714,311,18,27,5_16,0.0
autosave09_10_2012_13_42_03_2.jpg,729,305,21,30,5_16,0.0
autosave09_10_2012_13_49_59_1.jpg,1198,331,17,25,5_16,0.0
autosave09_10_2012_13_50_27_1.jpg,733,295,18,29,5_16,0.0
autosave09_10_2012_14_00_58_2.jpg,697,325,16,22,7_3,0.0
autosave09_10_2012_14_02_29_1.jpg,783,315,17,28,5_16,10.0
autosave09_10_2012_14_03_24_1.jpg,778,306,16,23,7_6,0.0
autosave09_10_2012_14_03_52_0.jpg,127,289,18,23,5_16,10.0
autosave09_10_2012_14_03_56_0.jpg,929,299,21,32,5_16,0.0
autosave09_10_2012_14_05_55_3.jpg,263,285,17,25,5_16,0.0
autosave09_10_2012_14_06_04_2.jpg,787,329,17,25,5_16,0.0
autosave09_10_2012_14_07_19_0.jpg,178,300,18,37,5_16,15.0
autosave09_10_2012_14_07_20_0.jpg,738,309,17,23,5_16,0.0
autosave09_10_2012_14_08_36_3.jpg,286,285,17,25,5_16,0.0
autosave09_10_2012_14_08_46_0.jpg,708,311,17,25,5_16,0.0
autosave09_10_2012_14_13_01_1.jpg,293,293,18,26,5_16,0.0
autosave09_10_2012_14_13_02_2.jpg,880,329,16,23,5_16,0.0
autosave09_10_2012_14_14_39_0.jpg,153,301,22,29,5_16,0.0
autosave09_10_2012_14_14_41_0.jpg,703,336,16,24,5_16,0.0
autosave09_10_2012_14_15_44_1.jpg,190,275,23,33,5_16,0.0
autosave09_10_2012_14_15_46_0.jpg,803,310,24,34,5_16,0.0
autosave09_10_2012_14_19_13_0.jpg,770,310,17,23,7_6,0.0
autosave09_10_2012_14_19_41_1.jpg,255,273,20,32,5_16,0.0
autosave09_10_2012_14_19_41_2.jpg,200,259,24,34,5_16,0.0
autosave09_10_2012_14_19_44_2.jpg,737,320,16,24,5_16,0.0
autosave09_10_2012_14_24_29_2.jpg,774,261,16,22,5_16,0.0
autosave09_10_2012_14_27_08_3.jpg,951,262,19,29,5_16,0.0
autosave09_10_2012_14_27_12_2.jpg,343,324,18,26,5_16,0.0
autosave09_10_2012_14_28_33_2.jpg,227,222,29,35,5_16,0.0
autosave09_10_2012_14_29_58_2.jpg,815,248,17,23,5_16,20.0
autosave09_10_2012_14_30_03_0.jpg,710,302,16,23,7_3,0.0
autosave09_10_2012_14_30_37_0.jpg,757,322,17,24,7_3,0.0
autosave09_10_2012_14_31_45_1.jpg,692,283,18,26,7_3,0.0
autosave09_10_2012_14_32_58_0.jpg,718,298,16,21,7_12,0.0
autosave09_10_2012_14_32_58_1.jpg,734,290,17,23,7_12,0.0
autosave09_10_2012_14_36_05_1.jpg,290,251,24,30,5_16,10.0
autosave09_10_2012_14_36_06_1.jpg,50,196,36,44,5_16,10.0
autosave09_10_2012_14_36_06_1.jpg,848,300,19,23,5_16,0.0
autosave09_10_2012_14_37_22_0.jpg,773,323,17,23,7_11,0.0
autosave09_10_2012_14_37_41_0.jpg,809,283,19,25,5_16,13.0
autosave09_10_2012_14_41_01_1.jpg,736,269,20,28,7_3,0.0
autosave09_10_2012_14_41_34_1.jpg,283,276,17,24,5_16,0.0
autosave09_10_2012_14_43_37_2.jpg,1171,242,18,52,5_16,0.0
autosave09_10_2012_14_45_47_2.jpg,288,275,20,26,5_16,5.0
autosave09_10_2012_14_47_13_2.jpg,861,310,18,25,5_16,0.0
autosave09_10_2012_14_47_17_0.jpg,255,277,19,30,5_16,0.0
autosave09_10_2012_14_49_41_0.jpg,756,292,19,29,5_16,0.0
autosave09_10_2012_14_49_41_1.jpg,337,293,17,22,5_16,0.0
autosave09_10_2012_14_49_41_1.jpg,814,286,26,39,5_16,0.0
autosave09_10_2012_14_51_38_2.jpg,875,250,22,32,5_16,0.0
autosave09_10_2012_14_51_38_3.jpg,934,224,25,37,5_16,0.0
autosave09_10_2012_14_56_00_1.jpg,402,294,16,21,5_16,0.0
autosave09_10_2012_14_56_01_3.jpg,199,248,32,42,5_16,0.0
autosave09_10_2012_14_57_27_0.jpg,267,273,21,26,5_16,0.0
autosave09_10_2012_14_57_30_2.jpg,770,302,17,26,5_16,0.0
autosave09_10_2012_15_01_06_0.jpg,830,280,16,24,5_16,0.0
autosave09_10_2012_15_01_08_1.jpg,325,291,17,23,5_16,0.0
autosave09_10_2012_15_02_47_0.jpg,272,260,23,26,5_16,15.0
autosave09_10_2012_15_02_49_2.jpg,704,295,16,20,5_16,0.0
autosave09_10_2012_15_03_04_1.jpg,725,284,20,29,7_3,0.0
autosave09_10_2012_15_03_43_0.jpg,666,300,20,26,7_3,0.0
autosave09_10_2012_15_04_20_2.jpg,740,260,17,24,5_16,0.0
autosave09_10_2012_15_17_17_0.jpg,643,258,17,27,5_16,0.0
autosave09_10_2012_15_18_23_0.jpg,679,277,22,31,5_16,10.0
autosave09_10_2012_15_21_17_3.jpg,689,260,23,27,5_16,10.0
autosave09_10_2012_15_22_58_2.jpg,110,252,23,32,5_16,0.0
autosave09_10_2012_15_24_09_3.jpg,924,242,22,37,5_16,5.0
autosave09_10_2012_15_29_43_0.jpg,699,177,39,55,5_16,0.0
autosave09_10_2012_15_42_45_3.jpg,781,261,20,30,5_16,0.0
autosave09_11_2012_08_54_20_0.jpg,380,301,21,48,5_16,0.0
autosave09_11_2012_08_54_20_3.jpg,164,289,25,51,5_16,0.0
autosave09_11_2012_08_56_19_0.jpg,844,358,18,26,5_18,0.0
autosave09_11_2012_08_59_20_2.jpg,377,359,16,21,5_16,0.0
autosave09_11_2012_08_59_22_0.jpg,293,337,20,27,5_16,0.0
autosave09_11_2012_08_59_22_1.jpg,265,335,22,28,5_16,0.0
autosave09_11_2012_09_00_05_2.jpg,804,338,17,26,5_16,0.0
autosave09_11_2012_09_00_06_0.jpg,817,334,18,27,5_16,0.0
autosave09_11_2012_09_00_06_1.jpg,842,320,21,31,5_16,0.0
autosave09_11_2012_09_00_06_2.jpg,872,311,24,35,5_16,0.0
autosave09_11_2012_09_00_06_3.jpg,910,298,27,39,5_16,0.0
autosave09_11_2012_09_00_42_0.jpg,815,341,16,22,5_16,0.0
autosave09_11_2012_09_00_44_3.jpg,796,305,23,34,5_16,0.0
autosave09_11_2012_09_00_47_0.jpg,761,270,33,49,5_16,0.0
autosave09_11_2012_09_00_47_1.jpg,776,237,37,53,5_16,0.0
autosave09_11_2012_09_00_47_1.jpg,698,347,17,22,5_16,0.0
autosave09_11_2012_09_05_12_1.jpg,791,372,16,23,5_16,0.0
autosave09_11_2012_09_05_15_2.jpg,1219,142,60,123,5_16,20.0
autosave09_11_2012_09_05_15_2.jpg,821,352,17,25,5_16,0.0
autosave09_11_2012_09_05_42_2.jpg,1001,335,21,32,5_16,0.0
autosave09_11_2012_09_06_16_1.jpg,877,352,16,22,5_16,0.0
autosave09_11_2012_09_08_47_0.jpg,1011,337,22,31,5_16,0.0
autosave09_11_2012_09_15_23_1.jpg,898,330,21,32,5_16,0.0
autosave09_11_2012_09_22_04_1.jpg,1135,344,20,27,5_16,0.0
autosave09_11_2012_09_27_59_1.jpg,1015,370,18,25,5_16,0.0
autosave09_11_2012_09_27_59_2.jpg,1049,363,18,25,5_16,0.0
autosave09_11_2012_09_30_46_3.jpg,898,352,17,23,5_16,0.0
autosave09_11_2012_09_30_50_1.jpg,1032,332,22,31,5_16,0.0
autosave09_11_2012_09_34_31_0.jpg,775,342,16,22,5_16,0.0
autosave09_11_2012_09_34_33_1.jpg,1063,344,16,23,5_16,0.0
autosave09_11_2012_09_34_37_2.jpg,1015,329,18,25,7_5,0.0
autosave09_11_2012_09_34_38_0.jpg,1055,323,19,27,7_5,0.0
autosave09_11_2012_09_34_38_0.jpg,940,342,17,24,7_4,0.0
autosave09_11_2012_09_34_41_1.jpg,816,286,35,55,7_4,0.0
autosave09_11_2012_09_34_41_1.jpg,1157,244,47,69,7_5,0.0
autosave09_11_2012_09_46_44_3.jpg,711,369,17,23,5_16,0.0
autosave09_11_2012_09_48_55_0.jpg,983,335,16,23,5_16,0.0
autosave09_11_2012_09_49_31_0.jpg,1019,356,17,26,5_16,0.0
autosave09_11_2012_09_49_31_1.jpg,1101,348,21,29,5_16,0.0
autosave09_11_2012_09_49_31_2.jpg,1216,332,26,36,5_16,0.0
autosave09_11_2012_09_49_47_1.jpg,1020,350,16,23,5_16,0.0
autosave09_11_2012_09_49_47_3.jpg,1104,339,19,27,5_16,0.0
autosave09_11_2012_09_52_40_0.jpg,900,342,17,27,5_16,0.0
autosave09_11_2012_09_54_01_0.jpg,812,326,16,26,5_16,0.0
autosave09_11_2012_09_54_42_2.jpg,285,340,18,25,5_16,0.0
autosave09_11_2012_09_55_15_0.jpg,981,368,16,21,5_16,15.0
autosave09_11_2012_09_55_40_4.jpg,1008,338,17,26,5_16,0.0
autosave09_11_2012_09_55_42_2.jpg,1186,311,22,38,5_16,0.0
autosave09_11_2012_09_55_55_2.jpg,1023,349,16,28,5_16,0.0
autosave10_10_2012_07_41_25_0.jpg,741,354,30,45,5_16,0.0
autosave10_10_2012_07_43_53_1.jpg,703,371,22,36,5_16,0.0
autosave10_10_2012_08_08_07_1.jpg,952,361,25,42,5_16,0.0
autosave10_10_2012_08_08_55_0.jpg,943,269,36,65,5_16,0.0
autosave10_10_2012_08_08_55_1.jpg,1043,213,45,83,5_16,0.0
autosave10_10_2012_08_11_47_1.jpg,734,352,24,32,5_16,0.0
autosave10_10_2012_08_19_55_2.jpg,598,347,25,32,5_16,0.0
autosave10_10_2012_08_30_39_1.jpg,252,376,26,35,5_16,0.0
autosave10_10_2012_08_30_42_2.jpg,681,345,23,36,5_16,0.0
autosave10_10_2012_08_32_38_2.jpg,660,412,17,19,5_16,0.0
autosave10_10_2012_08_32_58_0.jpg,770,380,27,37,5_16,0.0
autosave10_10_2012_08_38_59_0.jpg,742,383,18,21,5_16,0.0
autosave10_10_2012_08_38_59_1.jpg,761,379,19,25,5_16,0.0
autosave10_10_2012_08_41_10_0.jpg,694,410,19,21,5_16,0.0
autosave10_10_2012_08_41_11_2.jpg,775,377,24,29,5_16,0.0
autosave10_10_2012_08_42_38_3.jpg,747,414,18,21,5_16,0.0
autosave10_10_2012_08_42_40_1.jpg,825,395,21,27,5_16,0.0
autosave10_10_2012_08_42_40_1.jpg,806,406,17,19,5_16,20.0
autosave10_10_2012_08_46_06_2.jpg,794,354,22,25,5_16,15.0
autosave10_10_2012_08_47_25_2.jpg,708,420,18,21,5_16,20.0
autosave10_10_2012_08_48_37_1.jpg,266,374,18,24,5_16,0.0
autosave10_10_2012_08_49_40_1.jpg,328,373,18,21,5_16,0.0
autosave10_10_2012_08_49_41_0.jpg,230,361,20,28,5_16,0.0
autosave10_10_2012_08_49_41_1.jpg,145,332,23,33,5_16,0.0
autosave10_10_2012_08_49_41_2.jpg,699,406,17,21,5_16,0.0
autosave10_10_2012_08_50_44_1.jpg,268,382,19,26,5_16,0.0
autosave10_10_2012_08_50_58_1.jpg,719,392,17,22,5_16,0.0
autosave10_10_2012_08_52_17_1.jpg,706,412,20,23,7_3,0.0
autosave10_10_2012_08_52_31_2.jpg,1029,302,32,48,5_16,0.0
autosave10_10_2012_08_52_36_0.jpg,1120,273,41,57,5_16,0.0
autosave10_10_2012_08_53_50_1.jpg,294,395,17,21,5_16,0.0
autosave10_10_2012_08_53_51_0.jpg,176,365,25,30,5_16,0.0
autosave10_10_2012_08_53_51_1.jpg,34,336,30,39,5_16,0.0
autosave10_10_2012_08_53_51_2.jpg,775,392,16,21,5_16,0.0
autosave10_10_2012_08_58_37_1.jpg,251,372,17,24,5_16,0.0
autosave10_10_2012_08_58_37_2.jpg,203,374,17,25,5_16,0.0
autosave10_10_2012_08_58_38_0.jpg,163,361,19,26,5_16,0.0
autosave10_10_2012_08_58_39_1.jpg,676,384,18,20,5_16,0.0
autosave10_10_2012_08_59_09_1.jpg,691,383,18,22,7_3,0.0
autosave10_10_2012_08_59_33_1.jpg,272,384,18,19,5_16,15.0
autosave10_10_2012_08_59_34_0.jpg,170,372,20,24,5_16,20.0
autosave10_10_2012_09_00_10_3.jpg,794,368,19,25,5_16,0.0
autosave10_10_2012_09_00_16_0.jpg,203,408,18,21,5_16,0.0
autosave10_10_2012_09_00_16_2.jpg,99,398,19,26,5_16,0.0
autosave10_10_2012_09_00_29_3.jpg,828,376,19,25,5_16,0.0
autosave10_10_2012_09_01_13_0.jpg,191,411,16,21,5_16,0.0
autosave10_10_2012_09_01_18_0.jpg,866,394,19,25,5_16,0.0
autosave10_10_2012_09_01_45_1.jpg,169,351,18,25,5_16,0.0
autosave10_10_2012_09_02_15_0.jpg,840,366,20,26,5_16,0.0
autosave10_10_2012_09_03_17_1.jpg,343,395,17,24,5_16,0.0
autosave10_10_2012_09_03_19_0.jpg,165,347,26,36,5_16,0.0
autosave10_10_2012_09_03_19_1.jpg,69,308,32,45,5_16,0.0
autosave10_10_2012_09_06_25_2.jpg,559,394,17,23,5_16,0.0
autosave10_10_2012_09_18_30_2.jpg,623,370,18,26,7_3,0.0
autosave10_10_2012_09_18_33_1.jpg,768,203,51,76,7_3,0.0
autosave10_10_2012_09_18_49_0.jpg,630,377,18,25,5_16,0.0
autosave10_10_2012_09_19_30_2.jpg,652,368,17,21,5_16,0.0
autosave10_10_2012_09_19_31_2.jpg,663,368,19,25,5_16,0.0
autosave10_10_2012_09_20_51_2.jpg,625,360,19,25,5_16,0.0
autosave10_10_2012_09_21_43_0.jpg,643,331,21,29,5_16,0.0
autosave10_10_2012_09_22_26_2.jpg,662,375,18,26,5_16,0.0
autosave10_10_2012_09_22_36_0.jpg,671,343,19,26,7_5,0.0
autosave10_10_2012_09_22_36_0.jpg,672,368,17,23,7_4,0.0
autosave10_10_2012_09_24_53_1.jpg,675,376,16,23,5_16,0.0
autosave10_10_2012_09_24_56_1.jpg,1086,166,63,95,5_16,0.0
autosave10_10_2012_09_24_56_1.jpg,197,366,17,25,5_16,0.0
autosave10_10_2012_09_24_57_2.jpg,10,325,27,38,5_16,0.0
autosave10_10_2012_09_26_37_0.jpg,754,395,17,24,5_16,0.0
autosave10_10_2012_09_29_53_0.jpg,155,380,18,26,5_16,0.0
autosave10_10_2012_09_29_53_1.jpg,109,374,21,29,5_16,0.0
autosave10_10_2012_09_29_53_3.jpg,4,355,24,34,5_16,0.0
autosave10_10_2012_09_31_21_0.jpg,772,401,17,22,5_16,0.0
autosave10_10_2012_09_31_22_2.jpg,855,377,21,30,5_16,0.0
autosave10_10_2012_09_32_51_0.jpg,859,328,24,33,5_16,0.0
autosave10_10_2012_09_38_22_0.jpg,674,348,16,24,5_16,0.0
autosave10_10_2012_09_38_58_0.jpg,732,368,20,27,7_3,0.0
autosave10_10_2012_09_38_59_2.jpg,945,270,45,59,7_3,0.0
autosave10_10_2012_09_39_07_1.jpg,718,384,17,22,5_16,0.0
autosave10_10_2012_09_39_42_1.jpg,780,363,20,31,5_16,0.0
autosave10_10_2012_09_40_04_1.jpg,743,371,24,30,7_3,0.0
autosave10_10_2012_09_46_35_0.jpg,401,390,24,39,7_5,0.0
autosave10_10_2012_09_46_35_3.jpg,746,385,24,39,7_5,0.0
autosave10_10_2012_09_50_21_2.jpg,1202,367,51,69,7_5,0.0
autosave10_10_2012_09_50_29_2.jpg,810,356,25,34,7_3,0.0
autosave10_10_2012_09_50_30_0.jpg,895,320,31,49,7_3,0.0
autosave10_10_2012_09_50_38_1.jpg,934,327,30,36,5_16,0.0
autosave10_10_2012_09_51_32_0.jpg,863,356,21,30,5_16,0.0
autosave10_10_2012_09_52_51_1.jpg,1016,382,24,31,5_16,0.0
autosave10_10_2012_09_52_54_0.jpg,65,348,23,32,5_16,0.0
autosave10_10_2012_09_54_16_2.jpg,901,318,27,38,5_16,0.0
autosave10_10_2012_09_54_51_1.jpg,1070,332,30,36,5_16,0.0
autosave10_10_2012_09_56_02_0.jpg,750,408,24,35,7_3,0.0
autosave10_10_2012_09_56_31_0.jpg,10,338,26,39,5_16,0.0
autosave10_10_2012_09_56_33_3.jpg,982,362,22,29,5_16,0.0
autosave10_10_2012_09_57_07_2.jpg,990,356,23,35,5_16,0.0
autosave10_10_2012_09_58_54_0.jpg,697,401,20,27,7_11,0.0
autosave10_10_2012_09_59_18_0.jpg,751,389,23,32,7_11,0.0
autosave10_10_2012_10_00_47_1.jpg,772,394,25,31,7_1,0.0
autosave10_10_2012_10_00_54_0.jpg,787,357,19,25,5_16,0.0
autosave10_10_2012_10_00_55_2.jpg,821,387,24,35,7_1,0.0
autosave10_10_2012_10_01_00_1.jpg,728,400,21,29,7_2,0.0
autosave10_10_2012_10_01_57_0.jpg,240,408,24,28,5_16,0.0
autosave10_10_2012_10_01_57_1.jpg,108,393,28,35,5_16,0.0
autosave10_10_2012_10_01_59_1.jpg,751,385,21,35,5_16,0.0
autosave10_10_2012_10_02_32_0.jpg,195,381,20,25,5_16,0.0
autosave10_10_2012_10_02_37_2.jpg,776,360,21,34,5_16,0.0
autosave10_10_2012_10_03_40_2.jpg,58,332,24,33,5_16,0.0
autosave10_10_2012_10_04_51_0.jpg,304,383,17,23,5_16,0.0
autosave10_10_2012_10_05_02_2.jpg,1246,400,24,28,5_16,0.0
autosave10_10_2012_10_06_24_2.jpg,766,329,26,39,5_16,0.0
autosave10_10_2012_10_06_33_0.jpg,798,406,26,34,7_3,0.0
autosave10_10_2012_10_07_15_2.jpg,837,358,25,33,5_16,0.0
autosave10_10_2012_10_08_19_4.jpg,187,350,26,36,5_16,0.0
autosave10_10_2012_10_08_20_0.jpg,26,328,35,45,5_16,0.0
autosave10_10_2012_10_08_28_1.jpg,905,351,24,36,5_16,0.0
autosave10_10_2012_10_09_04_2.jpg,292,391,22,31,5_16,0.0
autosave10_10_2012_10_09_07_0.jpg,758,400,20,27,5_16,0.0
autosave10_10_2012_10_10_01_3.jpg,898,379,18,31,5_16,0.0
autosave10_10_2012_10_10_06_1.jpg,718,378,23,34,7_1,0.0
autosave10_10_2012_10_10_12_2.jpg,74,340,22,35,5_16,0.0
autosave10_10_2012_10_11_19_4.jpg,706,380,24,34,7_11,0.0
autosave10_10_2012_10_11_40_2.jpg,663,402,25,34,7_11,0.0
autosave10_10_2012_10_12_02_1.jpg,753,372,24,30,7_11,0.0
autosave10_10_2012_10_13_44_2.jpg,1029,331,25,32,5_16,0.0
autosave10_10_2012_10_14_18_1.jpg,827,344,20,28,5_16,0.0
autosave10_10_2012_10_15_43_0.jpg,971,347,21,30,5_16,0.0
autosave10_10_2012_10_15_43_1.jpg,1156,296,29,42,5_16,0.0
autosave10_10_2012_10_15_44_1.jpg,871,363,18,24,5_16,0.0
autosave10_10_2012_10_15_51_2.jpg,66,376,19,24,5_16,0.0
autosave10_10_2012_10_16_13_0.jpg,877,367,18,26,5_16,0.0
autosave10_10_2012_10_16_18_0.jpg,175,347,16,33,5_16,0.0
autosave10_10_2012_10_17_29_1.jpg,865,374,21,29,5_16,0.0
autosave10_10_2012_10_18_30_1.jpg,812,370,20,30,5_16,0.0
autosave10_10_2012_10_19_47_0.jpg,716,415,20,24,7_5,0.0
autosave10_10_2012_10_19_50_2.jpg,970,376,37,56,7_5,0.0
autosave10_10_2012_10_20_48_2.jpg,704,358,16,23,5_16,0.0
autosave10_10_2012_10_21_29_2.jpg,676,372,16,23,5_16,0.0
autosave10_10_2012_10_23_10_0.jpg,1076,347,35,48,5_16,0.0
autosave10_10_2012_10_23_54_1.jpg,744,368,19,24,5_16,0.0
autosave10_10_2012_10_24_39_1.jpg,714,363,19,27,5_16,0.0
autosave10_10_2012_10_25_16_0.jpg,777,328,24,42,5_16,0.0
autosave10_10_2012_10_26_02_0.jpg,901,411,16,22,5_16,0.0
autosave10_10_2012_10_26_02_3.jpg,765,424,16,22,5_16,0.0
autosave10_10_2012_10_26_36_0.jpg,844,291,22,34,5_16,0.0
autosave10_10_2012_10_26_36_1.jpg,911,253,30,43,5_16,0.0
autosave10_10_2012_10_27_16_0.jpg,738,351,18,24,5_16,0.0
autosave10_10_2012_10_28_56_0.jpg,799,311,31,40,5_16,0.0
autosave10_10_2012_10_29_55_0.jpg,655,369,18,26,7_3,0.0
autosave10_10_2012_10_30_05_4.jpg,731,382,20,30,5_16,0.0
autosave10_10_2012_10_30_09_1.jpg,804,363,27,37,5_16,0.0
autosave10_10_2012_10_30_14_2.jpg,752,360,23,32,7_3,0.0
autosave10_10_2012_10_30_36_0.jpg,680,365,22,28,5_16,0.0
autosave10_10_2012_10_31_27_1.jpg,702,351,18,28,5_16,10.0
autosave10_10_2012_10_32_00_2.jpg,758,352,22,33,7_3,0.0
autosave10_10_2012_10_32_14_2.jpg,764,334,26,39,7_5,0.0
autosave10_10_2012_10_32_48_2.jpg,708,351,17,25,5_16,0.0
autosave10_10_2012_10_33_29_0.jpg,102,303,25,30,5_16,0.0
autosave10_10_2012_10_33_30_3.jpg,760,365,26,38,5_16,0.0
autosave10_10_2012_10_34_48_1.jpg,636,342,17,24,5_16,0.0
autosave10_10_2012_10_44_46_1.jpg,1060,402,27,39,5_16,0.0
autosave10_10_2012_10_45_12_1.jpg,757,408,18,26,5_16,0.0
autosave10_10_2012_10_49_13_2.jpg,711,386,17,27,5_16,0.0
autosave10_10_2012_10_51_20_1.jpg,165,366,22,34,5_16,0.0
autosave10_10_2012_11_17_48_3.jpg,849,431,16,22,5_16,0.0
autosave10_10_2012_11_20_13_2.jpg,845,421,19,30,5_16,0.0
autosave10_10_2012_11_23_42_1.jpg,707,393,23,35,7_3,0.0
autosave10_10_2012_11_24_32_0.jpg,836,347,28,41,5_16,0.0
autosave10_10_2012_11_26_01_0.jpg,752,367,24,34,5_16,0.0
autosave10_10_2012_11_28_52_1.jpg,775,370,25,37,5_16,0.0
autosave10_10_2012_11_29_33_0.jpg,326,378,20,31,5_16,0.0
autosave10_10_2012_11_31_43_1.jpg,475,335,23,50,5_16,0.0
autosave10_10_2012_11_38_47_0.jpg,819,398,21,32,5_16,0.0
autosave10_10_2012_11_38_47_3.jpg,823,352,28,43,5_16,0.0
autosave10_10_2012_11_38_49_0.jpg,945,267,60,86,5_16,0.0
autosave10_10_2012_11_39_34_0.jpg,801,363,23,34,5_16,0.0
autosave10_10_2012_11_40_27_0.jpg,737,367,22,30,5_16,0.0
autosave10_10_2012_11_40_27_1.jpg,758,370,23,33,5_16,0.0
autosave10_10_2012_11_40_29_0.jpg,1087,231,55,81,5_16,0.0
autosave10_10_2012_11_41_11_3.jpg,1185,420,23,33,5_16,0.0
autosave10_10_2012_11_46_30_0.jpg,801,358,28,42,5_16,0.0
autosave10_10_2012_11_48_22_0.jpg,310,381,20,25,5_16,10.0
autosave10_10_2012_11_49_43_0.jpg,961,377,30,46,5_16,0.0
autosave10_10_2012_12_06_53_1.jpg,299,361,20,27,5_16,0.0
autosave10_10_2012_12_07_04_5.jpg,824,365,20,29,5_16,0.0
autosave10_10_2012_12_10_34_1.jpg,752,397,18,26,5_16,0.0
autosave10_10_2012_12_12_10_0.jpg,887,379,24,34,5_16,0.0
autosave10_10_2012_12_14_53_1.jpg,898,322,20,30,5_16,0.0
autosave10_10_2012_12_22_26_2.jpg,68,325,21,28,5_16,0.0
autosave10_10_2012_12_23_12_0.jpg,100,396,25,31,5_16,0.0
autosave10_10_2012_12_23_15_4.jpg,896,272,26,42,5_16,0.0
autosave10_10_2012_12_23_24_1.jpg,796,384,22,31,7_3,0.0
autosave10_10_2012_12_26_42_2.jpg,1,260,31,42,5_16,0.0
autosave10_10_2012_12_26_44_0.jpg,760,325,24,33,5_16,0.0
autosave10_10_2012_12_33_05_0.jpg,783,353,23,35,5_16,0.0
autosave10_10_2012_12_38_19_2.jpg,809,337,23,32,5_16,0.0
autosave10_10_2012_12_39_20_0.jpg,934,349,23,33,5_16,0.0
autosave10_10_2012_12_40_39_1.jpg,833,348,24,35,5_16,0.0
autosave10_10_2012_12_41_42_1.jpg,869,332,24,35,5_16,0.0
autosave10_10_2012_12_42_47_1.jpg,832,317,25,34,5_16,0.0
autosave10_10_2012_12_43_44_2.jpg,986,319,33,48,5_16,0.0
autosave10_10_2012_12_44_54_3.jpg,746,376,22,28,7_3,0.0
autosave10_10_2012_12_45_09_2.jpg,874,385,22,31,7_3,0.0
autosave10_10_2012_12_46_29_1.jpg,964,324,20,28,5_16,0.0
autosave10_10_2012_12_48_22_2.jpg,914,297,26,35,5_16,0.0
autosave10_10_2012_12_49_38_0.jpg,806,350,21,33,5_16,0.0
autosave10_10_2012_12_59_30_0.jpg,190,384,19,19,5_16,0.0
autosave10_10_2012_12_59_30_2.jpg,118,380,24,23,5_16,0.0
autosave10_10_2012_13_03_40_0.jpg,712,316,22,33,5_16,0.0
autosave10_10_2012_13_05_04_1.jpg,894,383,21,31,5_16,0.0
autosave10_10_2012_13_06_54_0.jpg,762,364,19,28,5_16,0.0
autosave10_10_2012_13_07_58_1.jpg,828,337,22,30,5_16,0.0
autosave10_10_2012_13_09_24_0.jpg,847,322,23,33,5_16,0.0
autosave10_10_2012_13_10_29_0.jpg,782,372,17,23,5_16,0.0
autosave10_10_2012_13_10_37_1.jpg,1133,290,40,63,5_16,0.0
autosave10_10_2012_13_12_18_1.jpg,690,362,19,27,5_16,0.0
autosave10_10_2012_13_13_08_1.jpg,800,384,18,21,5_16,0.0
autosave10_10_2012_13_13_14_0.jpg,682,408,19,25,7_3,0.0
autosave10_10_2012_13_13_52_1.jpg,277,393,16,20,5_16,7.0
autosave10_10_2012_13_14_46_0.jpg,703,381,17,22,5_16,5.0
autosave10_10_2012_13_14_46_2.jpg,745,352,21,29,5_16,0.0
autosave10_10_2012_13_15_57_1.jpg,760,401,16,19,5_16,0.0
autosave10_10_2012_13_16_43_0.jpg,710,394,19,27,7_6,0.0
autosave10_10_2012_13_16_43_0.jpg,729,392,20,30,7_3,0.0
autosave10_10_2012_13_18_33_1.jpg,823,401,17,23,5_16,0.0
autosave10_10_2012_13_18_35_1.jpg,1171,362,37,48,5_16,0.0
autosave10_10_2012_13_18_55_0.jpg,763,404,23,33,7_3,0.0
autosave10_10_2012_13_21_26_1.jpg,752,372,19,25,5_16,0.0
autosave10_10_2012_13_21_27_1.jpg,889,313,30,41,5_16,0.0
autosave10_10_2012_13_24_10_0.jpg,876,383,19,22,5_16,5.0
autosave10_10_2012_13_24_58_3.jpg,641,407,18,21,7_4,0.0
autosave10_10_2012_13_25_51_0.jpg,239,411,20,22,5_16,60.0
autosave10_10_2012_13_25_59_3.jpg,745,379,16,24,5_16,10.0
autosave10_10_2012_13_26_00_1.jpg,812,362,24,29,5_16,10.0
autosave10_10_2012_13_27_28_0.jpg,672,422,17,22,7_7,0.0
autosave10_10_2012_13_27_56_1.jpg,741,380,20,24,5_16,10.0
autosave10_10_2012_13_28_00_2.jpg,306,389,19,22,5_16,0.0
autosave10_10_2012_13_30_14_3.jpg,791,379,16,23,5_16,0.0
autosave10_10_2012_13_30_41_2.jpg,685,411,17,22,7_2,0.0
autosave10_10_2012_13_30_50_2.jpg,696,391,20,27,7_4,0.0
autosave10_10_2012_13_30_50_2.jpg,680,391,20,28,7_3,0.0
autosave10_10_2012_13_31_19_1.jpg,641,397,17,21,7_2,0.0
autosave10_10_2012_13_31_22_2.jpg,935,281,60,88,7_2,0.0
autosave10_10_2012_13_35_01_1.jpg,790,409,19,25,5_16,0.0
autosave10_10_2012_13_36_44_1.jpg,672,412,18,23,7_2,0.0
autosave10_10_2012_13_36_44_1.jpg,687,410,17,25,7_7,0.0
autosave10_10_2012_13_54_35_3.jpg,372,393,19,23,5_16,0.0
autosave10_10_2012_13_54_41_3.jpg,730,391,24,32,5_16,0.0
autosave10_10_2012_13_55_13_1.jpg,679,386,19,28,5_16,0.0
autosave10_10_2012_14_02_21_0.jpg,846,364,29,37,5_16,15.0
autosave10_10_2012_14_09_05_3.jpg,838,383,22,33,5_16,0.0
autosave10_10_2012_14_09_07_0.jpg,899,365,25,37,5_16,0.0
autosave10_10_2012_14_09_15_0.jpg,209,387,21,31,5_16,0.0
autosave10_10_2012_14_10_02_2.jpg,668,407,17,21,5_16,0.0
autosave10_10_2012_14_10_03_3.jpg,731,375,20,29,5_16,0.0
autosave10_10_2012_14_10_06_0.jpg,826,353,30,45,5_16,0.0
autosave10_10_2012_14_10_06_1.jpg,868,332,36,57,5_16,0.0
autosave10_10_2012_14_10_51_0.jpg,695,390,20,28,7_3,0.0
autosave10_10_2012_14_10_53_2.jpg,1017,290,56,84,7_3,0.0
autosave10_10_2012_14_12_34_2.jpg,682,394,25,34,7_3,0.0
autosave10_10_2012_14_12_55_1.jpg,670,382,16,22,5_16,0.0
autosave10_10_2012_14_13_59_3.jpg,772,383,17,26,5_16,0.0
autosave10_10_2012_14_14_03_0.jpg,886,368,24,39,5_16,0.0
autosave10_10_2012_14_14_06_0.jpg,1024,336,37,57,5_16,0.0
autosave10_10_2012_14_14_16_0.jpg,192,362,22,33,5_16,0.0
autosave10_10_2012_14_24_43_0.jpg,1204,382,16,25,5_16,0.0
autosave10_10_2012_14_25_51_2.jpg,687,404,16,24,7_2,0.0
autosave10_10_2012_14_25_52_2.jpg,699,411,18,29,7_2,0.0
autosave10_10_2012_14_25_52_2.jpg,358,418,16,19,5_16,0.0
autosave10_10_2012_14_26_41_1.jpg,716,389,19,29,7_2,0.0
autosave10_10_2012_14_29_48_3.jpg,1199,442,29,38,5_16,0.0
autosave10_10_2012_14_30_44_2.jpg,321,391,18,23,5_16,0.0
autosave10_10_2012_14_37_03_0.jpg,749,394,19,23,5_16,0.0
autosave10_10_2012_14_38_01_2.jpg,691,376,20,30,5_16,0.0
autosave10_10_2012_14_38_03_2.jpg,927,343,32,47,5_16,0.0
autosave10_10_2012_14_38_05_0.jpg,1207,234,72,101,5_16,5.0
autosave10_10_2012_14_38_59_0.jpg,1058,392,28,34,5_16,0.0
autosave10_10_2012_14_41_46_2.jpg,668,398,18,25,5_16,0.0
autosave10_10_2012_14_41_47_3.jpg,767,324,30,46,5_16,0.0
autosave10_10_2012_14_41_48_0.jpg,777,313,33,50,5_16,0.0
autosave10_10_2012_14_41_49_0.jpg,1041,196,67,106,5_16,0.0
autosave10_10_2012_14_41_49_0.jpg,429,417,16,20,5_16,0.0
autosave10_10_2012_14_46_56_0.jpg,693,332,28,42,5_16,50.0
autosave10_10_2012_14_46_58_2.jpg,314,414,18,26,5_16,0.0
autosave10_10_2012_14_48_46_0.jpg,324,419,16,21,5_16,0.0
autosave10_10_2012_14_48_46_2.jpg,289,410,18,23,5_16,0.0
autosave10_10_2012_14_48_48_1.jpg,162,383,25,32,5_16,0.0
autosave10_10_2012_14_48_48_1.jpg,588,402,18,20,5_16,0.0
autosave10_10_2012_14_48_50_0.jpg,627,386,18,23,5_16,0.0
autosave10_10_2012_14_49_57_0.jpg,634,408,18,21,5_16,0.0
autosave10_10_2012_14_49_57_1.jpg,734,403,18,21,5_16,0.0
autosave10_10_2012_14_49_57_2.jpg,815,402,18,21,5_16,0.0
autosave13_04_2013_09_39_50_0.jpg,1288,302,42,67,5_16,0.0
autosave13_04_2013_09_46_01_2.jpg,1682,399,23,24,5_16,0.0
autosave13_04_2013_09_51_56_1.jpg,1557,326,67,91,5_16,0.0
autosave13_04_2013_09_52_42_1.jpg,338,408,45,64,5_16,0.0
autosave13_04_2013_09_54_55_1.jpg,1076,349,30,42,5_16,0.0
autosave13_04_2013_09_55_17_0.jpg,1185,300,39,62,5_16,0.0
autosave13_04_2013_09_57_29_1.jpg,1061,356,29,44,5_16,0.0
autosave13_04_2013_11_06_03_0.jpg,1143,300,37,56,5_16,50.0
autosave13_04_2013_11_07_07_2.jpg,1255,384,31,39,5_16,15.0
autosave13_04_2013_11_07_58_1.jpg,1175,307,29,42,5_16,0.0
autosave13_04_2013_11_08_00_0.jpg,1185,319,29,42,5_16,0.0
autosave13_04_2013_11_08_00_0.jpg,292,511,19,29,5_16,0.0
autosave13_04_2013_12_01_18_2.jpg,1018,442,29,33,7_3,0.0
autosave13_04_2013_12_01_21_2.jpg,1172,371,52,66,7_3,0.0
autosave13_04_2013_12_08_35_3.jpg,1237,455,24,32,5_16,30.0
autosave13_04_2013_12_08_35_3.jpg,361,475,22,30,5_16,0.0
autosave13_04_2013_12_11_00_2.jpg,101,510,28,42,5_16,0.0
autosave13_04_2013_12_11_27_2.jpg,1130,422,22,38,5_16,0.0
autosave13_04_2013_12_11_28_2.jpg,1270,368,36,52,5_16,0.0
autosave13_04_2013_12_11_29_2.jpg,1692,133,87,117,5_16,0.0
autosave13_04_2013_12_12_06_1.jpg,1202,479,21,25,5_16,0.0
autosave13_04_2013_12_12_47_1.jpg,1104,410,28,38,5_16,0.0
autosave13_04_2013_12_12_47_1.jpg,365,429,24,39,5_16,0.0
autosave13_04_2013_12_13_16_2.jpg,1223,400,30,40,5_16,0.0
autosave13_04_2013_12_13_24_2.jpg,414,471,29,43,5_16,0.0
autosave13_04_2013_12_14_26_1.jpg,693,461,16,27,5_16,0.0
autosave13_04_2013_12_14_29_1.jpg,7,255,61,100,5_16,0.0
autosave13_04_2013_12_14_29_1.jpg,1219,447,20,32,5_16,0.0
autosave13_04_2013_12_17_34_0.jpg,645,465,20,33,5_16,0.0
autosave13_04_2013_12_23_41_1.jpg,1172,480,24,36,5_16,0.0
autosave13_04_2013_12_25_12_0.jpg,687,476,18,24,5_16,0.0
autosave13_04_2013_12_25_56_2.jpg,1078,472,36,53,5_16,0.0
autosave13_04_2013_12_27_49_1.jpg,1074,476,17,29,7_4,0.0
autosave13_04_2013_12_27_53_1.jpg,1687,284,106,154,7_4,10.0
autosave13_04_2013_12_31_46_1.jpg,547,399,29,49,5_16,0.0
autosave13_04_2013_12_32_40_0.jpg,394,470,24,33,5_16,0.0
autosave13_04_2013_12_47_28_2.jpg,1237,425,33,51,7_3,0.0
autosave13_04_2013_12_47_28_2.jpg,1037,474,18,27,5_16,0.0
autosave13_04_2013_12_47_34_3.jpg,1542,390,50,73,5_16,0.0
autosave13_04_2013_12_47_42_2.jpg,1029,473,18,27,7_3,0.0
autosave13_04_2013_12_49_46_2.jpg,361,462,22,30,5_16,0.0
autosave13_04_2013_12_50_26_0.jpg,27,417,42,44,5_16,0.0
autosave13_04_2013_12_51_54_1.jpg,1232,441,24,32,5_16,0.0
autosave13_04_2013_12_52_14_1.jpg,1188,440,28,46,7_3,0.0
autosave13_04_2013_12_54_09_0.jpg,1346,413,37,38,7_5,0.0
autosave13_04_2013_12_54_09_1.jpg,1404,373,36,47,7_5,0.0
autosave13_04_2013_12_54_09_1.jpg,454,490,16,26,5_16,0.0
autosave13_04_2013_12_54_10_0.jpg,290,453,21,33,5_16,0.0
autosave13_04_2013_13_05_16_3.jpg,486,548,16,28,5_16,0.0
autosave13_04_2013_13_05_18_1.jpg,195,545,25,50,5_16,0.0
autosave13_04_2013_13_05_18_1.jpg,1217,514,16,23,5_16,0.0
autosave13_04_2013_13_05_56_3.jpg,0,532,20,34,7_3,10.0
autosave13_04_2013_13_17_18_2.jpg,1095,471,20,28,5_16,0.0
autosave13_04_2013_13_18_49_2.jpg,1095,517,20,29,7_5,0.0
autosave13_04_2013_13_27_41_0.jpg,1048,413,33,47,7_3,0.0
autosave13_04_2013_13_28_15_0.jpg,933,470,19,31,5_16,0.0
autosave13_04_2013_13_28_20_2.jpg,495,537,16,23,5_16,0.0
autosave13_04_2013_13_28_22_2.jpg,410,522,21,28,5_16,0.0
autosave13_04_2013_13_28_22_3.jpg,389,511,22,32,5_16,0.0
autosave13_04_2013_13_28_24_1.jpg,225,495,30,41,5_16,0.0
autosave13_04_2013_13_29_51_1.jpg,1113,454,19,31,5_16,0.0
autosave13_04_2013_13_40_18_2.jpg,214,431,28,43,5_16,0.0
autosave13_04_2013_13_40_33_1.jpg,1520,417,39,53,5_16,0.0
autosave13_04_2013_13_41_02_0.jpg,957,494,16,25,5_16,0.0
autosave13_04_2013_13_41_02_2.jpg,982,484,16,25,5_16,0.0
autosave13_04_2013_13_41_03_0.jpg,988,476,16,25,5_16,0.0
autosave13_04_2013_13_41_03_2.jpg,1020,464,16,25,5_16,0.0
autosave13_04_2013_13_41_04_3.jpg,1088,456,26,38,5_16,0.0
autosave13_04_2013_13_41_04_3.jpg,503,515,17,23,5_16,0.0
autosave13_04_2013_13_41_29_0.jpg,355,471,23,31,5_16,0.0
autosave13_04_2013_13_41_54_2.jpg,455,491,20,29,5_16,0.0
autosave13_04_2013_13_42_01_1.jpg,1203,442,28,38,5_16,0.0
autosave13_04_2013_13_43_36_2.jpg,1025,497,26,38,7_4,0.0
autosave13_04_2013_13_43_38_2.jpg,1233,331,80,115,7_4,50.0
autosave13_04_2013_13_43_38_2.jpg,1109,529,18,27,5_16,0.0
autosave13_04_2013_13_43_39_1.jpg,1173,497,20,30,5_16,0.0
autosave13_04_2013_13_44_04_1.jpg,1184,516,19,29,5_16,0.0
autosave13_04_2013_13_44_38_0.jpg,26,515,27,47,5_16,0.0
autosave13_04_2013_13_44_45_1.jpg,1178,460,27,40,5_16,0.0
autosave13_04_2013_13_44_45_1.jpg,940,516,19,28,7_3,0.0
autosave13_04_2013_13_44_58_1.jpg,1037,448,28,43,7_3,0.0
autosave13_04_2013_13_45_19_3.jpg,1172,493,17,27,5_16,0.0
autosave13_04_2013_13_45_23_1.jpg,1650,322,60,86,5_16,0.0
autosave13_04_2013_13_47_01_2.jpg,1219,472,21,29,5_16,0.0
autosave13_04_2013_13_47_21_1.jpg,233,517,24,31,5_16,0.0
autosave13_04_2013_13_47_31_1.jpg,1237,472,24,35,5_16,0.0
autosave13_04_2013_13_48_14_0.jpg,477,494,19,26,5_16,0.0
autosave13_04_2013_13_48_14_2.jpg,382,494,24,32,5_16,0.0
autosave13_04_2013_13_48_14_2.jpg,1145,488,18,26,5_16,0.0
autosave13_04_2013_13_48_47_0.jpg,1295,470,30,38,5_16,0.0
autosave13_04_2013_13_50_20_0.jpg,463,502,17,25,5_16,0.0
autosave13_04_2013_13_50_20_2.jpg,363,489,19,29,5_16,0.0
autosave13_04_2013_13_50_21_0.jpg,1156,482,16,21,5_16,0.0
autosave13_04_2013_13_50_21_0.jpg,313,491,23,30,5_16,0.0
autosave13_04_2013_13_55_51_1.jpg,1120,538,27,35,7_3,0.0
autosave13_04_2013_13_55_54_0.jpg,1692,403,156,149,7_3,0.0
autosave13_04_2013_13_56_32_0.jpg,1085,476,17,26,5_16,0.0
autosave13_04_2013_14_12_08_2.jpg,1310,433,28,37,5_16,0.0
autosave13_04_2013_14_12_43_1.jpg,504,546,16,19,5_16,5.0
autosave13_04_2013_14_12_55_1.jpg,1167,456,31,44,7_3,0.0
autosave13_04_2013_14_13_05_1.jpg,1102,491,25,33,7_3,0.0
autosave13_04_2013_14_13_25_0.jpg,1390,491,20,27,5_16,0.0
autosave13_04_2013_14_13_25_1.jpg,1421,490,20,27,5_16,0.0
autosave13_04_2013_14_14_02_2.jpg,1312,485,19,25,5_16,0.0
autosave13_04_2013_14_14_02_2.jpg,1045,522,17,22,7_4,0.0
autosave13_04_2013_14_15_13_2.jpg,1242,430,24,36,5_16,0.0
autosave13_04_2013_14_15_14_1.jpg,1339,415,32,53,5_16,0.0
autosave13_04_2013_14_15_32_1.jpg,138,492,33,42,5_16,50.0
autosave13_04_2013_14_15_32_2.jpg,40,477,35,44,5_16,40.0
autosave13_04_2013_14_15_33_0.jpg,1249,492,21,29,5_16,0.0
autosave13_04_2013_14_16_15_2.jpg,1164,450,23,28,5_16,0.0
autosave13_04_2013_14_16_46_2.jpg,1222,244,71,98,5_16,15.0
autosave13_04_2013_14_17_07_1.jpg,1132,343,44,64,5_16,0.0
autosave13_04_2013_14_17_07_1.jpg,192,475,23,37,5_16,0.0
autosave13_04_2013_15_16_09_1.jpg,256,558,21,26,5_16,0.0
autosave13_04_2013_15_16_15_0.jpg,969,557,18,25,5_16,0.0
autosave13_04_2013_15_17_06_2.jpg,1102,547,17,26,5_16,0.0
autosave13_04_2013_15_17_25_2.jpg,971,577,16,26,5_16,0.0
autosave13_04_2013_15_17_29_3.jpg,467,553,17,29,5_16,0.0
autosave13_04_2013_15_18_21_0.jpg,227,515,23,33,5_16,0.0
autosave13_04_2013_15_23_11_1.jpg,1077,562,16,23,5_16,0.0
autosave13_04_2013_15_24_21_1.jpg,1587,488,43,71,5_16,10.0
autosave13_04_2013_15_24_32_2.jpg,453,562,18,22,5_16,0.0
autosave13_04_2013_15_24_33_1.jpg,313,540,20,27,5_16,0.0
autosave13_04_2013_15_24_34_2.jpg,15,511,33,45,5_16,0.0
autosave13_04_2013_15_30_04_1.jpg,253,474,30,45,5_16,10.0
autosave13_04_2013_15_30_05_2.jpg,1203,557,20,25,5_16,40.0
autosave13_04_2013_15_30_07_1.jpg,1566,488,37,58,5_16,0.0
autosave13_04_2013_15_30_07_1.jpg,964,576,20,28,7_3,0.0
autosave13_04_2013_15_30_10_0.jpg,1115,513,36,58,7_3,0.0
autosave13_04_2013_15_30_10_1.jpg,1171,498,49,72,7_3,0.0
autosave13_04_2013_15_30_19_0.jpg,941,569,16,21,7_3,0.0
autosave13_04_2013_15_30_21_1.jpg,1022,538,30,44,7_3,0.0
autosave13_04_2013_15_35_24_1.jpg,1062,563,18,26,5_16,0.0
autosave13_04_2013_15_51_42_3.jpg,1049,564,21,32,5_16,0.0
autosave16_04_2013_11_30_45_0.jpg,1097,492,28,42,5_16,50.0
autosave16_04_2013_11_35_29_2.jpg,1053,517,25,42,5_16,0.0
autosave16_04_2013_11_37_31_3.jpg,466,520,24,36,5_16,0.0
autosave16_04_2013_11_37_33_1.jpg,373,500,30,40,5_16,0.0
autosave16_04_2013_11_37_33_2.jpg,340,487,33,44,5_16,0.0
autosave16_04_2013_11_37_33_2.jpg,869,537,16,24,5_16,0.0
autosave16_04_2013_11_43_09_0.jpg,1130,533,19,28,5_16,0.0
autosave16_04_2013_11_45_22_0.jpg,995,523,21,30,5_16,10.0
autosave16_04_2013_11_46_58_3.jpg,938,550,20,24,5_16,0.0
autosave16_04_2013_11_48_01_0.jpg,1186,501,22,36,5_16,0.0
autosave16_04_2013_11_48_03_0.jpg,512,530,21,27,5_16,0.0
autosave16_04_2013_11_48_06_1.jpg,1131,519,18,30,5_16,0.0
autosave16_04_2013_11_49_18_0.jpg,588,525,19,24,5_16,0.0
autosave16_04_2013_11_49_55_1.jpg,1026,574,16,26,5_16,0.0
autosave16_04_2013_11_50_06_0.jpg,826,554,17,22,5_16,0.0
autosave16_04_2013_11_50_13_3.jpg,1142,545,27,39,5_16,0.0
autosave16_04_2013_11_53_11_2.jpg,424,507,18,28,5_16,0.0
autosave16_04_2013_11_53_22_0.jpg,1262,536,20,31,5_16,0.0
autosave16_04_2013_11_58_43_2.jpg,333,485,21,33,5_16,0.0
autosave16_04_2013_11_58_45_0.jpg,120,431,29,46,5_16,0.0
autosave16_04_2013_11_58_58_1.jpg,1084,550,16,22,5_16,0.0
autosave16_04_2013_12_00_34_2.jpg,1067,548,21,23,5_16,90.0
autosave16_04_2013_12_30_03_2.jpg,999,566,21,29,7_12,0.0
autosave16_04_2013_12_30_47_1.jpg,1095,463,18,26,5_16,0.0
autosave16_04_2013_12_32_19_0.jpg,1002,525,23,29,5_16,10.0
autosave16_04_2013_12_32_19_1.jpg,1029,517,23,29,5_16,5.0
autosave16_04_2013_12_32_19_3.jpg,1068,508,23,30,5_16,0.0
autosave16_04_2013_12_33_48_0.jpg,942,538,16,24,7_3,0.0
autosave16_04_2013_12_38_31_1.jpg,877,538,16,23,5_16,0.0
autosave16_04_2013_12_49_55_0.jpg,1067,475,33,61,5_16,20.0
autosave16_04_2013_12_56_31_1.jpg,533,488,25,38,5_16,0.0
autosave16_04_2013_12_56_32_1.jpg,277,432,38,52,5_16,0.0
autosave16_04_2013_12_57_25_1.jpg,517,517,20,28,5_16,0.0
autosave16_04_2013_12_58_10_1.jpg,193,396,60,83,5_16,10.0
autosave16_04_2013_13_07_45_1.jpg,963,614,24,35,5_16,30.0
autosave16_04_2013_13_08_05_2.jpg,944,527,17,28,5_16,0.0
autosave16_04_2013_13_08_40_3.jpg,1152,487,29,49,5_16,40.0
autosave16_04_2013_13_08_41_0.jpg,1163,485,29,49,5_16,50.0
autosave16_04_2013_13_09_34_2.jpg,1038,498,29,44,5_16,20.0
autosave16_04_2013_13_10_16_1.jpg,1274,395,43,64,5_16,0.0
autosave16_04_2013_13_11_05_0.jpg,898,555,17,23,5_16,0.0
autosave16_04_2013_13_12_32_2.jpg,1181,522,32,37,5_16,0.0
autosave16_04_2013_13_13_06_1.jpg,991,551,19,24,5_16,0.0
autosave16_04_2013_13_13_32_0.jpg,1053,547,23,32,5_16,0.0
autosave16_04_2013_13_13_32_0.jpg,465,524,22,34,5_16,0.0
autosave16_04_2013_13_19_48_2.jpg,511,523,25,27,5_16,0.0
autosave16_04_2013_13_20_44_1.jpg,463,490,28,35,5_16,0.0
autosave16_04_2013_13_21_22_1.jpg,436,501,26,43,5_16,0.0
autosave16_04_2013_13_22_59_0.jpg,346,821,19,30,5_16,0.0
autosave16_04_2013_13_23_01_1.jpg,309,807,24,35,5_16,0.0
autosave16_04_2013_13_23_42_3.jpg,580,786,32,45,5_16,0.0
autosave16_04_2013_13_23_42_3.jpg,986,826,31,37,5_16,0.0
autosave16_04_2013_13_24_43_3.jpg,666,810,17,26,5_16,0.0
autosave16_04_2013_13_34_12_2.jpg,1243,834,36,39,5_16,0.0
autosave16_04_2013_13_34_57_1.jpg,1207,797,29,48,5_16,0.0
autosave16_04_2013_13_36_12_0.jpg,501,846,21,30,5_16,0.0
autosave16_04_2013_13_37_07_1.jpg,1358,810,22,34,5_16,0.0
autosave16_04_2013_13_39_08_0.jpg,1046,829,19,38,5_16,0.0
autosave16_04_2013_13_46_41_2.jpg,999,847,24,30,5_16,0.0
autosave16_04_2013_13_52_20_3.jpg,1081,794,26,42,5_16,0.0
autosave16_04_2013_13_53_04_0.jpg,973,800,28,37,5_16,0.0
autosave16_04_2013_13_53_57_0.jpg,1030,848,23,36,5_16,0.0
autosave16_04_2013_13_59_12_3.jpg,1329,556,22,31,7_3,0.0
autosave16_04_2013_14_18_21_1.jpg,1211,422,25,35,5_16,0.0
autosave16_04_2013_14_18_21_1.jpg,514,401,25,45,5_16,0.0
autosave16_04_2013_14_18_37_1.jpg,707,468,19,27,5_16,0.0
autosave16_04_2013_14_20_59_0.jpg,1096,491,21,29,5_16,0.0
autosave16_04_2013_14_23_28_1.jpg,1070,442,21,30,5_16,0.0
autosave16_04_2013_14_25_17_1.jpg,404,452,20,32,5_16,0.0
autosave16_04_2013_14_25_27_0.jpg,1615,405,45,63,5_16,0.0
autosave16_04_2013_14_25_29_1.jpg,1171,428,25,37,7_3,0.0
autosave16_04_2013_14_25_31_1.jpg,1244,409,33,45,7_3,0.0
autosave16_04_2013_14_25_33_2.jpg,1331,362,41,60,7_3,0.0
autosave16_04_2013_14_25_33_3.jpg,1378,359,50,69,7_3,0.0
autosave16_04_2013_14_25_35_0.jpg,1812,187,95,130,7_3,0.0
autosave16_04_2013_14_27_57_1.jpg,1154,438,25,40,5_16,0.0
autosave16_04_2013_14_28_33_1.jpg,1562,449,19,29,5_16,0.0
autosave16_04_2013_14_28_45_2.jpg,1335,362,25,48,5_16,0.0
autosave16_04_2013_14_29_52_0.jpg,1033,440,24,36,5_16,15.0
autosave16_04_2013_14_29_52_1.jpg,1050,407,26,40,5_16,7.0
autosave16_04_2013_14_29_52_1.jpg,330,400,33,44,5_16,0.0
autosave16_04_2013_14_30_13_0.jpg,616,441,18,29,5_16,0.0
autosave16_04_2013_14_30_15_0.jpg,1196,430,28,39,5_16,0.0
autosave16_04_2013_14_30_57_1.jpg,1665,423,39,61,5_16,0.0
autosave16_04_2013_14_30_57_1.jpg,384,387,37,50,5_16,0.0
autosave16_04_2013_14_35_43_0.jpg,209,446,37,48,5_16,5.0
autosave16_04_2013_14_35_43_1.jpg,655,448,37,48,5_16,4.0
autosave16_04_2013_14_38_49_1.jpg,1503,447,32,43,5_16,5.0
autosave16_04_2013_14_38_49_1.jpg,524,427,29,38,5_16,0.0
autosave16_04_2013_14_41_04_1.jpg,1280,489,23,37,5_16,0.0
autosave16_04_2013_14_43_55_3.jpg,1230,430,38,51,7_3,0.0
autosave16_04_2013_14_44_25_0.jpg,1257,434,25,39,5_16,0.0
autosave16_04_2013_14_46_12_0.jpg,619,496,17,22,5_16,0.0
autosave16_04_2013_14_48_19_1.jpg,627,478,19,24,5_16,0.0
autosave16_04_2013_14_48_19_2.jpg,588,486,19,24,5_16,0.0
autosave16_04_2013_14_50_06_1.jpg,95,401,46,52,5_16,0.0
autosave16_04_2013_14_51_18_0.jpg,1818,447,26,51,5_16,15.0
autosave16_04_2013_14_51_43_3.jpg,1205,362,27,47,5_16,0.0
autosave16_04_2013_14_51_45_0.jpg,1795,312,40,70,5_16,0.0
autosave16_04_2013_15_12_02_2.jpg,1114,482,19,26,5_16,0.0
autosave16_04_2013_15_12_51_0.jpg,1109,525,17,31,7_3,0.0
autosave16_04_2013_15_13_20_1.jpg,1255,376,33,52,7_3,50.0
autosave16_04_2013_15_13_21_1.jpg,1404,333,58,89,7_3,0.0
autosave16_04_2013_15_17_06_0.jpg,1107,464,25,36,7_3,0.0
autosave16_04_2013_15_22_37_2.jpg,1178,479,19,28,5_16,0.0
autosave16_04_2013_15_28_08_1.jpg,1071,446,17,28,5_16,10.0
autosave16_04_2013_15_28_08_2.jpg,1079,446,17,28,5_16,0.0
autosave16_04_2013_15_28_08_3.jpg,1100,438,19,32,5_16,0.0
autosave16_04_2013_15_28_12_0.jpg,1214,366,31,50,5_16,0.0
autosave16_04_2013_15_30_27_0.jpg,1034,474,23,34,5_16,0.0
autosave16_04_2013_15_37_22_0.jpg,1226,466,16,23,5_16,5.0
autosave16_10_2012_06_46_43_2.jpg,910,333,20,29,5_16,0.0
autosave16_10_2012_06_46_55_0.jpg,758,331,18,25,5_16,0.0
autosave16_10_2012_06_47_04_1.jpg,742,270,19,29,5_16,0.0
autosave16_10_2012_06_47_33_1.jpg,633,300,25,42,7_2,0.0
autosave16_10_2012_06_47_34_3.jpg,815,179,69,105,7_2,0.0
autosave16_10_2012_06_48_40_2.jpg,776,309,27,36,5_16,0.0
autosave16_10_2012_06_53_53_3.jpg,789,287,23,30,5_16,0.0
autosave16_10_2012_06_53_59_1.jpg,702,329,22,29,5_16,0.0
autosave16_10_2012_06_54_02_1.jpg,727,317,22,33,5_16,0.0
autosave16_10_2012_06_54_07_0.jpg,1082,226,42,68,5_16,0.0
autosave16_10_2012_07_12_57_0.jpg,650,347,18,25,5_16,0.0
autosave16_10_2012_07_15_08_1.jpg,705,337,18,24,5_16,0.0
autosave16_10_2012_07_15_08_3.jpg,798,315,25,36,5_16,0.0
autosave16_10_2012_07_16_36_1.jpg,738,328,19,30,5_16,0.0
autosave16_10_2012_07_17_03_0.jpg,730,328,21,27,5_16,0.0
autosave16_10_2012_07_20_25_1.jpg,657,311,16,22,5_16,0.0
autosave16_10_2012_08_02_39_2.jpg,692,344,18,24,5_16,0.0
autosave16_10_2012_08_02_51_1.jpg,638,355,17,22,7_3,0.0
autosave16_10_2012_08_02_52_2.jpg,746,299,42,61,7_7,0.0
autosave16_10_2012_08_02_52_2.jpg,809,324,34,45,7_3,0.0
autosave16_10_2012_08_03_00_0.jpg,669,311,17,25,5_16,0.0
autosave16_10_2012_08_03_22_3.jpg,671,347,17,24,5_16,0.0
autosave16_10_2012_08_03_43_0.jpg,802,361,20,25,5_16,0.0
autosave16_10_2012_08_03_43_1.jpg,869,352,23,30,5_16,0.0
autosave16_10_2012_08_03_43_2.jpg,937,346,26,34,5_16,0.0
autosave16_10_2012_08_04_03_1.jpg,816,364,23,34,7_3,0.0
autosave16_10_2012_08_04_18_3.jpg,1038,348,20,29,5_16,0.0
autosave16_10_2012_08_04_28_1.jpg,647,294,37,52,7_3,0.0
autosave16_10_2012_08_04_34_5.jpg,680,354,20,25,7_3,0.0
autosave16_10_2012_08_04_38_2.jpg,853,262,70,112,7_3,0.0
autosave16_10_2012_08_04_42_4.jpg,768,408,27,35,7_3,0.0
autosave16_10_2012_08_10_24_2.jpg,766,374,17,24,5_16,0.0
autosave16_10_2012_08_10_50_0.jpg,865,363,20,29,5_16,0.0
autosave16_10_2012_08_10_50_2.jpg,1078,355,30,41,5_16,0.0
autosave16_10_2012_08_11_33_2.jpg,845,248,25,33,5_16,0.0
autosave16_10_2012_08_13_56_0.jpg,574,333,18,28,7_2,0.0
autosave16_10_2012_08_13_58_2.jpg,640,293,33,49,7_2,0.0
autosave16_10_2012_08_13_58_3.jpg,666,277,39,57,7_2,0.0
autosave16_10_2012_08_22_35_4.jpg,734,338,18,29,5_16,5.0
autosave16_10_2012_08_48_43_2.jpg,952,354,16,34,5_18,0.0
autosave16_10_2012_08_48_43_3.jpg,967,352,16,36,5_18,0.0
autosave16_10_2012_09_05_52_0.jpg,646,326,24,33,5_16,0.0
autosave16_10_2012_09_07_14_0.jpg,217,282,22,30,5_16,35.0
autosave16_10_2012_09_07_15_0.jpg,0,214,30,45,5_16,20.0
autosave16_10_2012_09_07_15_0.jpg,609,326,22,23,5_16,0.0
autosave16_10_2012_09_07_16_2.jpg,888,189,78,79,5_16,0.0
autosave16_10_2012_09_07_16_2.jpg,641,312,26,36,5_16,0.0
autosave16_10_2012_09_07_51_0.jpg,649,323,22,30,5_16,0.0
autosave16_10_2012_09_10_24_1.jpg,703,317,28,42,5_16,0.0
autosave16_10_2012_09_10_25_1.jpg,934,273,59,82,5_16,0.0
autosave16_10_2012_09_10_59_1.jpg,106,247,28,36,5_16,0.0
autosave16_10_2012_09_31_52_2.jpg,1176,375,35,42,5_16,0.0
autosave16_10_2012_09_31_52_3.jpg,1133,343,34,45,5_16,0.0
autosave16_10_2012_09_31_52_3.jpg,327,272,22,32,5_16,0.0
autosave16_10_2012_10_04_36_5.jpg,615,289,16,25,5_16,0.0
autosave16_10_2012_10_07_04_0.jpg,794,304,17,25,5_16,0.0
autosave16_10_2012_10_23_15_1.jpg,56,300,17,26,5_16,55.0
autosave16_10_2012_10_26_34_1.jpg,963,276,17,25,5_16,60.0
autosave16_10_2012_10_26_35_1.jpg,128,311,17,23,5_16,0.0
autosave16_10_2012_10_26_35_1.jpg,1104,243,29,36,5_16,0.0
autosave16_10_2012_10_27_19_0.jpg,971,270,19,29,5_16,0.0
autosave16_10_2012_10_27_20_0.jpg,164,308,16,23,5_16,0.0
autosave16_10_2012_10_56_41_2.jpg,45,316,18,21,5_16,0.0
autosave16_10_2012_10_59_59_1.jpg,46,325,16,21,5_16,0.0
autosave16_10_2012_10_59_59_4.jpg,22,334,17,24,5_16,0.0
autosave16_10_2012_11_01_52_3.jpg,838,309,16,24,7_5,0.0
autosave16_10_2012_11_01_52_5.jpg,844,286,16,24,7_4,0.0
autosave16_10_2012_11_01_52_5.jpg,845,311,16,24,7_5,0.0
autosave16_10_2012_11_01_59_0.jpg,914,251,22,31,7_4,0.0
autosave16_10_2012_11_01_59_0.jpg,916,285,21,31,7_5,0.0
autosave16_10_2012_11_01_59_4.jpg,937,236,25,35,7_4,0.0
autosave16_10_2012_11_01_59_4.jpg,939,274,23,34,7_5,0.0
autosave16_10_2012_11_04_51_1.jpg,1114,304,17,29,5_16,60.0
autosave16_10_2012_11_09_42_3.jpg,940,323,16,26,5_16,0.0
autosave16_10_2012_11_13_09_2.jpg,890,314,17,25,7_3,0.0
autosave16_10_2012_11_13_20_2.jpg,881,306,16,24,5_16,0.0
autosave16_10_2012_11_13_22_0.jpg,1249,226,30,47,5_16,20.0
autosave16_10_2012_11_19_10_0.jpg,873,307,17,26,5_16,0.0
autosave16_10_2012_11_20_36_4.jpg,857,303,17,25,5_16,10.0
autosave16_10_2012_11_22_34_2.jpg,633,318,17,25,7_5,0.0
autosave16_10_2012_11_22_46_1.jpg,629,322,16,23,7_5,0.0
autosave16_10_2012_11_23_06_3.jpg,641,325,17,25,7_5,0.0
autosave16_10_2012_11_24_24_2.jpg,634,325,16,27,7_5,0.0
autosave16_10_2012_11_24_24_3.jpg,641,323,16,27,7_5,0.0
autosave16_10_2012_11_24_29_1.jpg,819,49,92,142,7_5,0.0
autosave16_10_2012_11_24_48_1.jpg,753,323,16,21,7_5,0.0
autosave16_10_2012_11_24_51_0.jpg,793,297,18,28,7_5,0.0
autosave16_10_2012_11_24_52_3.jpg,1046,322,20,23,7_5,5.0
autosave16_10_2012_11_24_53_1.jpg,818,314,18,29,7_3,0.0
autosave16_10_2012_11_27_23_1.jpg,439,313,16,22,7_4,0.0
autosave16_10_2012_11_31_23_0.jpg,433,320,16,24,7_5,25.0
autosave16_10_2012_11_31_36_0.jpg,452,318,17,24,7_5,0.0
autosave16_10_2012_11_31_49_0.jpg,518,319,17,26,7_5,0.0
autosave16_10_2012_11_32_05_5.jpg,536,327,16,24,7_5,25.0
autosave16_10_2012_11_32_18_0.jpg,516,330,16,24,7_5,0.0
autosave16_10_2012_11_32_26_3.jpg,539,317,17,26,7_5,0.0
autosave16_10_2012_11_32_37_3.jpg,531,318,16,24,7_5,0.0
autosave16_10_2012_11_41_16_0.jpg,763,317,18,28,7_3,0.0
autosave16_10_2012_11_42_25_0.jpg,694,315,18,23,7_5,0.0
autosave16_10_2012_11_42_26_2.jpg,834,244,36,48,7_5,0.0
autosave16_10_2012_11_43_19_2.jpg,519,261,17,31,7_3,0.0
autosave16_10_2012_11_47_50_0.jpg,907,252,18,27,5_16,0.0
autosave16_10_2012_11_52_55_1.jpg,917,295,21,30,5_16,0.0
autosave16_10_2012_12_03_17_5.jpg,721,323,17,24,5_16,20.0
autosave16_10_2012_12_03_19_1.jpg,740,303,16,25,5_16,5.0
autosave16_10_2012_12_03_20_0.jpg,885,285,18,31,5_16,5.0
autosave16_10_2012_12_03_20_0.jpg,718,302,16,27,5_16,5.0
autosave16_10_2012_12_05_58_0.jpg,869,298,19,31,5_16,8.0
autosave16_10_2012_12_06_07_5.jpg,794,313,18,23,5_16,0.0
autosave16_10_2012_12_06_18_0.jpg,981,281,20,35,5_16,0.0
autosave16_10_2012_12_08_55_2.jpg,1093,291,16,17,7_3,0.0
autosave16_10_2012_12_08_58_3.jpg,763,272,23,33,7_3,0.0
autosave16_10_2012_12_09_04_1.jpg,39,304,21,28,7_3,0.0
autosave21_01_2013_09_11_35_1.jpg,845,372,17,23,5_16,0.0
autosave21_01_2013_09_12_12_1.jpg,924,365,17,22,5_16,0.0
autosave21_01_2013_09_12_22_2.jpg,1036,334,30,39,7_5,0.0
autosave21_01_2013_09_12_23_1.jpg,1171,307,42,58,7_5,0.0
autosave21_01_2013_09_12_24_2.jpg,945,346,23,32,7_3,0.0
autosave21_01_2013_09_15_18_0.jpg,1083,362,16,27,5_16,0.0
autosave21_01_2013_09_15_18_2.jpg,1148,353,16,20,5_16,40.0
autosave21_01_2013_09_15_30_0.jpg,987,333,16,19,5_16,0.0
autosave21_01_2013_09_15_30_2.jpg,1027,330,18,21,5_16,0.0
autosave21_01_2013_09_15_33_0.jpg,1047,353,19,31,5_16,0.0
autosave21_01_2013_09_17_38_0.jpg,1009,338,22,35,5_16,0.0
autosave21_01_2013_09_18_25_0.jpg,1074,341,21,31,5_16,0.0
autosave21_01_2013_09_18_51_1.jpg,1024,335,25,32,5_16,0.0
autosave21_01_2013_09_20_39_0.jpg,970,304,22,29,7_3,0.0
autosave21_01_2013_09_27_00_0.jpg,913,334,26,33,5_16,10.0
autosave21_01_2013_09_27_28_0.jpg,856,334,22,37,5_16,0.0
autosave21_01_2013_09_28_03_2.jpg,880,332,23,31,5_16,0.0
autosave21_01_2013_09_28_04_1.jpg,973,296,28,40,5_16,0.0
autosave21_01_2013_09_28_47_1.jpg,922,343,23,29,5_16,0.0
autosave21_01_2013_09_29_02_1.jpg,176,377,23,31,5_16,20.0
autosave21_01_2013_09_29_16_0.jpg,759,354,18,29,5_16,0.0
autosave21_01_2013_09_30_24_0.jpg,1019,309,26,43,5_16,0.0
autosave21_01_2013_09_31_31_1.jpg,861,351,22,35,5_16,0.0
autosave21_01_2013_09_31_49_0.jpg,951,340,23,32,5_16,0.0
autosave21_01_2013_09_33_18_1.jpg,885,351,21,35,5_16,0.0
autosave21_01_2013_09_33_25_0.jpg,180,360,23,29,5_16,10.0
autosave21_01_2013_09_33_47_0.jpg,248,302,20,26,5_16,5.0
autosave21_01_2013_09_33_49_0.jpg,0,242,28,38,5_16,5.0
autosave21_01_2013_09_34_52_0.jpg,980,334,30,39,5_16,0.0
autosave21_01_2013_09_35_53_0.jpg,105,351,26,32,5_16,25.0
autosave21_01_2013_09_35_55_0.jpg,797,365,22,31,5_16,0.0
autosave21_01_2013_09_37_06_1.jpg,770,357,24,28,5_16,0.0
autosave21_01_2013_09_37_52_2.jpg,185,375,18,31,5_16,25.0
autosave21_01_2013_09_37_52_2.jpg,779,361,21,28,5_16,0.0
autosave21_01_2013_09_38_25_1.jpg,778,330,24,33,5_16,20.0
autosave21_01_2013_09_38_30_2.jpg,289,366,20,27,5_16,10.0
autosave21_01_2013_09_38_32_2.jpg,50,323,29,37,5_16,15.0
autosave21_01_2013_09_40_25_0.jpg,391,353,24,29,5_16,15.0
autosave21_01_2013_09_40_45_0.jpg,944,308,29,46,5_16,0.0
autosave21_01_2013_09_42_44_2.jpg,902,341,23,36,5_16,0.0
autosave21_01_2013_09_45_41_0.jpg,842,344,19,28,5_16,0.0
autosave21_01_2013_09_48_46_0.jpg,1110,355,25,33,5_16,0.0
autosave21_01_2013_09_50_21_1.jpg,833,335,17,21,5_16,10.0
autosave21_01_2013_09_56_32_1.jpg,324,326,28,41,5_16,5.0
autosave21_01_2013_09_56_34_0.jpg,61,248,52,69,5_16,10.0
autosave21_01_2013_09_57_35_2.jpg,310,375,16,24,5_16,15.0
autosave21_01_2013_09_57_48_0.jpg,944,325,23,29,5_16,0.0
