filename,x_from,y_from,width,height,sign_class,overlap
autosave01_02_2012_09_13_36.jpg,684,384,17,17,1_23,0
autosave01_02_2012_09_13_42.jpg,698,331,18,18,1_17,0
autosave01_02_2012_09_13_42.jpg,700,352,18,17,1_23,0
autosave01_02_2012_09_13_43.jpg,746,291,25,26,1_17,0
autosave01_02_2012_09_13_43.jpg,749,320,26,24,1_23,0
autosave01_02_2012_09_18_20.jpg,770,359,17,19,1_20_3,0
autosave01_02_2012_09_18_20.jpg,769,379,21,20,1_25,0
autosave01_02_2012_09_19_56.jpg,1025,349,30,24,1_33,0
autosave01_02_2012_09_20_37.jpg,773,378,18,20,1_15,0
autosave01_02_2012_09_26_06.jpg,601,387,17,16,1_19,0
autosave01_02_2012_09_29_12.jpg,704,365,28,25,1_15,0
autosave01_02_2012_09_29_19.jpg,878,317,35,34,1_16,0
autosave01_02_2012_09_29_37.jpg,849,323,46,42,1_11_1,0
autosave01_02_2012_09_30_33.jpg,821,368,22,20,1_19,0
autosave01_02_2012_09_40_19.jpg,835,364,29,27,1_23,0
autosave01_02_2012_09_40_20.jpg,1103,307,62,53,1_23,0
autosave01_02_2012_09_40_24.jpg,715,389,17,17,1_23,0
autosave01_02_2012_09_40_25.jpg,780,373,22,23,1_23,0
autosave01_02_2012_09_40_36.jpg,833,373,23,23,1_16,0
autosave01_02_2012_09_44_43.jpg,1154,371,28,25,1_16,0
autosave01_02_2012_09_45_33.jpg,801,383,21,23,1_15,0
autosave01_02_2012_09_45_39.jpg,1015,330,43,36,1_22,0
autosave01_02_2012_09_45_43.jpg,788,376,21,21,1_27,0
autosave01_02_2012_09_45_51.jpg,1006,322,39,40,1_19,0
autosave01_02_2012_09_48_09.jpg,854,368,26,28,1_15,0
autosave01_02_2012_09_48_22.jpg,1048,314,54,52,2_3_2,0
autosave01_02_2012_09_48_36.jpg,825,369,23,24,2_3_2,0
autosave01_02_2012_09_48_52.jpg,770,362,23,23,2_3_2,0
autosave01_02_2012_09_49_00.jpg,965,325,43,41,1_22,0
autosave01_02_2012_09_50_10.jpg,877,346,35,33,1_8,0
autosave01_02_2012_09_52_08.jpg,776,353,36,36,2_3_2,0
autosave01_02_2012_09_53_18.jpg,865,350,32,33,2_3_2,0
autosave01_02_2012_09_53_26.jpg,851,347,29,30,1_8,0
autosave01_02_2012_09_56_05.jpg,718,351,28,28,1_22,0
autosave01_02_2012_09_56_21.jpg,682,359,25,24,1_8,0
autosave01_02_2012_09_59_24.jpg,713,353,26,28,1_17,0
autosave01_02_2012_10_02_32.jpg,794,350,31,30,1_11_1,0
autosave01_02_2012_10_09_31.jpg,824,310,57,54,2_3_2,0
autosave01_02_2012_10_10_24.jpg,1199,94,81,98,1_22,7
autosave01_02_2012_10_11_27.jpg,876,360,36,31,2_3,0
autosave01_02_2012_10_11_30.jpg,787,338,22,22,1_22,0
autosave01_02_2012_10_11_31.jpg,1079,204,61,49,1_22,0
autosave01_02_2012_10_12_08.jpg,1078,309,55,47,1_22,0
autosave01_02_2012_10_12_15.jpg,1058,259,52,46,2_3_3,2
autosave01_02_2012_10_12_26.jpg,1118,321,55,49,1_22,0
autosave01_02_2012_10_13_37.jpg,808,347,37,39,1_22,0
autosave01_02_2012_10_14_37.jpg,757,330,34,32,2_3_2,0
autosave01_02_2012_10_14_37.jpg,758,364,34,30,1_22,0
autosave01_02_2012_10_15_25.jpg,982,218,100,86,1_8,0
autosave01_02_2012_10_15_49.jpg,774,329,22,20,1_23,0
autosave01_02_2012_10_15_49.jpg,774,350,23,18,1_11_1,0
autosave01_02_2012_10_15_54.jpg,668,311,25,23,1_23,0
autosave01_02_2012_10_16_50.jpg,644,337,25,25,1_11,0
autosave01_02_2012_10_17_34.jpg,802,270,46,46,1_23,0
autosave01_02_2012_10_18_27.jpg,465,184,59,53,1_11_1,10
autosave01_02_2012_10_18_27.jpg,466,242,59,54,1_23,30
autosave01_02_2012_10_24_53.jpg,664,321,31,30,1_23,8
autosave01_02_2012_10_25_04.jpg,719,295,45,40,1_23,0
autosave01_02_2012_10_25_41.jpg,670,371,23,21,1_11,0
autosave01_02_2012_10_25_56.jpg,831,387,21,20,1_11_1,0
autosave01_02_2012_10_26_26.jpg,650,363,19,19,1_23,0
autosave01_02_2012_10_26_29.jpg,685,303,38,37,1_23,0
autosave01_02_2012_10_26_29.jpg,615,369,16,16,1_17,0
autosave01_02_2012_10_26_30.jpg,761,228,62,60,1_23,0
autosave01_02_2012_10_26_30.jpg,634,363,19,17,1_17,0
autosave01_02_2012_10_26_30.jpg,636,380,18,17,1_23,0
autosave01_02_2012_10_26_33.jpg,701,256,43,41,1_17,6
autosave01_02_2012_10_26_33.jpg,705,296,44,42,1_23,5
autosave01_02_2012_10_26_34.jpg,776,155,73,69,1_17,5
autosave01_02_2012_10_26_34.jpg,787,218,71,68,1_23,5
autosave01_02_2012_10_26_35.jpg,1027,0,166,130,1_23,5
autosave01_02_2012_10_27_31.jpg,774,319,42,38,1_17,30
autosave01_02_2012_10_27_43.jpg,881,258,64,60,1_23,0
autosave01_02_2012_10_28_34.jpg,744,326,32,30,1_23,0
autosave01_02_2012_10_28_48.jpg,689,365,20,19,1_23,0
autosave01_02_2012_10_28_49.jpg,728,346,27,25,1_23,0
autosave01_02_2012_10_29_10.jpg,658,339,29,29,1_11_1,0
autosave01_02_2012_10_30_08.jpg,675,397,17,16,1_23,0
autosave01_02_2012_10_31_26.jpg,757,305,44,40,1_23,0
autosave01_02_2012_10_31_28.jpg,699,339,37,35,1_17,0
autosave01_02_2012_10_31_35.jpg,674,387,16,16,1_17,0
autosave01_02_2012_10_31_36.jpg,686,376,20,19,1_17,0
autosave01_02_2012_10_31_38.jpg,744,311,43,40,1_17,0
autosave01_02_2012_10_31_39.jpg,905,148,100,92,1_17,0
autosave01_02_2012_10_31_39.jpg,741,228,47,40,1_23,30
autosave01_02_2012_10_31_43.jpg,652,370,24,22,1_23,0
autosave01_02_2012_10_32_24.jpg,681,358,25,26,1_17,0
autosave01_02_2012_10_33_08.jpg,143,412,20,21,1_17,0
autosave01_02_2012_10_33_09.jpg,32,402,27,24,1_17,0
autosave01_02_2012_10_33_09.jpg,33,428,26,22,1_23,0
autosave01_02_2012_10_34_24.jpg,718,341,29,29,1_11_1,0
autosave01_02_2012_10_34_29.jpg,655,378,18,17,1_12_2,0
autosave01_02_2012_10_34_40.jpg,554,386,19,19,1_17,0
autosave01_02_2012_10_34_43.jpg,774,228,65,59,1_17,0
autosave01_02_2012_10_34_59.jpg,577,368,32,29,1_17,0
autosave01_02_2012_10_35_00.jpg,692,334,45,44,1_17,0
autosave01_02_2012_10_35_13.jpg,652,383,21,22,1_17,0
autosave01_02_2012_10_35_15.jpg,720,334,38,39,1_17,0
autosave01_02_2012_10_37_27.jpg,809,267,55,49,1_23,0
autosave01_02_2012_10_37_43.jpg,1017,13,156,128,1_17,0
autosave01_02_2012_10_37_43.jpg,750,192,54,52,1_23,40
autosave01_02_2012_10_37_47.jpg,664,368,19,20,1_23,5
autosave01_02_2012_10_38_38.jpg,641,354,29,27,1_17,0
autosave01_02_2012_10_38_38.jpg,301,436,26,26,1_16,0
autosave01_02_2012_10_38_38.jpg,328,436,19,26,1_20,0
autosave01_02_2012_10_40_56.jpg,636,380,19,18,1_17,0
autosave01_02_2012_10_41_36.jpg,617,375,22,22,1_17,0
autosave01_02_2012_10_42_16.jpg,621,401,16,16,1_17,0
autosave01_02_2012_10_42_17.jpg,640,384,20,20,1_17,0
autosave01_02_2012_10_42_51.jpg,822,381,71,55,1_15,5
autosave01_02_2012_10_47_20.jpg,711,349,27,26,1_11_1,0
autosave01_02_2012_10_49_01.jpg,691,379,22,23,1_12,0
autosave01_02_2012_10_49_33.jpg,818,285,56,48,1_8,0
autosave01_02_2012_10_49_46.jpg,712,368,16,16,1_20,0
autosave01_02_2012_10_49_47.jpg,706,345,19,19,1_20,0
autosave01_02_2012_10_49_47.jpg,709,383,19,18,1_15,0
autosave01_02_2012_10_49_49.jpg,760,294,34,33,1_20,0
autosave01_02_2012_10_49_49.jpg,768,360,32,33,1_15,0
autosave01_02_2012_10_50_32.jpg,668,374,22,23,1_11_1,0
autosave01_02_2012_10_51_43.jpg,706,361,22,22,1_11,0
autosave01_02_2012_10_52_12.jpg,702,326,31,30,1_17,0
autosave01_02_2012_10_52_30.jpg,692,355,18,20,1_12,0
autosave01_02_2012_10_52_38.jpg,802,277,43,41,1_17,0
autosave01_02_2012_10_56_54.jpg,655,365,20,21,1_16,0
autosave01_02_2012_10_57_27.jpg,1113,240,76,70,1_16,0
autosave01_02_2012_10_59_19.jpg,642,368,22,22,1_27,0
autosave01_02_2012_11_01_17.jpg,954,283,53,49,1_11_1,0
autosave01_02_2012_11_01_17.jpg,955,336,58,53,2_3_3,0
autosave01_02_2012_11_02_03.jpg,727,349,23,25,1_12,0
autosave01_02_2012_11_02_03.jpg,728,373,23,22,2_3_3,0
autosave01_02_2012_11_02_25.jpg,882,298,47,49,1_11_1,0
autosave01_02_2012_11_03_50.jpg,734,352,27,27,1_11_1,0
autosave01_02_2012_11_04_28.jpg,711,363,19,19,1_11,0
autosave01_02_2012_11_04_29.jpg,808,314,35,33,1_11,0
autosave01_02_2012_11_05_54.jpg,818,375,25,24,1_12_2,0
autosave01_02_2012_11_06_59.jpg,775,369,22,21,1_12,0
autosave01_02_2012_11_08_23.jpg,709,367,21,20,1_11,0
autosave01_02_2012_11_08_42.jpg,773,357,28,29,1_11,0
autosave01_02_2012_11_09_22.jpg,709,392,20,19,1_15,0
autosave01_02_2012_11_09_24.jpg,1006,300,57,65,1_15,0
autosave01_02_2012_11_10_17.jpg,999,241,66,63,1_8,0
autosave01_02_2012_11_13_08.jpg,587,360,23,22,1_23,0
autosave01_02_2012_11_14_28.jpg,286,382,25,24,1_16,0
autosave01_02_2012_11_18_37.jpg,947,330,32,44,1_12,0
autosave01_02_2012_11_22_23.jpg,708,323,26,26,1_20,0
autosave01_02_2012_11_24_54.jpg,439,375,25,25,1_16,0
autosave01_02_2012_11_28_35.jpg,697,334,29,30,1_12,0
autosave01_02_2012_11_29_25.jpg,708,327,33,33,1_22,0
autosave01_02_2012_11_30_23.jpg,789,353,25,23,2_3_3,0
autosave01_02_2012_11_32_07.jpg,761,367,23,22,1_15,0
autosave01_02_2012_11_32_42.jpg,889,264,60,50,1_22,0
autosave01_02_2012_11_39_10.jpg,712,323,28,28,1_16,0
autosave01_02_2012_11_39_12.jpg,988,87,96,85,1_16,0
autosave01_02_2012_11_39_12.jpg,648,350,18,18,1_23,0
autosave01_02_2012_11_40_06.jpg,720,352,23,21,1_23,0
autosave01_02_2012_11_40_34.jpg,602,368,23,26,1_23,0
autosave01_02_2012_11_40_42.jpg,575,375,23,23,1_23,0
autosave01_02_2012_11_40_55.jpg,769,364,26,25,1_11,0
autosave01_02_2012_11_41_19.jpg,595,330,30,24,1_23,0
autosave01_02_2012_11_41_26.jpg,729,305,36,32,1_16,0
autosave01_02_2012_11_41_30.jpg,656,359,26,24,1_23,0
autosave01_02_2012_11_45_33.jpg,782,324,38,32,1_23,0
autosave01_02_2012_11_45_44.jpg,679,356,18,19,1_16,0
autosave01_02_2012_11_46_12.jpg,741,327,29,29,1_11,0
autosave01_02_2012_11_50_02.jpg,995,198,91,81,1_20,0
autosave01_02_2012_11_50_31.jpg,753,339,25,25,2_3_2,0
autosave01_02_2012_11_50_50.jpg,767,358,26,23,1_23,0
autosave01_02_2012_11_50_50.jpg,695,380,25,21,1_8,0
autosave01_02_2012_11_50_52.jpg,854,292,67,55,1_8,0
autosave01_02_2012_11_50_53.jpg,770,391,19,18,1_23,0
autosave01_02_2012_11_53_55.jpg,761,322,27,26,2_3_2,0
autosave01_02_2012_11_53_55.jpg,764,350,29,24,1_20,0
autosave01_02_2012_11_54_25.jpg,825,313,35,34,2_3_2,0
autosave01_02_2012_11_54_31.jpg,736,349,22,24,1_8,0
autosave01_02_2012_11_55_49.jpg,775,398,23,23,1_15,0
autosave01_02_2012_11_56_23.jpg,793,312,46,40,2_3_2,0
autosave01_02_2012_11_56_49.jpg,675,373,17,17,2_3,0
autosave01_02_2012_11_57_14.jpg,751,347,31,27,2_3,0
autosave01_02_2012_11_57_14.jpg,679,387,17,16,2_3_3,0
autosave01_02_2012_11_57_40.jpg,745,343,28,28,1_11_1,0
autosave01_02_2012_11_58_01.jpg,657,349,19,19,2_3_3,0
autosave01_02_2012_11_58_02.jpg,706,287,33,30,2_3_3,0
autosave01_02_2012_11_58_25.jpg,727,357,34,31,2_3_3,0
autosave01_02_2012_11_58_25.jpg,731,390,33,27,1_22,0
autosave01_02_2012_11_58_54.jpg,741,350,31,29,2_3_2,0
autosave01_02_2012_11_59_17.jpg,840,201,54,48,2_3_3,0
autosave01_02_2012_11_59_17.jpg,847,251,53,47,1_22,0
autosave01_02_2012_11_59_47.jpg,774,327,34,33,2_3,0
autosave01_02_2012_12_00_47.jpg,673,367,19,18,2_3_2,0
autosave01_02_2012_12_00_49.jpg,792,292,51,45,2_3_2,0
autosave01_02_2012_12_01_19.jpg,763,308,38,38,1_23,0
autosave01_02_2012_12_01_20.jpg,666,368,22,21,1_23,0
autosave01_02_2012_12_01_25.jpg,672,385,18,17,1_11_1,0
autosave01_02_2012_12_01_26.jpg,702,352,27,27,1_11_1,0
autosave01_02_2012_12_01_27.jpg,1024,141,96,87,1_11_1,0
autosave01_02_2012_12_02_08.jpg,720,367,22,23,1_12,0
autosave01_02_2012_12_02_54.jpg,737,349,26,28,2_3_2,0
autosave01_02_2012_12_03_16.jpg,678,382,19,19,1_11,0
autosave01_02_2012_12_03_17.jpg,732,344,30,28,1_11,0
autosave01_02_2012_12_03_49.jpg,885,181,90,80,2_3,0
autosave01_02_2012_12_04_13.jpg,842,336,37,32,1_12_2,0
autosave01_02_2012_12_05_31.jpg,738,366,17,19,1_23,0
autosave01_02_2012_12_07_04.jpg,753,355,22,21,1_23,0
autosave01_02_2012_12_08_13.jpg,664,365,26,24,1_12_2,0
autosave01_02_2012_12_08_28.jpg,191,422,17,16,1_23,0
autosave01_02_2012_12_08_30.jpg,39,398,20,22,1_23,0
autosave01_02_2012_12_08_30.jpg,773,361,22,22,1_23,0
autosave01_02_2012_12_08_31.jpg,814,335,29,32,1_23,0
autosave01_02_2012_12_10_09.jpg,738,362,20,17,1_23,0
autosave01_02_2012_12_10_34.jpg,801,321,28,27,1_23,0
autosave01_02_2012_12_12_48.jpg,701,387,26,25,1_17,5
autosave01_02_2012_12_12_49.jpg,746,344,36,35,1_23,0
autosave01_02_2012_12_12_49.jpg,751,379,36,35,1_17,0
autosave01_02_2012_12_12_55.jpg,616,378,22,23,1_23,0
autosave01_02_2012_12_16_05.jpg,93,299,53,45,1_23,0
autosave01_02_2012_12_16_07.jpg,590,99,75,74,1_23,0
autosave01_02_2012_12_16_07.jpg,259,401,21,18,1_23,0
autosave01_02_2012_12_16_13.jpg,930,240,63,55,1_23,0
autosave01_02_2012_12_16_17.jpg,773,319,25,23,1_23,0
autosave01_02_2012_12_16_17.jpg,675,374,18,17,1_23,0
autosave01_02_2012_12_16_19.jpg,869,282,36,33,1_23,0
autosave01_02_2012_12_16_19.jpg,705,369,21,19,1_23,0
autosave01_02_2012_12_16_52.jpg,686,384,21,20,2_3,0
autosave01_02_2012_12_16_56.jpg,914,258,62,54,2_3,0
autosave01_02_2012_12_16_57.jpg,1205,112,74,93,2_3,20
autosave01_02_2012_12_17_16.jpg,655,373,20,19,1_23,0
autosave01_02_2012_12_17_23.jpg,421,339,22,22,1_16,0
autosave01_02_2012_12_17_28.jpg,725,343,21,26,1_23,0
autosave01_02_2012_12_17_29.jpg,758,315,27,35,1_23,0
autosave01_02_2012_12_17_30.jpg,782,282,33,43,1_23,0
autosave01_02_2012_12_18_22.jpg,668,370,17,18,1_16,0
autosave01_02_2012_12_18_23.jpg,685,350,20,20,1_16,0
autosave01_02_2012_12_18_59.jpg,711,342,25,26,1_16,0
autosave01_02_2012_12_19_00.jpg,752,282,35,37,1_16,0
autosave01_02_2012_12_19_29.jpg,650,360,25,23,1_22,0
autosave01_02_2012_12_35_27.jpg,638,393,20,21,1_16,0
autosave01_02_2012_12_40_44.jpg,609,371,17,16,1_17,0
autosave01_02_2012_12_40_49.jpg,610,364,19,18,1_17,0
autosave01_02_2012_12_40_49.jpg,657,351,23,22,1_23,0
autosave01_02_2012_12_40_50.jpg,632,348,23,23,1_17,0
autosave01_02_2012_12_40_50.jpg,699,320,35,32,1_23,0
autosave01_02_2012_12_40_59.jpg,614,399,18,17,1_11_1,0
autosave01_02_2012_12_41_01.jpg,650,333,24,23,1_11_1,0
autosave01_02_2012_12_42_16.jpg,658,389,18,18,1_23,0
autosave01_02_2012_12_42_27.jpg,565,368,19,19,1_23,0
autosave01_02_2012_12_42_30.jpg,550,329,37,38,1_23,0
autosave01_02_2012_12_44_03.jpg,697,403,22,22,1_15,0
autosave01_02_2012_12_47_57.jpg,651,345,26,24,1_2,0
autosave01_02_2012_12_57_15.jpg,647,380,25,25,1_33,0
autosave01_02_2012_12_58_33.jpg,647,387,23,24,1_22,0
autosave01_02_2012_13_03_06.jpg,716,384,24,22,1_22,0
autosave01_02_2012_13_04_47.jpg,757,400,22,22,1_12,0
autosave01_02_2012_13_09_08.jpg,785,377,25,27,1_8,0
autosave01_02_2012_13_10_56.jpg,732,354,18,20,1_22,0
autosave01_02_2012_13_11_08.jpg,750,392,19,20,2_3_2,0
autosave01_02_2012_13_11_26.jpg,707,397,16,17,1_15,0
autosave01_02_2012_13_11_32.jpg,794,359,27,29,2_3_2,0
autosave01_02_2012_13_11_59.jpg,785,387,21,21,2_3_2,0
autosave01_02_2012_13_14_08.jpg,816,362,30,30,1_15,0
autosave01_02_2012_13_14_24.jpg,881,381,24,22,1_19,0
autosave01_02_2012_13_15_07.jpg,821,388,19,19,1_8,0
autosave01_02_2012_13_15_24.jpg,875,393,18,19,1_8,0
autosave01_02_2012_13_15_26.jpg,893,385,21,19,1_20_2,0
autosave01_02_2012_13_15_39.jpg,799,343,32,31,1_8,0
autosave01_02_2012_13_18_38.jpg,851,354,21,20,1_23,0
autosave01_02_2012_13_27_18.jpg,1023,298,54,47,1_15,10
autosave01_02_2012_13_30_08.jpg,900,330,37,38,1_16,0
autosave01_02_2012_13_37_24.jpg,804,372,19,17,1_16,0
autosave01_02_2012_13_39_55.jpg,824,398,20,19,1_22,0
autosave01_02_2012_13_41_17.jpg,770,392,18,17,1_15,0
autosave01_02_2012_13_41_18.jpg,818,384,24,26,1_15,0
autosave01_02_2012_13_50_18.jpg,765,347,26,26,1_23,0
autosave01_02_2012_13_50_22.jpg,706,342,19,18,1_17,0
autosave01_02_2012_13_50_22.jpg,707,361,20,17,1_23,0
autosave01_02_2012_13_51_32.jpg,648,353,20,19,1_23,0
autosave01_02_2012_13_51_33.jpg,674,329,27,24,1_23,0
autosave01_02_2012_13_51_36.jpg,650,334,21,20,1_17,0
autosave01_02_2012_13_51_36.jpg,652,355,20,20,1_23,0
autosave02_10_2012_11_57_40_2.jpg,850,283,24,23,1_11_1,0
autosave02_10_2012_12_02_18_2.jpg,716,228,37,31,1_15,0
autosave02_10_2012_12_02_19_1.jpg,765,189,50,44,1_15,0
autosave02_10_2012_12_03_27_2.jpg,735,309,17,18,1_25,0
autosave02_10_2012_12_03_27_3.jpg,733,285,17,18,1_25,0
autosave02_10_2012_12_03_29_1.jpg,736,264,24,24,1_25,0
autosave02_10_2012_12_03_37_0.jpg,178,257,24,21,1_25,0
autosave02_10_2012_12_03_38_0.jpg,0,227,32,27,1_25,5
autosave02_10_2012_12_03_38_0.jpg,604,271,20,21,1_25,0
autosave02_10_2012_12_10_51_0.jpg,339,312,34,53,1_25,50
autosave02_10_2012_12_10_57_1.jpg,374,319,22,24,1_25,3
autosave02_10_2012_12_12_56_1.jpg,282,220,43,31,1_15,0
autosave02_10_2012_12_13_30_1.jpg,1014,258,33,27,1_12,0
autosave02_10_2012_12_17_28_0.jpg,693,239,25,23,1_11_1,0
autosave02_10_2012_12_26_56_3.jpg,1017,298,20,17,1_20_2,0
autosave02_10_2012_12_29_14_3.jpg,711,276,17,17,1_25,0
autosave02_10_2012_12_29_16_1.jpg,746,269,24,21,1_25,0
autosave02_10_2012_12_29_25_0.jpg,353,267,23,22,1_25,0
autosave02_10_2012_12_29_25_2.jpg,279,239,28,22,1_25,0
autosave02_10_2012_12_29_35_2.jpg,785,288,24,22,1_11_1,0
autosave02_10_2012_12_45_32_0.jpg,722,243,41,33,1_15,0
autosave02_10_2012_12_46_19_1.jpg,753,174,45,34,1_20_2,0
autosave02_10_2012_12_46_19_1.jpg,753,208,47,34,1_25,0
autosave02_10_2012_12_52_08_2.jpg,846,237,26,23,1_20_2,0
autosave02_10_2012_12_52_08_2.jpg,847,260,26,24,1_25,0
autosave02_10_2012_12_56_17_0.jpg,532,254,27,25,1_20_2,0
autosave02_10_2012_12_56_17_0.jpg,535,298,27,21,1_23,0
autosave02_10_2012_12_56_22_0.jpg,676,281,34,28,1_20_2,0
autosave02_10_2012_12_57_38_0.jpg,732,256,25,26,1_11_1,0
autosave09_10_2012_07_49_20_1.jpg,866,348,20,19,1_25,0
autosave09_10_2012_07_49_20_2.jpg,917,338,22,20,1_25,0
autosave09_10_2012_07_49_20_2.jpg,918,378,21,17,1_17,0
autosave09_10_2012_07_49_25_0.jpg,847,341,23,20,1_25,0
autosave09_10_2012_08_13_02_2.jpg,893,299,41,36,1_22,0
autosave09_10_2012_08_14_41_1.jpg,908,351,27,27,1_22,0
autosave09_10_2012_08_14_41_1.jpg,480,338,27,23,1_22,0
autosave09_10_2012_08_16_10_1.jpg,839,338,23,22,2_3_2,0
autosave09_10_2012_08_16_10_1.jpg,839,362,21,18,1_22,35
autosave09_10_2012_08_16_11_0.jpg,846,339,20,19,2_3_2,0
autosave09_10_2012_08_16_11_0.jpg,845,360,21,18,1_22,35
autosave09_10_2012_08_16_11_0.jpg,468,338,22,20,1_22,0
autosave09_10_2012_08_16_16_1.jpg,807,335,18,17,1_8,0
autosave09_10_2012_08_16_18_1.jpg,979,301,35,33,1_8,0
autosave09_10_2012_08_16_18_1.jpg,408,292,35,31,1_8,0
autosave09_10_2012_08_16_19_0.jpg,813,326,26,26,1_8,0
autosave09_10_2012_08_16_19_2.jpg,852,324,23,24,1_8,0
autosave09_10_2012_08_16_19_2.jpg,465,316,23,23,1_8,0
autosave09_10_2012_08_18_31_0.jpg,889,310,26,25,1_23,0
autosave09_10_2012_08_18_31_0.jpg,480,313,22,19,1_23,0
autosave09_10_2012_08_18_31_1.jpg,953,293,31,29,1_23,0
autosave09_10_2012_08_18_31_1.jpg,464,296,24,23,1_23,0
autosave09_10_2012_08_18_32_1.jpg,387,250,41,35,1_23,0
autosave09_10_2012_08_18_32_1.jpg,811,339,16,16,2_3_2,0
autosave09_10_2012_08_18_32_3.jpg,249,150,69,61,1_23,0
autosave09_10_2012_08_18_32_3.jpg,870,321,19,19,2_3_2,0
autosave09_10_2012_08_18_39_2.jpg,464,310,25,22,1_23,0
autosave09_10_2012_08_18_39_2.jpg,865,330,16,17,1_23,0
autosave09_10_2012_08_18_40_1.jpg,438,287,27,27,1_23,0
autosave09_10_2012_08_18_40_1.jpg,936,316,20,18,1_23,0
autosave09_10_2012_08_19_33_0.jpg,838,332,24,24,2_3_2,0
autosave09_10_2012_08_19_33_0.jpg,837,358,24,21,1_22,0
autosave09_10_2012_08_19_33_1.jpg,910,314,29,30,2_3_2,0
autosave09_10_2012_08_19_33_1.jpg,906,346,32,26,1_22,0
autosave09_10_2012_08_19_33_1.jpg,439,331,30,25,1_22,0
autosave09_10_2012_08_19_34_0.jpg,1215,256,61,56,2_3_2,0
autosave09_10_2012_08_19_34_0.jpg,1212,312,60,53,1_22,10
autosave09_10_2012_08_19_34_0.jpg,313,286,58,50,1_22,0
autosave09_10_2012_08_19_55_1.jpg,881,350,23,22,2_3_2,0
autosave09_10_2012_08_20_56_2.jpg,727,348,21,21,1_27,0
autosave09_10_2012_08_23_52_1.jpg,718,349,18,18,1_27,0
autosave09_10_2012_08_25_11_0.jpg,859,338,29,26,2_3_2,0
autosave09_10_2012_08_27_49_1.jpg,733,320,22,23,2_3_2,0
autosave09_10_2012_08_27_49_1.jpg,733,344,21,17,1_22,0
autosave09_10_2012_08_27_50_0.jpg,854,287,36,35,2_3_2,0
autosave09_10_2012_08_27_50_0.jpg,853,323,36,29,1_22,0
autosave09_10_2012_08_27_50_0.jpg,362,325,28,26,1_22,0
autosave09_10_2012_08_29_11_1.jpg,832,356,20,20,1_22,0
autosave09_10_2012_08_29_12_1.jpg,928,348,28,23,1_22,0
autosave09_10_2012_08_29_12_1.jpg,442,326,27,26,1_22,0
autosave09_10_2012_08_29_33_1.jpg,880,351,18,18,2_3_2,0
autosave09_10_2012_08_29_52_1.jpg,935,358,18,19,2_3_2,0
autosave09_10_2012_08_30_12_1.jpg,709,348,17,17,1_27,0
autosave09_10_2012_08_32_37_1.jpg,808,336,17,16,1_22,0
autosave09_10_2012_08_33_54_0.jpg,984,362,16,17,1_16,0
autosave09_10_2012_08_33_54_1.jpg,1103,344,26,22,1_16,0
autosave09_10_2012_08_35_49_0.jpg,696,338,18,17,2_3_2,0
autosave09_10_2012_08_37_18_0.jpg,710,350,21,19,1_20_2,0
autosave09_10_2012_08_37_42_3.jpg,755,331,20,20,1_22,0
autosave09_10_2012_08_38_37_1.jpg,683,348,24,22,1_22,0
autosave09_10_2012_08_39_44_3.jpg,709,328,24,22,2_3_2,0
autosave09_10_2012_08_41_44_1.jpg,650,336,21,20,2_3_2,0
autosave09_10_2012_08_42_30_0.jpg,758,342,22,23,2_3_2,0
autosave09_10_2012_08_42_33_1.jpg,706,332,27,25,1_22,0
autosave09_10_2012_08_42_34_2.jpg,1083,211,98,91,1_22,0
autosave09_10_2012_08_44_01_0.jpg,742,327,23,22,2_3_2,0
autosave09_10_2012_08_44_01_0.jpg,741,350,25,22,1_22,0
autosave09_10_2012_08_46_46_2.jpg,782,346,24,20,2_3_2,0
autosave09_10_2012_08_47_45_1.jpg,937,329,26,24,2_3_2,0
autosave09_10_2012_08_47_57_2.jpg,853,322,17,24,1_25,0
autosave09_10_2012_08_47_58_2.jpg,1109,284,25,46,1_25,0
autosave09_10_2012_08_48_58_0.jpg,642,348,17,16,2_3_2,0
autosave09_10_2012_08_50_26_0.jpg,661,353,19,17,2_3_2,0
autosave09_10_2012_08_50_41_1.jpg,715,339,26,24,2_3_2,0
autosave09_10_2012_08_51_15_0.jpg,713,349,18,18,1_22,0
autosave09_10_2012_08_51_15_1.jpg,733,332,19,20,1_22,0
autosave09_10_2012_08_51_15_1.jpg,419,321,22,21,1_22,0
autosave09_10_2012_08_52_08_2.jpg,697,330,26,23,1_22,0
autosave09_10_2012_09_04_15_0.jpg,706,352,18,16,2_3_2,0
autosave09_10_2012_09_06_59_1.jpg,783,357,20,18,2_3_2,0
autosave09_10_2012_09_07_36_0.jpg,698,343,19,18,2_3_2,0
autosave09_10_2012_09_24_17_2.jpg,678,341,23,21,1_20_2,0
autosave09_10_2012_09_24_17_2.jpg,393,326,24,21,1_20_2,0
autosave09_10_2012_09_24_18_1.jpg,719,327,30,27,1_20_2,0
autosave09_10_2012_09_24_18_1.jpg,321,307,28,27,1_20_2,0
autosave09_10_2012_09_24_25_3.jpg,656,348,19,18,1_12_2,0
autosave09_10_2012_09_24_25_3.jpg,399,349,18,17,1_12_2,0
autosave09_10_2012_09_24_32_1.jpg,649,349,18,20,1_21,0
autosave09_10_2012_09_24_32_1.jpg,383,343,18,18,1_21,0
autosave09_10_2012_09_27_23_1.jpg,738,313,21,21,1_11_1,0
autosave09_10_2012_09_27_56_1.jpg,803,331,23,21,2_3_3,0
autosave09_10_2012_09_28_45_1.jpg,682,312,17,18,2_3_3,0
autosave09_10_2012_09_28_45_2.jpg,706,305,21,19,2_3_3,0
autosave09_10_2012_09_28_45_2.jpg,707,325,19,16,1_22,0
autosave09_10_2012_09_29_30_1.jpg,804,318,23,22,1_13,0
autosave09_10_2012_09_29_50_1.jpg,835,320,19,19,1_25,0
autosave09_10_2012_09_29_59_2.jpg,678,320,22,23,1_14,0
autosave09_10_2012_09_30_46_0.jpg,754,302,19,19,1_12_2,0
autosave09_10_2012_09_30_53_3.jpg,730,315,25,25,1_22,0
autosave09_10_2012_09_30_55_0.jpg,860,264,42,39,1_22,0
autosave09_10_2012_09_33_16_1.jpg,730,312,23,22,2_3,0
autosave09_10_2012_09_33_32_0.jpg,699,322,21,19,2_3_2,0
autosave09_10_2012_09_33_32_0.jpg,700,341,21,18,1_22,0
autosave09_10_2012_09_35_15_1.jpg,721,318,17,17,2_3_2,0
autosave09_10_2012_09_35_15_1.jpg,720,336,18,16,1_22,0
autosave09_10_2012_09_36_08_0.jpg,832,321,25,26,1_12_2,0
autosave09_10_2012_09_36_26_1.jpg,695,330,18,18,1_22,0
autosave09_10_2012_09_36_27_0.jpg,734,322,21,21,1_22,0
autosave09_10_2012_09_37_46_2.jpg,736,345,23,23,2_3_2,0
autosave09_10_2012_09_39_56_0.jpg,753,335,21,23,1_12_2,0
autosave09_10_2012_09_39_59_2.jpg,719,340,17,18,1_22,0
autosave09_10_2012_09_40_55_0.jpg,721,311,18,19,2_3_2,0
autosave09_10_2012_09_40_55_0.jpg,720,331,20,16,1_22,0
autosave09_10_2012_09_42_21_2.jpg,683,326,21,21,1_19,0
autosave09_10_2012_09_43_57_0.jpg,721,333,22,21,2_3,0
autosave09_10_2012_09_44_46_1.jpg,793,338,18,19,2_3,0
autosave09_10_2012_09_45_00_0.jpg,817,324,22,21,1_22,0
autosave09_10_2012_09_45_56_1.jpg,774,336,20,19,2_3,0
autosave09_10_2012_09_47_30_1.jpg,872,339,25,25,1_22,0
autosave09_10_2012_09_47_45_1.jpg,807,335,22,21,2_3,0
autosave09_10_2012_09_47_55_0.jpg,721,325,18,20,1_25,0
autosave09_10_2012_09_47_55_2.jpg,759,310,25,25,1_25,0
autosave09_10_2012_09_48_01_0.jpg,666,323,18,19,1_8,0
autosave09_10_2012_09_50_52_0.jpg,677,365,17,18,1_20_2,0
autosave09_10_2012_09_50_56_3.jpg,806,333,39,39,1_20_2,0
autosave09_10_2012_09_50_56_3.jpg,690,335,18,19,1_25,0
autosave09_10_2012_09_53_24_1.jpg,684,322,18,17,1_25,0
autosave09_10_2012_09_53_35_2.jpg,797,348,19,20,1_25,0
autosave09_10_2012_09_54_56_1.jpg,800,367,26,26,2_3_3,0
autosave09_10_2012_09_55_11_0.jpg,928,355,24,25,1_11_1,0
autosave09_10_2012_09_55_31_1.jpg,707,316,25,23,2_3_3,0
autosave09_10_2012_09_57_11_1.jpg,738,343,22,20,2_3_2,0
autosave09_10_2012_09_57_32_1.jpg,812,330,27,24,1_22,0
autosave09_10_2012_09_57_45_1.jpg,826,342,28,25,2_3,0
autosave09_10_2012_09_59_11_2.jpg,707,335,24,23,1_22,0
autosave09_10_2012_09_59_23_0.jpg,730,345,19,18,2_3,0
autosave09_10_2012_09_59_53_2.jpg,753,338,23,23,2_3_3,0
autosave09_10_2012_10_00_28_3.jpg,760,349,20,20,2_3_2,0
autosave09_10_2012_10_00_59_0.jpg,757,345,22,21,2_3_3,0
autosave09_10_2012_10_02_37_1.jpg,757,320,22,21,2_3_3,0
autosave09_10_2012_10_02_44_0.jpg,735,324,21,21,1_22,0
autosave09_10_2012_10_02_48_1.jpg,761,329,21,19,2_3_2,0
autosave09_10_2012_10_03_22_2.jpg,712,338,21,20,2_3_3,0
autosave09_10_2012_10_04_50_1.jpg,732,322,21,20,2_3_2,0
autosave09_10_2012_10_04_50_1.jpg,732,342,21,18,1_22,0
autosave09_10_2012_10_05_10_0.jpg,791,342,21,23,1_11,0
autosave09_10_2012_10_07_04_3.jpg,731,321,22,22,1_27,0
autosave09_10_2012_10_07_06_1.jpg,742,315,20,19,2_3_3,0
autosave09_10_2012_10_07_06_1.jpg,742,334,20,18,1_22,0
autosave09_10_2012_10_08_07_1.jpg,651,332,19,20,1_20_2,0
autosave09_10_2012_10_08_07_1.jpg,649,353,19,16,1_25,0
autosave09_10_2012_10_08_07_1.jpg,387,341,19,19,1_20_2,0
autosave09_10_2012_10_08_07_1.jpg,388,360,18,16,1_25,0
autosave09_10_2012_10_08_15_2.jpg,689,321,17,18,1_8,0
autosave09_10_2012_10_08_15_2.jpg,375,320,19,18,1_8,0
autosave09_10_2012_10_08_16_1.jpg,699,310,19,18,1_8,0
autosave09_10_2012_10_08_16_1.jpg,353,307,20,19,1_8,0
autosave09_10_2012_10_08_45_2.jpg,725,321,20,19,2_3_3,0
autosave09_10_2012_10_08_45_2.jpg,725,341,19,18,1_11,0
autosave09_10_2012_10_08_45_2.jpg,686,334,22,21,1_20_2,0
autosave09_10_2012_10_08_45_2.jpg,370,335,23,20,1_20_2,0
autosave09_10_2012_10_09_24_0.jpg,790,283,28,27,2_3_3,0
autosave09_10_2012_10_09_24_0.jpg,788,314,30,28,1_11,0
autosave09_10_2012_10_09_24_0.jpg,721,304,31,32,1_20_2,0
autosave09_10_2012_10_09_24_0.jpg,238,310,34,31,1_20_2,0
autosave09_10_2012_10_09_45_0.jpg,687,327,29,26,1_25,0
autosave09_10_2012_10_09_45_0.jpg,316,326,22,20,1_25,0
autosave09_10_2012_10_13_09_0.jpg,699,336,16,16,1_15,0
autosave09_10_2012_10_13_09_1.jpg,723,318,19,18,1_15,0
autosave09_10_2012_10_13_10_1.jpg,731,308,21,21,1_11,0
autosave09_10_2012_10_13_23_0.jpg,734,320,18,17,2_3_3,0
autosave09_10_2012_10_13_23_1.jpg,786,304,26,24,2_3_3,0
autosave09_10_2012_10_13_23_1.jpg,788,331,25,22,1_22,0
autosave09_10_2012_10_13_25_0.jpg,1167,171,69,65,2_3_3,0
autosave09_10_2012_10_13_25_0.jpg,1169,242,75,72,1_22,0
autosave09_10_2012_10_14_41_0.jpg,737,299,21,21,1_22,0
autosave09_10_2012_10_18_18_2.jpg,671,349,17,16,1_11_1,0
autosave09_10_2012_10_18_29_1.jpg,624,341,18,17,2_3_2,0
autosave09_10_2012_10_19_18_1.jpg,806,336,24,24,2_3_2,0
autosave09_10_2012_10_21_28_1.jpg,702,332,17,17,1_20_2,0
autosave09_10_2012_11_02_54_1.jpg,760,340,19,18,2_3,0
autosave09_10_2012_11_06_13_2.jpg,657,359,20,21,1_25,0
autosave09_10_2012_11_06_16_1.jpg,667,362,18,19,1_20_2,0
autosave09_10_2012_11_06_19_2.jpg,669,353,16,16,1_18,0
autosave09_10_2012_11_06_55_0.jpg,782,327,23,24,2_3_3,0
autosave09_10_2012_11_07_22_1.jpg,883,310,26,27,1_23,0
autosave09_10_2012_11_07_31_1.jpg,651,367,18,19,1_20_2,0
autosave09_10_2012_11_07_31_1.jpg,672,366,18,17,1_25,0
autosave09_10_2012_11_07_54_1.jpg,658,352,18,16,1_25,0
autosave09_10_2012_11_08_11_2.jpg,709,378,18,19,1_25,0
autosave09_10_2012_11_08_27_0.jpg,715,327,19,20,2_3,0
autosave09_10_2012_11_08_27_0.jpg,715,349,18,17,1_22,15
autosave09_10_2012_11_08_51_0.jpg,766,309,18,18,1_27,0
autosave09_10_2012_11_08_56_0.jpg,719,349,16,17,2_3,0
autosave09_10_2012_11_10_31_1.jpg,729,332,19,18,1_22,0
autosave09_10_2012_11_10_32_0.jpg,755,329,22,21,1_22,0
autosave09_10_2012_11_10_33_1.jpg,963,271,42,40,1_22,0
autosave09_10_2012_11_11_40_2.jpg,753,341,19,20,2_3_2,0
autosave09_10_2012_11_11_49_1.jpg,809,334,21,20,2_3_3,0
autosave09_10_2012_11_11_59_1.jpg,768,332,17,16,2_3_3,0
autosave09_10_2012_11_12_29_0.jpg,741,336,17,22,1_22,0
autosave09_10_2012_11_13_57_3.jpg,718,324,19,18,1_8,0
autosave09_10_2012_11_13_57_3.jpg,718,342,18,17,1_12_2,0
autosave09_10_2012_11_13_59_0.jpg,755,296,25,23,1_8,0
autosave09_10_2012_11_13_59_0.jpg,757,320,23,21,1_12_2,0
autosave09_10_2012_11_14_43_0.jpg,692,320,19,18,1_23,0
autosave09_10_2012_11_14_48_1.jpg,859,304,17,17,1_22,0
autosave09_10_2012_11_14_48_1.jpg,859,322,16,16,1_23,0
autosave09_10_2012_11_16_31_1.jpg,762,286,23,23,2_3,0
autosave09_10_2012_11_16_31_1.jpg,760,310,24,21,1_22,0
autosave09_10_2012_11_17_34_1.jpg,727,331,19,19,2_3_2,0
autosave09_10_2012_11_18_01_2.jpg,730,339,18,18,1_22,0
autosave09_10_2012_11_18_08_0.jpg,694,332,19,17,1_20_2,0
autosave09_10_2012_11_18_08_1.jpg,722,329,24,23,1_20_2,0
autosave09_10_2012_11_18_08_2.jpg,767,308,33,30,1_20_2,0
autosave09_10_2012_11_18_12_2.jpg,682,350,17,17,2_3_3,0
autosave09_10_2012_11_18_13_0.jpg,686,354,17,16,2_3_3,0
autosave09_10_2012_11_19_43_1.jpg,647,325,22,23,1_20_3,0
autosave09_10_2012_11_19_51_0.jpg,693,331,16,16,2_3_2,0
autosave09_10_2012_11_20_02_2.jpg,764,349,17,16,1_20_2,0
autosave09_10_2012_11_20_03_0.jpg,783,344,18,17,1_20_2,0
autosave09_10_2012_11_20_03_0.jpg,782,363,17,16,1_22,0
autosave09_10_2012_11_21_08_1.jpg,785,323,19,19,2_3,0
autosave09_10_2012_11_21_08_1.jpg,785,343,17,16,1_20,0
autosave09_10_2012_11_22_03_1.jpg,738,336,17,16,1_11_1,0
autosave09_10_2012_11_22_41_0.jpg,742,323,18,17,1_11,0
autosave09_10_2012_11_22_53_1.jpg,740,332,18,19,2_3,0
autosave09_10_2012_11_23_00_1.jpg,779,339,24,23,1_22,0
autosave09_10_2012_11_23_38_0.jpg,757,329,19,19,1_11,0
autosave09_10_2012_11_24_47_1.jpg,731,343,19,19,1_11_1,0
autosave09_10_2012_11_25_36_2.jpg,746,324,21,20,1_11,0
autosave09_10_2012_11_25_41_0.jpg,785,275,24,24,1_22,0
autosave09_10_2012_11_26_34_0.jpg,782,304,29,28,1_11_1,0
autosave09_10_2012_11_27_43_2.jpg,759,300,31,26,2_3_2,5
autosave09_10_2012_11_29_51_2.jpg,659,316,20,19,1_2,0
autosave09_10_2012_11_29_51_2.jpg,403,309,23,23,1_2,20
autosave09_10_2012_11_29_56_1.jpg,277,330,23,20,1_25,0
autosave09_10_2012_11_32_46_3.jpg,814,230,49,48,1_2,10
autosave09_10_2012_11_32_48_2.jpg,1053,9,147,111,1_2,0
autosave09_10_2012_11_34_15_2.jpg,369,327,28,27,1_2,10
autosave09_10_2012_11_34_16_0.jpg,354,323,30,27,1_2,0
autosave09_10_2012_11_34_16_0.jpg,661,358,23,21,1_23,60
autosave09_10_2012_11_34_17_1.jpg,153,238,50,47,1_2,0
autosave09_10_2012_11_34_17_1.jpg,723,264,46,42,1_2,30
autosave09_10_2012_11_34_17_1.jpg,720,307,48,43,1_23,10
autosave09_10_2012_11_34_17_3.jpg,817,207,79,70,1_2,0
autosave09_10_2012_11_34_17_3.jpg,818,277,76,68,1_23,0
autosave09_10_2012_11_34_30_1.jpg,516,317,28,25,1_23,40
autosave09_10_2012_11_42_05_0.jpg,701,268,74,65,1_23,0
autosave09_10_2012_11_44_27_0.jpg,801,339,28,27,1_23,0
autosave09_10_2012_11_44_29_1.jpg,935,324,45,43,1_23,0
autosave09_10_2012_11_44_36_3.jpg,857,305,20,19,1_23,0
autosave09_10_2012_11_44_40_0.jpg,878,267,32,29,1_23,0
autosave09_10_2012_11_44_42_1.jpg,1045,205,62,50,1_23,0
autosave09_10_2012_11_44_45_3.jpg,30,269,28,31,1_23,0
autosave09_10_2012_11_44_54_0.jpg,797,316,23,21,1_23,0
autosave09_10_2012_11_46_55_0.jpg,643,332,20,19,1_2,0
autosave09_10_2012_11_47_27_3.jpg,659,337,21,19,1_25,0
autosave09_10_2012_11_51_08_0.jpg,712,334,25,24,2_3_2,0
autosave09_10_2012_11_51_25_0.jpg,625,325,19,18,2_3_2,0
autosave09_10_2012_11_51_25_0.jpg,624,344,20,17,1_20_2,0
autosave09_10_2012_11_51_55_0.jpg,803,322,22,20,1_1,0
autosave09_10_2012_11_51_55_0.jpg,344,314,19,19,1_1,0
autosave09_10_2012_11_52_03_3.jpg,771,311,21,19,2_3_2,0
autosave09_10_2012_11_52_03_3.jpg,770,332,22,20,1_22,0
autosave09_10_2012_11_52_10_0.jpg,335,320,26,25,1_1,0
autosave09_10_2012_11_52_10_0.jpg,706,306,22,23,1_1,0
autosave09_10_2012_11_52_10_0.jpg,749,332,21,21,1_33,0
autosave09_10_2012_11_56_36_0.jpg,696,346,20,20,2_3_2,0
autosave09_10_2012_11_57_14_0.jpg,724,321,20,19,2_3_3,0
autosave09_10_2012_11_58_04_1.jpg,748,332,22,19,1_22,0
autosave09_10_2012_11_59_29_0.jpg,675,292,31,27,1_22,0
autosave09_10_2012_12_01_35_1.jpg,814,333,33,29,2_3_2,0
autosave09_10_2012_12_01_36_0.jpg,891,331,36,33,2_3_2,0
autosave09_10_2012_12_02_05_2.jpg,777,313,26,26,2_3_3,0
autosave09_10_2012_12_02_17_0.jpg,706,355,18,19,2_3_3,0
autosave09_10_2012_12_02_31_0.jpg,734,316,26,25,1_1,0
autosave09_10_2012_12_02_31_0.jpg,266,313,27,23,1_1,0
autosave09_10_2012_12_02_34_1.jpg,769,310,30,30,2_3_3,0
autosave09_10_2012_12_02_34_1.jpg,803,309,29,30,1_12,0
autosave09_10_2012_12_02_34_1.jpg,834,312,32,31,1_22,0
autosave09_10_2012_12_02_44_2.jpg,910,319,31,25,1_33,0
autosave09_10_2012_12_02_44_2.jpg,853,286,29,26,1_1,0
autosave09_10_2012_12_02_45_2.jpg,1097,285,47,39,1_33,0
autosave09_10_2012_12_02_45_2.jpg,1000,237,45,39,1_1,0
autosave09_10_2012_12_02_45_2.jpg,372,310,24,21,1_1,0
autosave09_10_2012_12_12_42_0.jpg,736,355,19,18,1_22,25
autosave09_10_2012_12_13_26_2.jpg,799,333,20,19,1_11,0
autosave09_10_2012_12_13_35_1.jpg,781,336,16,16,2_3_3,0
autosave09_10_2012_12_13_36_0.jpg,826,323,19,19,2_3_3,0
autosave09_10_2012_12_13_36_0.jpg,827,344,18,17,1_20_3,0
autosave09_10_2012_12_13_43_0.jpg,756,309,18,17,2_3_2,0
autosave09_10_2012_12_13_43_1.jpg,774,291,21,21,2_3_2,0
autosave09_10_2012_12_14_21_0.jpg,832,299,34,32,2_3_3,0
autosave09_10_2012_12_14_25_0.jpg,1030,359,19,17,1_11_1,0
autosave09_10_2012_12_14_39_0.jpg,794,311,31,24,2_3_2,0
autosave09_10_2012_12_15_16_2.jpg,689,328,22,21,2_3_3,0
autosave09_10_2012_12_15_37_1.jpg,706,346,24,21,2_3_3,0
autosave09_10_2012_12_15_46_2.jpg,716,341,26,23,2_3_2,0
autosave09_10_2012_12_19_59_1.jpg,691,328,24,24,1_2,0
autosave09_10_2012_12_20_04_1.jpg,735,303,27,24,1_12,0
autosave09_10_2012_12_20_05_1.jpg,807,273,39,37,1_12,0
autosave09_10_2012_12_22_42_0.jpg,653,322,23,22,1_23,0
autosave09_10_2012_12_23_44_2.jpg,711,335,19,19,1_17,0
autosave09_10_2012_12_23_44_3.jpg,728,329,22,23,1_17,0
autosave09_10_2012_12_23_47_1.jpg,848,233,50,53,1_17,0
autosave09_10_2012_12_24_57_0.jpg,1228,221,51,64,1_23,25
autosave09_10_2012_12_26_27_2.jpg,985,289,24,24,1_23,10
autosave09_10_2012_12_26_30_0.jpg,709,283,28,29,1_23,10
autosave09_10_2012_12_31_45_0.jpg,1041,272,40,38,1_23,7
autosave09_10_2012_12_31_58_1.jpg,665,312,21,21,1_23,0
autosave09_10_2012_12_33_46_0.jpg,644,320,21,19,1_23,0
autosave09_10_2012_12_34_15_1.jpg,179,287,20,24,1_23,0
autosave09_10_2012_12_36_48_2.jpg,733,325,28,28,1_23,0
autosave09_10_2012_12_39_09_0.jpg,732,345,22,17,1_22,0
autosave09_10_2012_12_39_10_0.jpg,756,321,24,23,1_22,0
autosave09_10_2012_12_39_10_1.jpg,780,319,27,25,1_22,0
autosave09_10_2012_12_45_36_1.jpg,682,297,28,26,1_23,0
autosave09_10_2012_12_45_37_0.jpg,704,285,34,34,1_23,0
autosave09_10_2012_12_45_39_1.jpg,739,278,36,33,1_23,0
autosave09_10_2012_12_45_42_0.jpg,853,225,66,51,1_23,0
autosave09_10_2012_12_46_04_3.jpg,672,336,19,16,1_16,0
autosave09_10_2012_12_46_05_1.jpg,687,338,20,17,1_16,0
autosave09_10_2012_12_46_05_2.jpg,696,336,21,19,1_16,0
autosave09_10_2012_12_46_06_1.jpg,716,328,23,20,1_16,0
autosave09_10_2012_12_46_06_3.jpg,735,329,27,23,1_16,0
autosave09_10_2012_12_47_14_0.jpg,315,269,28,28,1_23,0
autosave09_10_2012_12_47_20_2.jpg,829,330,39,39,1_23,30
autosave09_10_2012_12_47_25_3.jpg,794,354,29,26,1_23,0
autosave09_10_2012_12_50_34_0.jpg,1126,326,28,34,1_25,0
autosave09_10_2012_12_50_34_1.jpg,1151,325,28,34,1_25,0
autosave09_10_2012_13_06_54_2.jpg,780,319,23,24,1_12,0
autosave09_10_2012_13_14_14_0.jpg,741,320,21,21,2_3_3,0
autosave09_10_2012_13_14_58_0.jpg,726,328,22,21,2_3_2,0
autosave09_10_2012_13_17_44_2.jpg,270,303,24,25,1_1,0
autosave09_10_2012_13_17_45_1.jpg,172,273,34,31,1_1,0
autosave09_10_2012_13_17_45_1.jpg,694,307,21,22,1_1,20
autosave09_10_2012_13_17_45_1.jpg,716,308,19,20,1_33,60
autosave09_10_2012_13_17_54_0.jpg,1230,358,21,19,1_22,0
autosave09_10_2012_13_20_01_0.jpg,830,320,23,24,1_11_1,0
autosave09_10_2012_13_23_20_0.jpg,800,321,25,26,1_11,0
autosave09_10_2012_13_26_00_3.jpg,738,320,21,21,1_1,0
autosave09_10_2012_13_28_40_1.jpg,705,326,26,26,1_2,0
autosave09_10_2012_13_28_44_2.jpg,726,311,27,23,1_12,0
autosave09_10_2012_13_28_45_1.jpg,768,297,34,30,1_12,0
autosave09_10_2012_13_29_43_0.jpg,687,267,28,28,1_8,0
autosave09_10_2012_13_33_49_1.jpg,890,322,62,57,1_12,40
autosave09_10_2012_13_37_46_1.jpg,692,335,23,21,1_2,0
autosave09_10_2012_13_39_09_1.jpg,830,327,45,43,1_12,70
autosave09_10_2012_13_39_32_0.jpg,669,297,25,22,1_17,0
autosave09_10_2012_13_39_32_0.jpg,669,343,23,21,1_23,0
autosave09_10_2012_13_39_35_2.jpg,762,324,25,23,1_23,0
autosave09_10_2012_13_39_36_0.jpg,768,316,29,25,1_23,0
autosave09_10_2012_13_39_37_1.jpg,876,279,50,43,1_23,0
autosave09_10_2012_13_42_31_0.jpg,650,283,29,24,1_23,0
autosave09_10_2012_13_42_34_2.jpg,656,264,35,30,1_23,0
autosave09_10_2012_13_45_04_0.jpg,718,320,25,26,1_23,0
autosave09_10_2012_13_45_53_1.jpg,649,287,26,24,1_17,0
autosave09_10_2012_13_45_53_1.jpg,654,341,21,16,1_23,0
autosave09_10_2012_13_45_56_2.jpg,857,116,93,83,1_17,0
autosave09_10_2012_13_45_56_2.jpg,878,296,80,64,1_23,0
autosave09_10_2012_13_45_57_1.jpg,1114,234,142,115,1_23,0
autosave09_10_2012_13_47_21_1.jpg,695,277,28,27,1_17,0
autosave09_10_2012_13_47_26_0.jpg,664,321,25,24,1_23,0
autosave09_10_2012_13_47_28_3.jpg,811,299,64,63,1_23,0
autosave09_10_2012_13_47_30_1.jpg,1034,176,122,120,1_23,0
autosave09_10_2012_13_47_39_2.jpg,802,304,33,30,1_23,0
autosave09_10_2012_14_00_50_1.jpg,707,311,23,22,2_3_2,0
autosave09_10_2012_14_01_03_2.jpg,671,327,19,19,2_3_2,0
autosave09_10_2012_14_02_09_2.jpg,678,313,18,18,2_3_2,0
autosave09_10_2012_14_02_09_2.jpg,678,333,19,17,1_22,0
autosave09_10_2012_14_02_11_0.jpg,819,247,46,43,2_3_2,0
autosave09_10_2012_14_02_11_0.jpg,818,292,49,44,1_22,0
autosave09_10_2012_14_03_15_2.jpg,728,329,20,21,2_3_3,0
autosave09_10_2012_14_03_33_2.jpg,745,306,24,21,1_23,0
autosave09_10_2012_14_03_36_1.jpg,743,320,24,22,1_12_2,0
autosave09_10_2012_14_03_36_3.jpg,796,303,31,28,1_12_2,0
autosave09_10_2012_14_03_36_3.jpg,710,326,21,18,1_23,0
autosave09_10_2012_14_03_37_1.jpg,876,267,47,40,1_12_2,0
autosave09_10_2012_14_03_37_1.jpg,735,309,22,22,1_23,0
autosave09_10_2012_14_03_45_1.jpg,710,349,21,19,1_16,0
autosave09_10_2012_14_03_45_2.jpg,738,344,25,23,1_16,0
autosave09_10_2012_14_03_47_1.jpg,806,327,31,30,1_25,0
autosave09_10_2012_14_03_49_2.jpg,1017,316,55,50,1_25,0
autosave09_10_2012_14_04_24_1.jpg,703,308,20,18,1_12,0
autosave09_10_2012_14_04_29_1.jpg,771,325,19,19,1_20,0
autosave09_10_2012_14_04_29_2.jpg,781,313,20,20,1_20,0
autosave09_10_2012_14_05_50_3.jpg,693,310,19,17,2_3_3,0
autosave09_10_2012_14_05_50_3.jpg,693,327,19,16,1_22,0
autosave09_10_2012_14_06_12_2.jpg,670,332,19,19,2_3_3,0
autosave09_10_2012_14_07_07_1.jpg,738,324,22,21,2_3_2,0
autosave09_10_2012_14_07_11_1.jpg,806,303,27,28,1_22,0
autosave09_10_2012_14_07_12_1.jpg,1102,254,62,57,1_22,0
autosave09_10_2012_14_07_12_1.jpg,742,320,17,17,2_3_3,0
autosave09_10_2012_14_07_26_2.jpg,708,319,20,19,2_3_2,0
autosave09_10_2012_14_07_37_0.jpg,747,325,23,22,1_11_1,0
autosave09_10_2012_14_08_06_0.jpg,690,307,21,18,1_20,0
autosave09_10_2012_14_08_06_1.jpg,705,315,26,22,1_20,0
autosave09_10_2012_14_08_06_1.jpg,704,337,25,21,1_12_2,0
autosave09_10_2012_14_08_29_2.jpg,672,314,21,20,1_22,0
autosave09_10_2012_14_08_50_1.jpg,772,300,29,26,1_11_1,0
autosave09_10_2012_14_08_53_0.jpg,782,271,42,36,1_11_1,0
autosave09_10_2012_14_10_16_1.jpg,749,301,31,26,1_11,0
autosave09_10_2012_14_11_20_0.jpg,754,307,30,28,2_3_3,0
autosave09_10_2012_14_12_21_3.jpg,721,309,24,19,2_3,0
autosave09_10_2012_14_12_21_3.jpg,720,329,26,18,1_11_1,0
autosave09_10_2012_14_12_49_0.jpg,741,327,21,17,2_3,0
autosave09_10_2012_14_12_49_0.jpg,740,345,21,17,1_22,0
autosave09_10_2012_14_12_52_0.jpg,774,309,23,22,1_12_2,0
autosave09_10_2012_14_12_57_0.jpg,767,318,21,19,2_3_2,0
autosave09_10_2012_14_13_14_1.jpg,773,310,26,24,2_3_2,0
autosave09_10_2012_14_13_17_2.jpg,807,326,28,26,2_3_2,0
autosave09_10_2012_14_13_27_2.jpg,790,307,30,26,1_11,0
autosave09_10_2012_14_13_49_1.jpg,804,322,25,25,2_3,0
autosave09_10_2012_14_14_03_2.jpg,798,294,35,28,1_12,0
autosave09_10_2012_14_14_13_1.jpg,766,315,27,25,2_3_3,0
autosave09_10_2012_14_15_12_0.jpg,687,303,26,23,1_11,0
autosave09_10_2012_14_15_41_2.jpg,759,313,26,24,2_3,0
autosave09_10_2012_14_15_41_2.jpg,759,338,26,20,1_22,0
autosave09_10_2012_14_17_09_3.jpg,665,325,19,18,2_3_3,0
autosave09_10_2012_14_17_36_2.jpg,743,307,28,25,2_3_3,0
autosave09_10_2012_14_18_23_1.jpg,711,301,26,24,1_16,0
autosave09_10_2012_14_18_36_1.jpg,741,310,21,19,1_11_1,0
autosave09_10_2012_14_18_46_1.jpg,977,301,30,27,2_3_2,0
autosave09_10_2012_14_19_01_2.jpg,754,316,20,19,2_3_3,0
autosave09_10_2012_14_20_15_0.jpg,739,290,21,19,2_3_3,0
autosave09_10_2012_14_20_22_1.jpg,744,280,29,25,2_3_2,0
autosave09_10_2012_14_20_23_2.jpg,775,291,24,20,1_27,0
autosave09_10_2012_14_20_33_0.jpg,764,297,22,22,2_3_3,0
autosave09_10_2012_14_21_28_0.jpg,762,281,24,22,2_3,0
autosave09_10_2012_14_22_17_3.jpg,688,295,18,20,1_16,0
autosave09_10_2012_14_22_18_0.jpg,699,289,22,19,1_16,0
autosave09_10_2012_14_23_51_2.jpg,736,325,20,17,1_16,0
autosave09_10_2012_14_26_33_1.jpg,762,283,24,21,1_23,0
autosave09_10_2012_14_26_51_2.jpg,537,305,22,17,1_23,0
autosave09_10_2012_14_28_18_2.jpg,703,304,21,18,2_3_2,0
autosave09_10_2012_14_28_56_1.jpg,703,307,22,21,1_16,0
autosave09_10_2012_14_29_44_1.jpg,692,263,18,18,2_3_2,0
autosave09_10_2012_14_29_44_2.jpg,724,282,19,19,2_3_2,0
autosave09_10_2012_14_29_44_2.jpg,721,302,21,19,1_22,0
autosave09_10_2012_14_33_41_3.jpg,831,272,30,27,2_3_3,0
autosave09_10_2012_14_35_15_2.jpg,746,316,21,20,1_16,0
autosave09_10_2012_14_35_43_3.jpg,751,294,19,17,2_3_3,0
autosave09_10_2012_14_35_58_1.jpg,699,288,20,18,1_22,0
autosave09_10_2012_14_36_01_2.jpg,758,266,26,25,2_3_2,0
autosave09_10_2012_14_36_14_0.jpg,764,293,21,20,1_11_1,0
autosave09_10_2012_14_36_45_1.jpg,761,314,17,17,1_16,0
autosave09_10_2012_14_37_32_0.jpg,734,295,19,16,2_3_2,0
autosave09_10_2012_14_37_59_0.jpg,744,289,23,19,1_16,0
autosave09_10_2012_14_39_42_1.jpg,766,287,23,23,2_3,0
autosave09_10_2012_14_41_16_1.jpg,813,316,26,25,1_16,0
autosave09_10_2012_14_41_24_1.jpg,751,290,23,19,2_3_3,0
autosave09_10_2012_14_43_32_1.jpg,736,282,21,18,2_3_2,0
autosave09_10_2012_14_45_43_2.jpg,738,301,16,16,1_22,0
autosave09_10_2012_14_45_44_0.jpg,765,295,17,19,1_22,0
autosave09_10_2012_14_45_44_0.jpg,764,314,17,17,2_3_3,0
autosave09_10_2012_14_47_09_0.jpg,761,287,25,23,1_22,0
autosave09_10_2012_14_47_33_2.jpg,729,298,19,17,2_3_2,0
autosave09_10_2012_14_49_31_2.jpg,736,274,19,20,2_3_2,0
autosave09_10_2012_14_49_31_2.jpg,735,295,21,17,1_22,0
autosave09_10_2012_14_50_11_3.jpg,728,278,20,22,2_3_2,0
autosave09_10_2012_14_51_01_0.jpg,804,264,25,23,2_3_2,0
autosave09_10_2012_14_52_46_0.jpg,758,301,23,22,2_3,0
autosave09_10_2012_14_55_06_2.jpg,796,303,23,21,2_3_3,0
autosave09_10_2012_14_55_41_2.jpg,919,228,38,36,1_22,0
autosave09_10_2012_14_56_01_3.jpg,734,295,28,27,1_11,0
autosave09_10_2012_14_57_20_0.jpg,723,305,20,18,2_3_2,0
autosave09_10_2012_14_58_08_2.jpg,712,281,23,22,1_11,0
autosave09_10_2012_14_58_19_2.jpg,705,292,23,20,2_3_3,0
autosave09_10_2012_14_59_03_2.jpg,717,276,20,22,1_11,0
autosave09_10_2012_15_00_58_1.jpg,684,298,21,20,2_3_2,0
autosave09_10_2012_15_07_49_1.jpg,662,315,22,24,1_16,0
autosave09_10_2012_15_08_29_3.jpg,652,287,26,24,1_16,0
autosave09_10_2012_15_08_31_1.jpg,677,283,34,31,1_16,0
autosave09_10_2012_15_09_37_2.jpg,1024,271,20,46,1_16,0
autosave09_10_2012_15_18_13_2.jpg,634,252,41,38,1_17,100
autosave09_10_2012_15_27_06_0.jpg,713,266,26,22,1_23,0
autosave09_10_2012_15_42_09_1.jpg,829,246,23,23,1_23,1
autosave09_10_2012_15_42_17_0.jpg,863,234,28,25,1_17,0
autosave09_10_2012_15_42_17_1.jpg,875,225,31,29,1_17,0
autosave09_10_2012_15_43_29_0.jpg,170,196,52,48,1_23,0
autosave09_10_2012_15_43_31_1.jpg,488,290,24,23,1_23,0
autosave09_11_2012_08_59_34_2.jpg,636,403,22,20,1_25,0
autosave09_11_2012_08_59_36_0.jpg,658,398,27,26,1_25,0
autosave09_11_2012_08_59_36_2.jpg,680,405,32,31,1_25,0
autosave09_11_2012_09_00_02_1.jpg,722,359,19,17,1_25,0
autosave09_11_2012_09_00_04_1.jpg,791,304,37,29,1_25,0
autosave09_11_2012_09_00_04_2.jpg,810,289,44,35,1_25,0
autosave09_11_2012_09_00_05_1.jpg,879,242,61,52,1_25,0
autosave09_11_2012_09_00_05_2.jpg,949,190,83,66,1_25,0
autosave09_11_2012_09_00_06_0.jpg,1026,134,107,83,1_25,0
autosave09_11_2012_09_00_06_0.jpg,712,363,17,17,1_20_2,0
autosave09_11_2012_09_00_06_1.jpg,722,354,17,18,1_20_2,0
autosave09_11_2012_09_00_06_2.jpg,730,353,20,19,1_20_2,0
autosave09_11_2012_09_00_06_2.jpg,655,395,18,18,1_25,0
autosave09_11_2012_09_00_06_3.jpg,743,351,23,22,1_20_2,0
autosave09_11_2012_09_00_06_3.jpg,662,395,20,19,1_25,0
autosave09_11_2012_09_00_09_3.jpg,795,388,36,38,1_25,0
autosave09_11_2012_09_00_30_4.jpg,391,343,19,17,1_25,0
autosave09_11_2012_09_00_44_3.jpg,695,347,16,16,1_25,0
autosave09_11_2012_09_00_44_3.jpg,322,338,16,16,1_25,0
autosave09_11_2012_09_00_47_0.jpg,623,348,18,16,1_25,0
autosave09_11_2012_09_00_47_0.jpg,163,334,20,18,1_25,0
autosave09_11_2012_09_00_47_1.jpg,621,328,20,18,1_25,0
autosave09_11_2012_09_00_47_1.jpg,621,349,19,16,1_20_2,0
autosave09_11_2012_09_00_47_1.jpg,135,315,17,16,1_25,0
autosave09_11_2012_09_00_47_1.jpg,133,333,21,20,1_20_3,0
autosave09_11_2012_09_05_19_1.jpg,797,326,22,19,1_25,0
autosave09_11_2012_09_05_24_3.jpg,824,399,23,21,1_25,6
autosave09_11_2012_09_05_25_1.jpg,854,415,31,28,1_25,15
autosave09_11_2012_09_05_25_1.jpg,827,370,21,19,1_25,0
autosave09_11_2012_09_05_25_1.jpg,831,389,19,17,1_20_2,0
autosave09_11_2012_09_05_25_1.jpg,420,343,24,24,1_25,0
autosave09_11_2012_09_05_31_0.jpg,643,420,25,26,1_25,0
autosave09_11_2012_09_05_45_2.jpg,868,417,23,24,1_25,0
autosave09_11_2012_09_05_47_0.jpg,1004,407,43,45,1_25,8
autosave09_11_2012_09_06_21_0.jpg,874,392,26,27,1_25,0
autosave09_11_2012_09_06_25_2.jpg,862,395,28,27,1_25,0
autosave09_11_2012_09_07_59_1.jpg,951,410,34,35,1_25,15
autosave09_11_2012_09_08_16_1.jpg,922,413,42,43,1_25,0
autosave09_11_2012_09_08_16_2.jpg,937,416,51,44,1_25,0
autosave09_11_2012_09_18_22_0.jpg,787,350,21,21,1_17,0
autosave09_11_2012_09_18_24_1.jpg,910,309,38,34,1_17,0
autosave09_11_2012_09_18_27_2.jpg,818,333,29,27,1_23,25
autosave09_11_2012_09_19_20_1.jpg,706,395,24,23,1_25,0
autosave09_11_2012_09_20_49_0.jpg,933,406,40,43,1_25,10
autosave09_11_2012_09_21_18_0.jpg,800,344,21,20,1_11_1,0
autosave09_11_2012_09_21_47_3.jpg,289,424,24,24,1_25,8
autosave09_11_2012_09_24_04_0.jpg,1165,344,33,27,1_16,0
autosave09_11_2012_09_27_32_0.jpg,832,375,20,19,1_20_2,0
autosave09_11_2012_09_27_59_2.jpg,878,356,18,16,1_25,0
autosave09_11_2012_09_28_01_2.jpg,1048,304,33,28,1_25,0
autosave09_11_2012_09_28_08_0.jpg,901,346,18,19,1_25,0
autosave09_11_2012_09_28_09_2.jpg,1131,280,41,39,1_25,0
autosave09_11_2012_09_28_11_0.jpg,890,363,18,17,1_25,0
autosave09_11_2012_09_28_11_0.jpg,890,381,19,16,1_20_2,0
autosave09_11_2012_09_28_19_1.jpg,950,369,17,17,1_25,0
autosave09_11_2012_09_28_24_4.jpg,1044,337,24,23,1_25,0
autosave09_11_2012_09_28_26_3.jpg,1160,320,30,26,1_25,0
autosave09_11_2012_09_30_08_2.jpg,825,345,24,22,1_17,0
autosave09_11_2012_09_30_10_1.jpg,963,288,40,40,1_17,0
autosave09_11_2012_09_30_12_2.jpg,814,328,31,29,1_23,25
autosave09_11_2012_09_30_36_1.jpg,837,332,36,33,1_25,15
autosave09_11_2012_09_30_43_2.jpg,817,339,21,19,1_20_2,0
autosave09_11_2012_09_30_43_2.jpg,819,358,21,19,1_25,0
autosave09_11_2012_09_30_50_1.jpg,860,379,16,17,1_25,0
autosave09_11_2012_09_31_15_1.jpg,1058,361,41,36,1_25,0
autosave09_11_2012_09_32_04_1.jpg,738,403,21,21,1_25,0
autosave09_11_2012_09_32_39_1.jpg,865,404,25,24,1_25,90
autosave09_11_2012_09_33_01_2.jpg,777,333,18,18,1_11_1,0
autosave09_11_2012_09_33_02_1.jpg,811,313,23,21,1_11_1,0
autosave09_11_2012_09_46_06_3.jpg,944,386,20,20,1_25,0
autosave09_11_2012_09_46_08_0.jpg,985,372,23,24,1_25,0
autosave09_11_2012_09_46_11_1.jpg,891,366,17,17,1_20_3,0
autosave09_11_2012_09_46_11_3.jpg,942,356,21,20,1_20_3,0
autosave09_11_2012_09_46_12_2.jpg,1082,319,34,33,1_20_3,0
autosave09_11_2012_09_49_17_2.jpg,927,389,18,18,1_20_2,0
autosave09_11_2012_09_49_31_1.jpg,891,343,18,19,1_25,0
autosave09_11_2012_09_49_31_2.jpg,927,335,20,20,1_25,0
autosave09_11_2012_09_49_32_1.jpg,1060,296,35,29,1_25,0
autosave09_11_2012_09_49_36_2.jpg,914,340,20,20,1_25,0
autosave09_11_2012_09_49_39_2.jpg,976,335,27,24,1_25,0
autosave09_11_2012_09_49_39_2.jpg,977,361,26,23,1_20_2,0
autosave09_11_2012_09_49_46_2.jpg,970,350,21,21,1_25,0
autosave09_11_2012_09_49_47_1.jpg,1056,330,30,29,1_25,0
autosave09_11_2012_09_49_47_3.jpg,1192,309,42,39,1_25,0
autosave09_11_2012_09_49_48_2.jpg,900,339,17,18,1_25,0
autosave09_11_2012_09_52_44_4.jpg,1182,423,81,73,1_25,0
autosave09_11_2012_09_53_25_1.jpg,690,346,18,19,1_17,0
autosave09_11_2012_09_53_25_4.jpg,702,331,21,20,1_17,0
autosave09_11_2012_09_53_37_1.jpg,1069,0,130,98,1_17,5
autosave09_11_2012_09_53_37_1.jpg,751,329,21,21,1_17,0
autosave09_11_2012_09_53_39_0.jpg,728,312,27,26,1_17,0
autosave09_11_2012_09_54_57_3.jpg,860,324,25,26,1_5,10
autosave09_11_2012_09_55_24_3.jpg,587,335,17,16,1_17,0
autosave09_11_2012_09_55_25_1.jpg,854,295,16,16,1_17,0
autosave09_11_2012_09_55_25_1.jpg,577,323,19,18,1_17,0
autosave09_11_2012_09_55_25_1.jpg,578,342,18,17,1_23,0
autosave09_11_2012_09_55_26_0.jpg,884,283,18,18,1_17,0
autosave09_11_2012_09_55_26_0.jpg,885,303,20,17,1_23,0
autosave09_11_2012_09_55_26_0.jpg,565,318,20,19,1_17,0
autosave09_11_2012_09_55_26_0.jpg,564,339,21,18,1_23,0
autosave09_11_2012_09_55_45_1.jpg,862,372,18,17,1_23,0
autosave09_11_2012_09_55_48_0.jpg,1192,300,44,43,1_23,0
autosave09_11_2012_09_55_50_0.jpg,972,338,27,25,1_22,0
autosave10_10_2012_07_41_02_0.jpg,708,398,22,22,1_23,0
autosave10_10_2012_07_41_03_0.jpg,735,385,27,28,1_23,0
autosave10_10_2012_07_41_05_2.jpg,962,297,87,71,1_23,0
autosave10_10_2012_07_42_57_0.jpg,769,363,28,24,1_23,0
autosave10_10_2012_07_44_51_0.jpg,632,376,23,22,1_23,0
autosave10_10_2012_07_45_11_0.jpg,642,376,23,21,1_23,0
autosave10_10_2012_07_45_13_0.jpg,661,354,36,31,1_23,0
autosave10_10_2012_07_45_19_0.jpg,618,388,26,23,1_23,0
autosave10_10_2012_07_51_28_0.jpg,697,402,22,22,1_23,0
autosave10_10_2012_07_51_29_1.jpg,767,384,32,30,1_23,0
autosave10_10_2012_07_51_31_1.jpg,1066,268,109,83,1_23,0
autosave10_10_2012_07_51_56_2.jpg,681,330,37,36,1_23,0
autosave10_10_2012_07_52_05_2.jpg,687,288,28,25,1_2,0
autosave10_10_2012_07_52_06_0.jpg,699,277,29,26,1_2,0
autosave10_10_2012_07_52_06_0.jpg,701,343,26,25,1_23,0
autosave10_10_2012_07_56_45_2.jpg,713,390,30,29,1_2,0
autosave10_10_2012_08_00_09_0.jpg,671,340,26,24,1_2,0
autosave10_10_2012_08_01_31_0.jpg,671,351,32,29,1_12_2,0
autosave10_10_2012_08_03_41_2.jpg,752,362,26,23,1_23,0
autosave10_10_2012_08_04_02_0.jpg,686,335,32,30,1_17,0
autosave10_10_2012_08_04_02_3.jpg,772,229,52,50,1_17,0
autosave10_10_2012_08_04_38_0.jpg,850,304,46,44,1_23,0
autosave10_10_2012_08_08_18_3.jpg,954,342,30,30,1_23,5
autosave10_10_2012_08_08_34_0.jpg,34,280,53,40,1_17,0
autosave10_10_2012_08_08_34_1.jpg,232,268,60,47,1_17,0
autosave10_10_2012_08_08_34_2.jpg,357,257,50,43,1_17,0
autosave10_10_2012_08_12_48_1.jpg,803,382,29,27,1_11,0
autosave10_10_2012_08_14_45_2.jpg,782,401,32,27,2_3_2,0
autosave10_10_2012_08_30_32_3.jpg,811,362,27,27,1_17,0
autosave10_10_2012_08_30_37_1.jpg,762,369,26,23,1_23,0
autosave10_10_2012_08_30_39_1.jpg,1168,220,74,70,1_23,0
autosave10_10_2012_08_30_49_1.jpg,1190,377,26,26,1_23,0
autosave10_10_2012_08_30_53_0.jpg,810,291,55,50,1_23,0
autosave10_10_2012_08_30_53_1.jpg,825,268,64,56,1_23,0
autosave10_10_2012_08_30_53_1.jpg,731,350,21,18,1_23,0
autosave10_10_2012_08_30_57_2.jpg,730,191,60,53,1_23,0
autosave10_10_2012_08_31_58_0.jpg,708,378,21,18,1_23,0
autosave10_10_2012_08_32_30_3.jpg,727,404,19,19,1_17,0
autosave10_10_2012_08_32_38_0.jpg,716,355,48,45,1_17,0
autosave10_10_2012_08_32_38_2.jpg,781,294,78,69,1_17,0
autosave10_10_2012_08_32_38_2.jpg,781,229,77,66,1_23,0
autosave10_10_2012_08_34_28_1.jpg,795,392,26,24,1_2,0
autosave10_10_2012_08_34_30_3.jpg,795,395,21,20,1_2,0
autosave10_10_2012_08_37_22_2.jpg,613,389,25,24,1_2,0
autosave10_10_2012_08_44_33_0.jpg,676,406,19,18,1_1,0
autosave10_10_2012_08_44_33_0.jpg,362,408,18,18,1_1,0
autosave10_10_2012_08_44_35_0.jpg,985,306,56,50,1_1,0
autosave10_10_2012_08_44_38_1.jpg,313,396,23,21,1_2,0
autosave10_10_2012_08_44_38_1.jpg,703,401,22,21,1_2,0
autosave10_10_2012_08_45_52_0.jpg,723,403,22,18,1_22,0
autosave10_10_2012_08_45_59_1.jpg,761,411,19,20,2_3,0
autosave10_10_2012_08_46_31_2.jpg,699,416,17,16,2_3_2,0
autosave10_10_2012_08_47_18_1.jpg,714,401,22,19,1_22,0
autosave10_10_2012_08_47_38_2.jpg,669,408,17,17,1_23,0
autosave10_10_2012_08_47_50_2.jpg,696,398,20,19,1_23,0
autosave10_10_2012_08_48_26_3.jpg,686,408,20,20,1_22,0
autosave10_10_2012_08_49_32_3.jpg,696,404,21,19,1_13,0
autosave10_10_2012_08_49_32_3.jpg,696,423,20,16,1_22,0
autosave10_10_2012_08_49_55_2.jpg,682,402,23,21,1_14,0
autosave10_10_2012_08_50_45_1.jpg,717,397,18,19,2_3_2,0
autosave10_10_2012_08_50_45_1.jpg,716,415,21,18,1_22,0
autosave10_10_2012_08_52_01_1.jpg,732,398,22,20,2_3_3,0
autosave10_10_2012_08_52_09_1.jpg,751,411,22,18,1_22,0
autosave10_10_2012_08_52_29_1.jpg,785,387,24,24,1_22,0
autosave10_10_2012_08_53_03_1.jpg,705,394,22,21,2_3_3,0
autosave10_10_2012_08_53_45_0.jpg,705,422,19,18,1_22,0
autosave10_10_2012_08_53_56_2.jpg,728,409,21,19,2_3_3,0
autosave10_10_2012_08_55_01_2.jpg,673,397,21,20,1_22,0
autosave10_10_2012_08_55_06_2.jpg,736,398,21,20,2_3,0
autosave10_10_2012_08_55_06_2.jpg,734,415,23,19,1_16,0
autosave10_10_2012_08_56_08_1.jpg,710,402,20,20,2_3_2,0
autosave10_10_2012_08_56_45_0.jpg,701,391,18,19,2_3_2,0
autosave10_10_2012_08_57_19_2.jpg,707,389,23,22,2_3_3,0
autosave10_10_2012_08_57_32_1.jpg,765,374,22,23,1_2,0
autosave10_10_2012_08_57_38_1.jpg,738,370,18,20,1_2,0
autosave10_10_2012_08_57_38_1.jpg,325,374,19,20,1_2,0
autosave10_10_2012_08_58_14_1.jpg,724,390,21,21,2_3_2,0
autosave10_10_2012_08_58_30_0.jpg,766,382,24,24,1_22,0
autosave10_10_2012_08_58_30_0.jpg,790,382,25,23,2_3_2,0
autosave10_10_2012_08_59_28_1.jpg,764,397,25,25,2_3_2,0
autosave10_10_2012_08_59_28_1.jpg,740,394,25,24,1_22,0
autosave10_10_2012_09_00_09_1.jpg,712,398,20,17,1_23,0
autosave10_10_2012_09_00_10_3.jpg,913,319,48,47,1_23,0
autosave10_10_2012_09_00_31_2.jpg,814,377,26,26,1_17,0
autosave10_10_2012_09_00_48_0.jpg,686,409,22,23,1_23,0
autosave10_10_2012_09_04_41_3.jpg,668,389,25,25,1_33,0
autosave10_10_2012_09_04_41_3.jpg,693,388,23,27,1_1,0
autosave10_10_2012_09_04_42_0.jpg,682,373,25,25,1_33,0
autosave10_10_2012_09_04_42_0.jpg,708,372,27,26,1_1,0
autosave10_10_2012_09_05_39_0.jpg,667,367,21,20,1_1,0
autosave10_10_2012_09_07_02_0.jpg,670,363,27,23,1_1,0
autosave10_10_2012_09_16_53_0.jpg,820,369,28,25,1_1,0
autosave10_10_2012_09_19_46_0.jpg,647,373,27,25,1_23,0
autosave10_10_2012_09_19_51_3.jpg,662,396,24,21,1_23,0
autosave10_10_2012_09_21_06_1.jpg,656,357,27,27,1_23,0
autosave10_10_2012_09_21_11_2.jpg,641,345,23,22,1_23,0
autosave10_10_2012_09_24_51_1.jpg,1022,356,18,28,1_23,0
autosave10_10_2012_09_24_51_2.jpg,1073,342,21,30,1_23,0
autosave10_10_2012_09_24_52_0.jpg,1142,327,27,39,1_23,0
autosave10_10_2012_09_25_45_0.jpg,575,374,22,20,1_23,0
autosave10_10_2012_09_25_45_1.jpg,576,374,22,20,1_23,0
autosave10_10_2012_09_27_39_1.jpg,712,382,24,22,1_17,0
autosave10_10_2012_09_27_47_0.jpg,686,366,22,20,1_23,0
autosave10_10_2012_09_27_47_1.jpg,696,316,24,22,1_23,0
autosave10_10_2012_09_27_49_0.jpg,783,314,30,28,1_23,0
autosave10_10_2012_09_31_21_0.jpg,771,381,19,19,1_23,0
autosave10_10_2012_09_31_22_2.jpg,854,350,23,23,1_23,0
autosave10_10_2012_09_31_30_0.jpg,772,381,21,19,1_23,0
autosave10_10_2012_09_33_34_1.jpg,737,374,21,23,1_23,0
autosave10_10_2012_09_33_41_2.jpg,838,351,25,24,1_23,0
autosave10_10_2012_09_34_17_2.jpg,746,368,19,20,1_23,0
autosave10_10_2012_09_52_28_1.jpg,777,376,30,28,1_20_2,0
autosave10_10_2012_09_52_28_1.jpg,777,403,33,25,1_22,0
autosave10_10_2012_09_55_39_0.jpg,760,377,32,30,2_3_2,0
autosave10_10_2012_09_55_39_0.jpg,764,401,29,27,1_11_1,0
autosave10_10_2012_09_56_46_0.jpg,891,382,26,25,2_3_3,0
autosave10_10_2012_10_00_46_2.jpg,762,389,24,25,1_23,0
autosave10_10_2012_10_00_47_1.jpg,1001,324,52,53,1_23,0
autosave10_10_2012_10_00_51_2.jpg,826,333,32,31,1_23,0
autosave10_10_2012_10_01_51_1.jpg,734,379,27,29,2_3_2,0
autosave10_10_2012_10_01_51_1.jpg,737,408,21,21,1_22,0
autosave10_10_2012_10_02_18_1.jpg,809,358,32,33,2_3_3,0
autosave10_10_2012_10_02_25_4.jpg,746,385,28,32,1_22,0
autosave10_10_2012_10_02_30_0.jpg,730,393,19,20,2_3_2,0
autosave10_10_2012_10_03_38_3.jpg,750,368,21,22,2_3,0
autosave10_10_2012_10_03_38_3.jpg,749,392,24,18,1_22,0
autosave10_10_2012_10_04_42_1.jpg,726,398,26,23,1_11,0
autosave10_10_2012_10_04_49_0.jpg,742,406,27,25,1_22,0
autosave10_10_2012_10_04_53_2.jpg,704,360,21,21,1_22,0
autosave10_10_2012_10_06_14_0.jpg,328,386,23,20,1_22,0
autosave10_10_2012_10_06_15_0.jpg,169,318,35,32,1_22,0
autosave10_10_2012_10_07_01_1.jpg,771,350,26,23,1_22,0
autosave10_10_2012_10_07_01_1.jpg,773,375,23,18,2_3,0
autosave10_10_2012_10_08_02_1.jpg,753,389,26,27,2_3_3,0
autosave10_10_2012_10_08_24_0.jpg,755,386,27,29,2_3_2,0
autosave10_10_2012_10_09_56_0.jpg,827,370,38,41,1_23,0
autosave10_10_2012_10_10_00_2.jpg,937,359,35,37,1_23,0
autosave10_10_2012_10_13_38_2.jpg,826,380,31,29,2_3_2,0
autosave10_10_2012_10_14_36_0.jpg,720,383,27,26,1_11,0
autosave10_10_2012_10_14_41_2.jpg,703,375,32,25,2_3_3,0
autosave10_10_2012_10_17_18_0.jpg,726,403,26,22,1_22,0
autosave10_10_2012_10_24_04_1.jpg,642,355,22,20,1_23,0
autosave10_10_2012_10_24_14_0.jpg,709,354,25,23,1_23,0
autosave10_10_2012_10_25_03_0.jpg,780,305,28,24,1_23,0
autosave10_10_2012_10_26_33_2.jpg,813,364,28,28,1_11_1,0
autosave10_10_2012_10_27_04_2.jpg,669,332,23,22,1_23,0
autosave10_10_2012_10_27_56_3.jpg,698,386,23,22,1_25,0
autosave10_10_2012_10_27_57_0.jpg,786,318,39,39,1_25,0
autosave10_10_2012_10_27_57_0.jpg,690,379,19,20,1_20_2,0
autosave10_10_2012_10_28_02_0.jpg,799,361,32,29,1_25,0
autosave10_10_2012_10_28_12_0.jpg,870,456,47,42,1_25,0
autosave10_10_2012_10_28_18_3.jpg,924,389,23,19,1_25,0
autosave10_10_2012_10_28_20_0.jpg,948,379,23,19,1_25,0
autosave10_10_2012_10_28_20_0.jpg,947,466,21,18,1_25,0
autosave10_10_2012_10_33_48_0.jpg,663,317,37,31,1_23,0
autosave10_10_2012_10_34_31_1.jpg,1178,269,102,85,1_23,2
autosave10_10_2012_10_34_34_1.jpg,629,331,38,33,1_23,0
autosave10_10_2012_10_34_44_1.jpg,637,360,30,24,1_17,0
autosave10_10_2012_10_42_47_1.jpg,550,367,25,25,1_17,0
autosave10_10_2012_10_43_23_2.jpg,729,363,19,18,1_23,0
autosave10_10_2012_10_44_38_3.jpg,1136,339,21,28,1_17,0
autosave10_10_2012_10_44_39_2.jpg,1169,311,33,38,1_17,0
autosave10_10_2012_10_45_07_2.jpg,696,353,23,22,1_23,0
autosave10_10_2012_10_45_32_2.jpg,812,379,25,22,1_23,0
autosave10_10_2012_11_17_57_1.jpg,539,340,30,29,1_23,0
autosave10_10_2012_11_19_32_0.jpg,829,341,29,26,1_17,0
autosave10_10_2012_11_20_08_1.jpg,811,347,33,31,1_23,0
autosave10_10_2012_11_22_07_0.jpg,653,437,26,22,1_25,0
autosave10_10_2012_11_24_03_1.jpg,751,364,38,36,1_23,0
autosave10_10_2012_11_24_04_2.jpg,775,377,34,29,1_23,0
autosave10_10_2012_11_26_07_3.jpg,826,402,23,23,1_23,0
autosave10_10_2012_11_39_06_1.jpg,731,330,29,25,1_23,0
autosave10_10_2012_11_39_06_1.jpg,732,355,28,23,1_17,0
autosave10_10_2012_11_39_06_2.jpg,761,300,29,27,1_23,0
autosave10_10_2012_11_39_06_2.jpg,761,327,31,26,1_17,0
autosave10_10_2012_11_40_21_0.jpg,695,344,23,21,1_23,0
autosave10_10_2012_11_40_21_0.jpg,694,365,23,20,1_17,0
autosave10_10_2012_12_06_45_3.jpg,670,371,22,21,1_17,0
autosave10_10_2012_12_06_47_1.jpg,723,334,32,29,1_17,0
autosave10_10_2012_12_10_47_0.jpg,700,351,26,22,1_11_1,0
autosave10_10_2012_12_12_12_1.jpg,816,371,31,28,1_1,15
autosave10_10_2012_12_12_12_1.jpg,172,365,30,27,1_1,0
autosave10_10_2012_12_12_25_2.jpg,785,378,25,26,1_33,0
autosave10_10_2012_12_12_25_2.jpg,812,380,24,27,1_1,0
autosave10_10_2012_12_12_25_2.jpg,835,380,24,26,1_1,0
autosave10_10_2012_12_12_25_2.jpg,205,375,27,25,1_1,0
autosave10_10_2012_12_22_40_2.jpg,147,384,34,28,1_1,0
autosave10_10_2012_12_22_40_2.jpg,822,379,27,25,1_1,0
autosave10_10_2012_12_22_49_0.jpg,708,384,24,23,1_1,0
autosave10_10_2012_12_22_49_0.jpg,683,386,24,22,1_33,0
autosave10_10_2012_12_22_49_0.jpg,734,385,25,23,1_1,100
autosave10_10_2012_12_24_08_1.jpg,767,371,27,28,1_11,0
autosave10_10_2012_12_26_51_0.jpg,675,335,27,25,1_11,0
autosave10_10_2012_12_27_36_0.jpg,637,312,29,24,1_2,0
autosave10_10_2012_12_31_36_0.jpg,787,358,29,26,1_25,0
autosave10_10_2012_12_32_58_0.jpg,1147,204,79,72,1_25,0
autosave10_10_2012_12_33_01_0.jpg,751,374,24,24,1_20_2,0
autosave10_10_2012_12_33_05_0.jpg,833,351,35,34,1_20_2,0
autosave10_10_2012_12_34_25_1.jpg,793,385,23,22,1_25,0
autosave10_10_2012_12_38_32_1.jpg,672,333,25,22,1_23,0
autosave10_10_2012_12_38_32_2.jpg,685,324,28,25,1_23,0
autosave10_10_2012_12_38_33_2.jpg,785,248,46,41,1_23,0
autosave10_10_2012_12_39_10_2.jpg,673,328,27,25,1_11,0
autosave10_10_2012_12_42_05_1.jpg,699,351,23,22,1_23,0
autosave10_10_2012_12_42_15_1.jpg,809,358,28,21,1_23,0
autosave10_10_2012_12_46_26_0.jpg,1035,345,33,27,1_23,15
autosave10_10_2012_12_46_49_1.jpg,772,364,23,23,1_23,0
autosave10_10_2012_12_46_49_3.jpg,828,340,31,30,1_23,0
autosave10_10_2012_12_46_58_0.jpg,880,314,36,33,1_23,0
autosave10_10_2012_12_48_41_2.jpg,820,341,25,23,1_23,0
autosave10_10_2012_12_48_46_2.jpg,875,343,27,20,1_23,0
autosave10_10_2012_12_49_50_1.jpg,738,367,26,24,1_25,0
autosave10_10_2012_12_49_51_2.jpg,1081,223,78,70,1_25,0
autosave10_10_2012_12_58_45_1.jpg,1177,359,22,29,1_17,0
autosave10_10_2012_13_05_00_0.jpg,707,353,23,20,1_23,0
autosave10_10_2012_13_06_02_1.jpg,619,347,24,20,1_23,0
autosave10_10_2012_13_06_03_0.jpg,634,312,29,27,1_23,0
autosave10_10_2012_13_09_14_3.jpg,879,388,27,24,1_33,0
autosave10_10_2012_13_09_14_3.jpg,855,390,23,24,1_1,0
autosave10_10_2012_13_10_06_2.jpg,720,371,24,22,1_23,0
autosave10_10_2012_13_10_12_1.jpg,671,386,22,20,1_23,0
autosave10_10_2012_13_13_32_1.jpg,713,417,24,21,2_3,0
autosave10_10_2012_13_13_39_1.jpg,780,394,26,24,1_22,0
autosave10_10_2012_13_13_47_0.jpg,706,412,26,21,1_11,0
autosave10_10_2012_13_14_40_2.jpg,759,396,23,21,2_3_3,0
autosave10_10_2012_13_14_40_2.jpg,760,417,24,19,1_22,0
autosave10_10_2012_13_15_29_1.jpg,689,391,20,18,1_11_1,0
autosave10_10_2012_13_15_31_1.jpg,768,361,35,29,1_11_1,0
autosave10_10_2012_13_15_31_1.jpg,773,391,23,20,2_3_3,0
autosave10_10_2012_13_17_12_1.jpg,726,404,20,20,2_3_3,0
autosave10_10_2012_13_17_22_0.jpg,734,401,20,19,2_3_2,0
autosave10_10_2012_13_18_47_2.jpg,720,408,21,20,2_3_2,0
autosave10_10_2012_13_19_34_1.jpg,781,415,20,19,2_3_3,0
autosave10_10_2012_13_20_17_2.jpg,648,413,21,20,1_20,0
autosave10_10_2012_13_24_06_0.jpg,727,411,24,24,1_11,0
autosave10_10_2012_13_24_35_2.jpg,665,407,20,20,1_11_1,0
autosave10_10_2012_13_25_06_1.jpg,687,420,21,19,1_11,0
autosave10_10_2012_13_26_00_1.jpg,764,425,23,21,2_3_3,0
autosave10_10_2012_13_28_06_2.jpg,713,408,24,20,2_3_3,0
autosave10_10_2012_13_30_03_2.jpg,696,386,25,24,2_3_3,0
autosave10_10_2012_13_30_03_2.jpg,695,409,25,21,1_22,0
autosave10_10_2012_13_31_12_0.jpg,689,360,26,24,2_3,0
autosave10_10_2012_13_31_12_0.jpg,690,384,23,20,1_22,0
autosave10_10_2012_13_31_12_3.jpg,834,287,51,45,2_3,0
autosave10_10_2012_13_31_12_3.jpg,835,334,51,44,1_22,0
autosave10_10_2012_13_31_41_2.jpg,682,403,21,19,1_12_2,0
autosave10_10_2012_13_34_12_1.jpg,678,389,25,21,1_12_2,0
autosave10_10_2012_13_34_12_3.jpg,756,381,41,37,1_12_2,0
autosave10_10_2012_13_35_08_2.jpg,717,397,21,19,2_3_2,0
autosave10_10_2012_13_36_50_1.jpg,713,415,20,19,2_3,0
autosave10_10_2012_13_38_47_1.jpg,702,404,25,24,2_3_2,0
autosave10_10_2012_13_40_01_0.jpg,732,392,23,21,2_3_2,0
autosave10_10_2012_13_40_34_1.jpg,690,403,22,21,2_3_3,0
autosave10_10_2012_13_46_17_1.jpg,682,401,24,22,2_3_2,0
autosave10_10_2012_13_46_58_1.jpg,642,392,23,21,1_2,0
autosave10_10_2012_13_46_58_1.jpg,641,412,26,23,1_16,0
autosave10_10_2012_13_49_08_1.jpg,685,377,24,23,1_2,0
autosave10_10_2012_13_49_30_0.jpg,810,370,28,23,1_2,0
autosave10_10_2012_13_50_34_2.jpg,601,390,21,20,1_17,0
autosave10_10_2012_13_50_38_0.jpg,766,171,109,95,1_17,0
autosave10_10_2012_13_55_30_2.jpg,665,380,20,18,1_23,0
autosave10_10_2012_13_55_32_0.jpg,698,376,21,22,1_23,0
autosave10_10_2012_13_55_34_1.jpg,752,336,33,32,1_23,0
autosave10_10_2012_13_55_34_1.jpg,669,393,19,18,1_17,0
autosave10_10_2012_13_55_36_0.jpg,830,298,52,45,1_23,0
autosave10_10_2012_13_55_36_0.jpg,679,394,21,21,1_17,0
autosave10_10_2012_13_55_40_1.jpg,1013,234,83,71,1_17,0
autosave10_10_2012_14_02_33_0.jpg,658,392,23,22,1_23,0
autosave10_10_2012_14_02_46_1.jpg,717,293,49,43,1_17,70
autosave10_10_2012_14_06_56_3.jpg,621,384,23,19,1_1,0
autosave10_10_2012_14_07_40_3.jpg,825,360,22,21,1_17,0
autosave10_10_2012_14_07_40_3.jpg,826,380,22,21,1_23,30
autosave10_10_2012_14_07_49_3.jpg,728,345,30,23,1_23,60
autosave10_10_2012_14_22_11_2.jpg,608,382,23,22,1_17,0
autosave10_10_2012_14_22_11_2.jpg,607,403,24,19,1_23,0
autosave10_10_2012_14_22_19_2.jpg,627,360,25,23,1_23,0
autosave10_10_2012_14_22_20_0.jpg,664,322,42,35,1_23,0
autosave10_10_2012_14_23_13_0.jpg,311,395,21,19,1_12,0
autosave10_10_2012_14_23_15_0.jpg,383,359,25,24,1_12,0
autosave10_10_2012_14_23_15_0.jpg,571,385,19,18,1_17,0
autosave10_10_2012_14_23_15_1.jpg,399,365,25,24,1_12,0
autosave10_10_2012_14_23_15_1.jpg,592,393,19,18,1_17,0
autosave10_10_2012_14_23_15_1.jpg,593,409,18,17,1_23,0
autosave10_10_2012_14_23_18_3.jpg,507,354,29,30,1_12,0
autosave10_10_2012_14_23_18_3.jpg,734,391,20,20,1_17,0
autosave10_10_2012_14_23_18_3.jpg,734,411,19,17,1_23,0
autosave10_10_2012_14_27_59_0.jpg,1114,314,38,31,1_33,0
autosave10_10_2012_14_27_59_0.jpg,1112,346,40,30,1_1,70
autosave10_10_2012_14_29_45_2.jpg,374,382,19,19,1_1,0
autosave10_10_2012_14_38_18_1.jpg,501,380,25,23,1_1,0
autosave10_10_2012_14_38_18_1.jpg,524,379,25,23,1_33,0
autosave10_10_2012_14_41_37_1.jpg,679,343,21,21,1_23,0
autosave10_10_2012_14_42_58_0.jpg,748,382,23,21,1_11,0
autosave10_10_2012_14_46_50_1.jpg,607,357,20,18,1_17,0
autosave10_10_2012_14_46_50_1.jpg,607,375,24,21,1_23,0
autosave10_10_2012_14_48_43_0.jpg,687,408,23,18,1_25,0
autosave10_10_2012_14_48_46_0.jpg,718,401,40,34,1_25,0
autosave10_10_2012_14_48_46_0.jpg,617,439,20,16,1_25,0
autosave10_10_2012_14_48_46_2.jpg,762,383,52,43,1_25,0
autosave10_10_2012_14_48_46_2.jpg,621,434,20,18,1_25,0
autosave10_10_2012_14_48_48_1.jpg,639,416,27,25,1_25,0
autosave10_10_2012_14_48_50_0.jpg,716,394,48,41,1_25,0
autosave10_10_2012_14_49_43_3.jpg,657,444,23,20,1_25,0
autosave10_10_2012_14_50_00_0.jpg,331,298,60,48,1_21,5
autosave10_10_2012_15_18_40_0.jpg,602,379,28,26,1_17,0
autosave10_10_2012_15_18_43_0.jpg,709,271,65,58,1_17,0
autosave10_10_2012_15_18_47_1.jpg,625,368,21,19,1_23,0
autosave10_10_2012_15_22_25_2.jpg,742,350,28,24,1_2,0
autosave13_04_2013_09_37_55_0.jpg,499,347,43,44,1_11,0
autosave13_04_2013_09_43_33_2.jpg,1093,366,47,38,1_23,0
autosave13_04_2013_09_43_36_0.jpg,1137,360,53,44,1_23,0
autosave13_04_2013_09_44_00_1.jpg,1059,366,36,34,1_17,0
autosave13_04_2013_09_44_00_1.jpg,1058,403,36,26,1_23,0
autosave13_04_2013_09_44_05_0.jpg,530,408,42,44,1_20_2,0
autosave13_04_2013_09_44_05_0.jpg,538,454,39,34,1_25,0
autosave13_04_2013_09_44_05_0.jpg,1075,370,50,40,1_20_2,0
autosave13_04_2013_09_44_05_0.jpg,1071,411,50,39,1_25,0
autosave13_04_2013_09_44_05_1.jpg,270,342,68,63,1_20_2,0
autosave13_04_2013_09_44_05_1.jpg,279,409,68,66,1_25,0
autosave13_04_2013_09_44_05_1.jpg,1211,268,88,66,1_20_2,0
autosave13_04_2013_09_44_05_1.jpg,1220,336,77,73,1_25,0
autosave13_04_2013_09_44_06_0.jpg,218,331,73,71,1_20_2,0
autosave13_04_2013_09_44_06_0.jpg,225,408,78,70,1_25,0
autosave13_04_2013_09_44_06_0.jpg,1258,256,101,83,1_20_2,0
autosave13_04_2013_09_44_06_0.jpg,1264,336,97,81,1_25,0
autosave13_04_2013_09_44_21_2.jpg,990,273,49,48,1_25,0
autosave13_04_2013_09_44_23_3.jpg,1066,0,128,109,1_25,10
autosave13_04_2013_09_45_17_0.jpg,1101,373,49,45,1_11,0
autosave13_04_2013_09_45_55_2.jpg,1441,379,19,18,1_11_1,0
autosave13_04_2013_09_45_55_3.jpg,1442,379,19,18,1_11_1,0
autosave13_04_2013_09_45_59_0.jpg,1479,354,25,27,1_11_1,0
autosave13_04_2013_09_45_59_2.jpg,1540,358,30,27,1_11_1,0
autosave13_04_2013_09_47_14_2.jpg,1054,408,34,30,1_17,0
autosave13_04_2013_09_49_42_2.jpg,1756,87,66,89,1_16,0
autosave13_04_2013_09_50_00_2.jpg,1024,377,32,28,1_11,0
autosave13_04_2013_09_55_52_1.jpg,1102,367,47,43,1_23,0
autosave13_04_2013_09_55_59_0.jpg,932,295,45,47,1_23,0
autosave13_04_2013_09_56_02_2.jpg,1067,355,50,51,1_23,0
autosave13_04_2013_09_56_58_0.jpg,1123,370,35,40,1_21,0
autosave13_04_2013_11_07_19_0.jpg,1074,412,26,24,2_3_3,0
autosave13_04_2013_11_07_21_1.jpg,1501,77,100,92,2_3_3,0
autosave13_04_2013_11_07_21_1.jpg,1089,399,35,36,1_23,0
autosave13_04_2013_11_07_25_2.jpg,1292,321,38,36,1_23,0
autosave13_04_2013_11_07_27_2.jpg,1137,446,28,23,1_17,0
autosave13_04_2013_11_07_30_1.jpg,1388,250,70,63,1_17,0
autosave13_04_2013_11_08_58_0.jpg,1024,334,41,41,1_23,0
autosave13_04_2013_11_45_29_1.jpg,1007,564,30,25,2_3,0
autosave13_04_2013_11_45_52_1.jpg,1093,407,42,34,1_11_1,0
autosave13_04_2013_11_51_52_1.jpg,1213,436,49,46,1_33,0
autosave13_04_2013_11_52_19_3.jpg,970,371,32,29,2_3_2,0
autosave13_04_2013_12_08_41_1.jpg,1062,440,39,34,1_20_3,0
autosave13_04_2013_12_09_24_2.jpg,1074,452,36,29,1_23,0
autosave13_04_2013_12_09_27_0.jpg,1442,139,111,97,1_23,0
autosave13_04_2013_12_09_38_0.jpg,1151,401,46,40,1_23,0
autosave13_04_2013_12_09_52_2.jpg,1163,465,20,19,1_17,0
autosave13_04_2013_12_09_53_1.jpg,1198,467,27,25,1_17,0
autosave13_04_2013_12_09_55_1.jpg,1441,351,57,49,1_17,0
autosave13_04_2013_12_11_52_2.jpg,996,430,37,28,2_3_3,0
autosave13_04_2013_12_13_34_0.jpg,1143,375,36,32,2_3_3,0
autosave13_04_2013_12_13_34_2.jpg,1232,355,55,42,2_3_3,0
autosave13_04_2013_12_13_43_1.jpg,26,387,60,49,1_23,0
autosave13_04_2013_12_14_02_1.jpg,1103,436,25,25,1_23,0
autosave13_04_2013_12_14_05_0.jpg,1183,329,60,51,1_23,0
autosave13_04_2013_12_15_55_0.jpg,470,343,45,36,1_23,0
autosave13_04_2013_12_16_16_0.jpg,1090,452,43,27,1_23,0
autosave13_04_2013_12_16_31_1.jpg,1080,458,37,33,1_23,0
autosave13_04_2013_12_16_39_3.jpg,1012,413,35,38,1_23,0
autosave13_04_2013_12_18_59_1.jpg,1101,493,23,18,1_20_2,0
autosave13_04_2013_12_24_56_0.jpg,1125,421,44,40,1_23,0
autosave13_04_2013_12_25_06_0.jpg,1229,401,39,36,1_23,0
autosave13_04_2013_12_27_46_0.jpg,1268,405,43,40,1_23,0
autosave13_04_2013_12_27_53_1.jpg,1113,413,34,30,1_23,0
autosave13_04_2013_12_27_54_0.jpg,1161,394,37,37,1_23,0
autosave13_04_2013_12_29_08_0.jpg,1616,425,56,42,1_17,0
autosave13_04_2013_12_29_29_0.jpg,1205,473,36,25,1_15,0
autosave13_04_2013_12_29_51_3.jpg,1282,518,34,28,2_3_2,0
autosave13_04_2013_12_38_51_3.jpg,885,429,50,44,1_2,0
autosave13_04_2013_12_38_59_0.jpg,1336,366,91,80,1_2,0
autosave13_04_2013_12_38_59_0.jpg,1183,483,23,27,1_2,0
autosave13_04_2013_12_54_09_0.jpg,1218,458,24,21,1_17,0
autosave13_04_2013_12_54_09_1.jpg,1230,438,25,23,1_17,0
autosave13_04_2013_12_54_10_0.jpg,1425,370,42,39,1_17,0
autosave13_04_2013_13_02_49_0.jpg,911,451,18,17,2_3,0
autosave13_04_2013_13_02_50_0.jpg,921,450,20,18,2_3,0
autosave13_04_2013_13_02_50_0.jpg,655,485,21,21,1_15,0
autosave13_04_2013_13_02_50_1.jpg,871,452,22,20,2_3,0
autosave13_04_2013_13_02_50_1.jpg,580,490,27,23,1_15,0
autosave13_04_2013_13_02_51_1.jpg,845,449,25,23,2_3,0
autosave13_04_2013_13_02_51_1.jpg,448,485,35,30,1_15,0
autosave13_04_2013_13_02_52_0.jpg,822,419,29,25,2_3,0
autosave13_04_2013_13_02_52_0.jpg,325,460,42,39,1_15,0
autosave13_04_2013_13_03_00_1.jpg,1219,436,31,25,1_16,0
autosave13_04_2013_13_20_23_1.jpg,1099,466,24,24,1_23,0
autosave13_04_2013_13_20_30_2.jpg,1223,376,32,30,1_23,0
autosave13_04_2013_13_20_33_0.jpg,1196,371,38,39,2_3_3,20
autosave13_04_2013_13_24_53_1.jpg,954,479,23,19,1_17,0
autosave13_04_2013_13_24_55_0.jpg,976,485,30,31,1_17,0
autosave13_04_2013_13_26_59_2.jpg,1151,427,33,34,1_17,0
autosave13_04_2013_13_28_13_2.jpg,1214,281,64,58,1_23,0
autosave13_04_2013_13_28_22_2.jpg,1028,493,17,17,1_17,0
autosave13_04_2013_13_28_22_3.jpg,543,499,16,17,1_17,0
autosave13_04_2013_13_28_22_3.jpg,1043,480,18,18,1_17,0
autosave13_04_2013_13_28_24_1.jpg,476,484,22,21,1_17,0
autosave13_04_2013_13_28_24_1.jpg,1113,463,22,20,1_17,0
autosave13_04_2013_13_28_26_2.jpg,166,436,44,38,1_17,0
autosave13_04_2013_13_28_26_2.jpg,1209,402,38,35,1_17,0
autosave13_04_2013_13_28_29_0.jpg,1557,222,84,80,1_17,0
autosave13_04_2013_13_32_17_1.jpg,1341,405,34,36,1_17,0
autosave13_04_2013_13_35_21_2.jpg,1095,361,38,34,1_17,0
autosave13_04_2013_13_35_21_3.jpg,1080,431,38,34,1_17,0
autosave13_04_2013_13_38_22_0.jpg,1118,488,26,23,1_23,0
autosave13_04_2013_13_38_26_0.jpg,1121,399,31,28,1_17,0
autosave13_04_2013_13_38_26_0.jpg,1120,430,28,29,1_23,0
autosave13_04_2013_13_38_27_1.jpg,1257,268,50,46,1_17,0
autosave13_04_2013_13_38_27_1.jpg,1249,329,52,41,1_23,0
autosave13_04_2013_13_39_48_3.jpg,1290,411,36,33,1_23,0
autosave13_04_2013_13_39_50_0.jpg,1542,279,73,62,1_23,0
autosave13_04_2013_13_39_55_1.jpg,1167,455,24,24,1_23,0
autosave13_04_2013_13_40_12_2.jpg,373,489,36,33,1_17,0
autosave13_04_2013_13_40_12_2.jpg,1181,468,34,34,1_17,0
autosave13_04_2013_13_41_24_2.jpg,533,535,21,20,1_17,0
autosave13_04_2013_13_41_25_0.jpg,509,535,21,20,1_17,0
autosave13_04_2013_13_41_25_0.jpg,1094,501,23,19,1_17,0
autosave13_04_2013_13_41_26_2.jpg,156,516,44,34,1_17,0
autosave13_04_2013_13_41_26_2.jpg,1178,449,42,38,1_17,0
autosave13_04_2013_13_44_17_1.jpg,508,551,22,20,1_17,0
autosave13_04_2013_13_44_17_2.jpg,1027,514,24,25,1_17,0
autosave13_04_2013_13_44_17_2.jpg,406,528,27,24,1_17,0
autosave13_04_2013_13_44_19_2.jpg,1067,486,37,35,1_17,0
autosave13_04_2013_13_44_19_2.jpg,118,509,46,38,1_17,0
autosave13_04_2013_13_45_11_0.jpg,991,507,19,17,1_17,0
autosave13_04_2013_13_45_11_2.jpg,1037,491,24,23,1_17,0
autosave13_04_2013_13_45_11_2.jpg,391,507,22,26,1_17,0
autosave13_04_2013_13_45_42_0.jpg,1015,493,24,23,1_17,0
autosave13_04_2013_13_45_42_0.jpg,467,501,26,22,1_17,0
autosave13_04_2013_13_45_44_2.jpg,1252,323,86,80,1_17,0
autosave13_04_2013_13_46_21_3.jpg,1095,381,32,28,1_23,0
autosave13_04_2013_13_46_25_0.jpg,1121,369,34,29,1_23,0
autosave13_04_2013_13_47_01_2.jpg,1659,175,93,83,1_23,0
autosave13_04_2013_13_48_30_0.jpg,1155,465,33,27,1_11,0
autosave13_04_2013_13_48_51_1.jpg,1185,417,45,39,1_23,0
autosave13_04_2013_13_49_37_2.jpg,1115,473,29,28,1_11_1,0
autosave13_04_2013_13_51_59_0.jpg,998,433,32,27,1_17,0
autosave13_04_2013_13_52_00_2.jpg,1233,337,54,45,1_17,0
autosave13_04_2013_13_52_01_1.jpg,1558,161,94,85,1_17,0
autosave13_04_2013_13_52_01_2.jpg,1838,68,81,112,1_17,30
autosave13_04_2013_13_53_14_2.jpg,1085,465,40,34,1_17,0
autosave13_04_2013_13_53_37_0.jpg,1181,485,28,24,2_3,0
autosave13_04_2013_13_53_37_1.jpg,1195,446,40,31,2_3,0
autosave13_04_2013_13_54_58_1.jpg,1053,482,38,34,1_17,0
autosave13_04_2013_13_56_08_2.jpg,1172,495,41,37,1_11,0
autosave13_04_2013_13_56_26_0.jpg,1122,464,29,24,1_17,0
autosave13_04_2013_14_12_14_3.jpg,540,488,25,22,1_17,0
autosave13_04_2013_14_12_14_3.jpg,1051,494,18,18,1_17,0
autosave13_04_2013_14_12_15_0.jpg,503,474,25,22,1_17,0
autosave13_04_2013_14_12_15_0.jpg,1064,480,18,18,1_17,0
autosave13_04_2013_14_12_17_1.jpg,1354,380,50,49,1_17,0
autosave13_04_2013_14_12_18_1.jpg,1830,131,89,112,1_17,20
autosave13_04_2013_14_12_40_1.jpg,646,534,18,16,1_17,0
autosave13_04_2013_14_12_40_1.jpg,1067,516,18,16,1_17,0
autosave13_04_2013_14_12_40_2.jpg,619,525,18,16,1_17,0
autosave13_04_2013_14_12_40_2.jpg,1073,502,18,18,1_17,0
autosave13_04_2013_14_12_43_1.jpg,53,459,56,50,1_17,0
autosave13_04_2013_14_12_43_1.jpg,1312,429,45,39,1_17,0
autosave13_04_2013_14_13_27_2.jpg,609,524,21,18,1_17,0
autosave13_04_2013_14_13_29_0.jpg,502,511,26,20,1_17,0
autosave13_04_2013_14_13_29_0.jpg,1135,465,19,22,1_17,0
autosave13_04_2013_14_13_30_1.jpg,189,453,47,42,1_17,0
autosave13_04_2013_14_13_30_1.jpg,1334,385,41,35,1_17,0
autosave13_04_2013_14_16_38_2.jpg,1003,483,22,19,1_17,0
autosave13_04_2013_14_16_40_3.jpg,1066,432,37,32,1_17,0
autosave13_04_2013_15_16_05_0.jpg,982,514,26,28,1_23,0
autosave13_04_2013_15_16_09_1.jpg,1041,344,74,62,1_23,0
autosave13_04_2013_15_16_09_1.jpg,258,509,27,27,1_17,0
autosave13_04_2013_15_16_09_1.jpg,915,544,22,23,1_17,0
autosave13_04_2013_15_16_11_2.jpg,971,514,32,31,1_17,0
autosave13_04_2013_15_16_11_3.jpg,983,501,35,36,1_17,0
autosave13_04_2013_15_16_15_0.jpg,1485,0,216,178,1_17,0
autosave13_04_2013_15_16_33_3.jpg,982,493,28,26,1_23,0
autosave13_04_2013_15_17_13_2.jpg,992,528,30,30,1_23,0
autosave13_04_2013_15_17_14_3.jpg,1146,422,80,67,1_23,0
autosave13_04_2013_15_17_14_3.jpg,952,577,25,20,1_17,0
autosave13_04_2013_15_17_14_3.jpg,418,553,23,22,1_17,0
autosave13_04_2013_15_17_17_1.jpg,1130,476,61,56,1_17,0
autosave13_04_2013_15_17_17_2.jpg,1165,456,70,57,1_17,0
autosave13_04_2013_15_17_18_2.jpg,1685,162,197,158,1_17,0
autosave13_04_2013_15_17_23_0.jpg,1084,565,27,23,1_23,0
autosave13_04_2013_15_18_15_1.jpg,1069,553,32,30,1_23,0
autosave13_04_2013_15_18_20_1.jpg,1543,369,108,88,1_23,0
autosave13_04_2013_15_18_20_2.jpg,1732,302,124,111,1_23,0
autosave13_04_2013_15_18_51_2.jpg,1051,454,26,34,1_11_1,30
autosave13_04_2013_15_18_57_1.jpg,937,460,33,30,1_15,0
autosave13_04_2013_15_22_18_0.jpg,1160,39,175,116,1_20_2,10
autosave13_04_2013_15_23_01_1.jpg,1116,514,32,36,1_23,0
autosave13_04_2013_15_23_08_0.jpg,1051,550,30,24,1_23,0
autosave13_04_2013_15_23_09_0.jpg,1099,524,38,32,1_23,0
autosave13_04_2013_15_23_10_1.jpg,1234,459,63,54,1_23,0
autosave13_04_2013_15_23_11_1.jpg,1490,342,106,97,1_23,0
autosave13_04_2013_15_23_55_0.jpg,1117,555,25,21,1_23,0
autosave13_04_2013_15_23_59_0.jpg,1463,504,51,42,1_23,0
autosave13_04_2013_15_24_18_1.jpg,991,520,28,24,1_23,0
autosave13_04_2013_15_24_21_1.jpg,1596,301,83,69,1_23,0
autosave13_04_2013_15_24_27_0.jpg,1081,528,34,29,1_23,0
autosave13_04_2013_15_24_28_1.jpg,1323,449,61,51,1_23,0
autosave13_04_2013_15_24_28_3.jpg,1671,327,92,95,1_23,0
autosave13_04_2013_15_30_12_1.jpg,940,583,21,20,1_17,0
autosave13_04_2013_15_30_15_1.jpg,1052,515,52,41,1_17,0
autosave13_04_2013_15_34_51_1.jpg,950,583,24,25,1_11,0
autosave13_04_2013_15_35_38_0.jpg,1027,487,30,27,1_20_2,0
autosave13_04_2013_15_36_12_1.jpg,1613,547,40,37,1_22,0
autosave13_04_2013_15_38_57_3.jpg,1066,580,32,32,1_23,0
autosave13_04_2013_15_39_01_1.jpg,1064,506,80,70,1_23,0
autosave13_04_2013_15_39_01_1.jpg,795,571,24,21,1_17,0
autosave13_04_2013_15_39_07_0.jpg,1066,520,48,43,1_17,0
autosave13_04_2013_15_39_07_0.jpg,991,516,34,29,1_23,0
autosave13_04_2013_15_39_07_3.jpg,1140,476,72,64,1_17,0
autosave13_04_2013_15_39_07_3.jpg,1019,491,42,39,1_23,0
autosave13_04_2013_15_47_57_0.jpg,932,487,36,35,1_23,0
autosave13_04_2013_15_48_04_2.jpg,925,467,39,35,1_23,0
autosave13_04_2013_15_48_05_0.jpg,928,452,39,35,1_23,0
autosave13_04_2013_15_48_07_1.jpg,1104,98,132,113,1_23,0
autosave13_04_2013_15_53_15_1.jpg,954,536,30,33,1_23,0
autosave13_04_2013_15_53_18_0.jpg,1035,529,27,23,1_23,0
autosave13_04_2013_15_53_18_1.jpg,926,481,33,29,1_23,0
autosave13_04_2013_15_53_23_0.jpg,1025,527,33,30,1_17,0
autosave13_04_2013_15_53_23_0.jpg,930,558,24,22,1_23,0
autosave13_04_2013_15_53_27_2.jpg,1020,538,25,27,1_17,0
autosave13_04_2013_15_53_27_2.jpg,938,567,22,20,1_23,0
autosave13_04_2013_15_53_29_3.jpg,1258,380,83,71,1_17,0
autosave13_04_2013_15_53_29_3.jpg,987,503,45,41,1_23,0
autosave13_04_2013_15_53_31_2.jpg,1135,425,74,72,1_23,0
autosave13_04_2013_15_53_33_0.jpg,1557,149,182,164,1_23,0
autosave13_04_2013_15_54_08_0.jpg,1060,513,38,36,1_25,70
autosave13_04_2013_15_54_08_0.jpg,1063,550,38,32,1_20_3,0
autosave13_04_2013_15_54_15_3.jpg,977,574,17,18,1_17,0
autosave13_04_2013_15_54_22_2.jpg,959,544,28,26,1_21,0
autosave13_04_2013_15_54_24_1.jpg,1343,369,88,73,1_21,0
autosave16_04_2013_11_32_17_0.jpg,570,444,32,26,1_23,0
autosave16_04_2013_11_32_32_2.jpg,954,542,30,28,1_23,0
autosave16_04_2013_11_32_42_3.jpg,943,508,41,36,1_23,0
autosave16_04_2013_11_32_49_0.jpg,831,518,25,21,1_23,0
autosave16_04_2013_11_34_03_2.jpg,1084,488,29,25,1_23,0
autosave16_04_2013_11_39_21_0.jpg,1095,550,22,23,1_23,0
autosave16_04_2013_11_41_48_1.jpg,966,534,22,20,1_23,0
autosave16_04_2013_11_42_46_1.jpg,1049,527,30,27,1_21,0
autosave16_04_2013_11_47_39_2.jpg,899,501,18,17,1_23,0
autosave16_04_2013_11_47_53_0.jpg,1115,507,37,33,1_23,0
autosave16_04_2013_11_49_07_3.jpg,1146,446,52,46,1_23,0
autosave16_04_2013_11_49_10_0.jpg,989,531,24,19,1_23,0
autosave16_04_2013_11_49_13_1.jpg,1183,445,52,44,1_23,0
autosave16_04_2013_11_52_48_1.jpg,1036,565,24,19,1_23,0
autosave16_04_2013_11_52_54_2.jpg,986,551,20,20,1_23,0
autosave16_04_2013_11_53_04_0.jpg,1060,554,35,31,1_23,0
autosave16_04_2013_11_53_11_0.jpg,1047,515,27,25,1_23,0
autosave16_04_2013_11_53_11_2.jpg,1106,509,35,30,1_23,0
autosave16_04_2013_11_56_54_2.jpg,1030,520,27,22,2_3_2,0
autosave16_04_2013_11_56_54_2.jpg,1032,545,28,21,1_23,0
autosave16_04_2013_11_56_56_0.jpg,1071,486,35,31,2_3_2,0
autosave16_04_2013_11_56_56_0.jpg,1070,519,36,32,1_23,0
autosave16_04_2013_11_58_34_3.jpg,275,508,32,25,1_20_2,0
autosave16_04_2013_11_59_17_1.jpg,955,568,25,22,1_11_1,0
autosave16_04_2013_11_59_51_0.jpg,914,567,17,17,1_17,0
autosave16_04_2013_12_01_43_3.jpg,1176,511,36,31,2_3_3,0
autosave16_04_2013_12_24_11_3.jpg,1227,453,67,63,1_15,30
autosave16_04_2013_12_31_12_1.jpg,1213,520,23,18,1_2,0
autosave16_04_2013_12_31_46_0.jpg,966,503,35,28,2_3_2,0
autosave16_04_2013_12_32_41_0.jpg,964,462,30,26,1_23,0
autosave16_04_2013_12_32_44_2.jpg,888,519,26,23,1_23,0
autosave16_04_2013_12_32_48_0.jpg,1055,295,75,64,1_23,0
autosave16_04_2013_12_33_14_1.jpg,1024,548,35,29,1_2,0
autosave16_04_2013_12_33_26_1.jpg,920,483,31,23,1_2,0
autosave16_04_2013_12_33_48_0.jpg,1039,500,36,30,2_3_2,0
autosave16_04_2013_12_34_06_3.jpg,1232,24,173,138,2_3_2,0
autosave16_04_2013_12_36_31_0.jpg,1010,525,27,25,2_3_3,0
autosave16_04_2013_12_36_33_2.jpg,1252,421,54,46,2_3_3,0
autosave16_04_2013_12_49_09_2.jpg,960,533,34,30,1_23,0
autosave16_04_2013_12_49_10_2.jpg,1039,478,61,49,1_23,0
autosave16_04_2013_12_49_11_1.jpg,1160,378,92,85,1_23,0
autosave16_04_2013_12_56_32_1.jpg,963,465,56,43,1_11_1,30
autosave16_04_2013_12_56_59_2.jpg,906,545,38,36,1_11,20
autosave16_04_2013_12_58_07_2.jpg,879,524,27,25,1_17,30
autosave16_04_2013_12_58_10_1.jpg,1011,405,71,63,1_17,0
autosave16_04_2013_12_58_48_3.jpg,922,546,24,19,1_23,0
autosave16_04_2013_12_58_50_2.jpg,1034,471,48,41,1_23,0
autosave16_04_2013_12_58_57_1.jpg,936,492,33,28,1_17,0
autosave16_04_2013_12_59_00_1.jpg,1463,4,179,131,1_17,0
autosave16_04_2013_13_02_31_2.jpg,1707,491,47,35,1_17,0
autosave16_04_2013_13_02_31_2.jpg,1702,527,45,27,1_23,0
autosave16_04_2013_13_04_37_2.jpg,862,527,26,28,1_17,0
autosave16_04_2013_13_08_41_0.jpg,1033,549,24,27,1_20,0
autosave16_04_2013_13_08_42_2.jpg,1203,499,57,49,1_20,0
autosave16_04_2013_13_09_20_1.jpg,875,550,19,22,1_11,0
autosave16_04_2013_13_11_49_1.jpg,989,523,17,17,1_17,0
autosave16_04_2013_13_11_53_0.jpg,1370,197,128,106,1_17,0
autosave16_04_2013_13_12_11_1.jpg,912,516,29,28,1_23,0
autosave16_04_2013_13_12_20_1.jpg,894,470,36,32,1_23,0
autosave16_04_2013_13_12_24_1.jpg,900,484,33,29,1_17,0
autosave16_04_2013_13_12_27_1.jpg,997,285,78,73,1_17,0
autosave16_04_2013_13_13_55_0.jpg,935,516,27,21,2_3_2,0
autosave16_04_2013_13_13_55_0.jpg,939,540,28,24,1_23,0
autosave16_04_2013_13_19_29_2.jpg,969,514,38,29,2_3_2,0
autosave16_04_2013_13_19_48_2.jpg,908,537,29,23,1_17,0
autosave16_04_2013_13_21_15_0.jpg,944,512,24,20,1_17,0
autosave16_04_2013_13_21_16_0.jpg,994,501,24,20,1_17,0
autosave16_04_2013_13_21_16_0.jpg,1008,527,24,20,1_23,0
autosave16_04_2013_13_21_40_2.jpg,1125,763,37,37,2_3_3,80
autosave16_04_2013_13_22_14_2.jpg,928,778,26,22,2_3_2,0
autosave16_04_2013_13_22_34_2.jpg,949,796,33,28,1_11_1,0
autosave16_04_2013_13_22_37_2.jpg,1271,460,148,114,1_11_1,0
autosave16_04_2013_13_22_40_3.jpg,1015,786,29,26,1_17,0
autosave16_04_2013_13_22_42_3.jpg,1089,757,40,31,1_17,0
autosave16_04_2013_13_22_42_3.jpg,954,744,28,31,1_23,0
autosave16_04_2013_13_23_42_3.jpg,969,754,37,31,1_23,0
autosave16_04_2013_13_23_56_0.jpg,1307,781,32,33,1_23,0
autosave16_04_2013_13_23_56_2.jpg,1323,743,32,33,1_23,0
autosave16_04_2013_13_23_56_2.jpg,935,780,29,26,1_23,0
autosave16_04_2013_13_23_58_2.jpg,1670,682,60,63,1_23,0
autosave16_04_2013_13_23_58_2.jpg,1042,769,35,31,1_23,0
autosave16_04_2013_13_24_00_2.jpg,963,727,50,45,1_23,0
autosave16_04_2013_13_27_33_0.jpg,1010,794,22,25,1_11,0
autosave16_04_2013_13_28_00_0.jpg,933,787,25,28,2_3,0
autosave16_04_2013_13_28_02_2.jpg,1011,637,61,50,2_3,0
autosave16_04_2013_13_28_02_2.jpg,919,781,24,25,1_11_1,0
autosave16_04_2013_13_28_07_1.jpg,980,763,41,32,1_17,0
autosave16_04_2013_13_28_20_0.jpg,1204,635,60,58,1_23,0
autosave16_04_2013_13_28_36_0.jpg,878,813,35,30,1_23,0
autosave16_04_2013_13_28_36_1.jpg,888,813,35,30,1_23,0
autosave16_04_2013_13_28_38_0.jpg,881,799,40,35,1_23,0
autosave16_04_2013_13_28_45_0.jpg,356,527,98,87,1_23,0
autosave16_04_2013_13_34_05_0.jpg,1129,844,29,27,1_23,0
autosave16_04_2013_13_34_22_0.jpg,1144,833,28,25,1_22,0
autosave16_04_2013_13_34_45_0.jpg,1156,810,33,34,2_3_3,0
autosave16_04_2013_13_34_48_1.jpg,1192,808,45,40,1_19,0
autosave16_04_2013_13_34_48_1.jpg,987,840,25,22,1_22,0
autosave16_04_2013_13_35_02_2.jpg,957,839,30,28,2_3_2,0
autosave16_04_2013_13_36_57_1.jpg,1187,835,28,30,2_3_2,0
autosave16_04_2013_13_39_34_2.jpg,979,819,27,24,1_17,0
autosave16_04_2013_13_39_37_0.jpg,1166,710,67,61,1_17,0
autosave16_04_2013_13_39_37_0.jpg,1068,801,39,33,2_3,0
autosave16_04_2013_13_46_14_0.jpg,966,837,26,23,1_11_1,0
autosave16_04_2013_13_50_53_1.jpg,1033,801,39,44,1_17,0
autosave16_04_2013_13_50_56_1.jpg,975,737,57,52,1_17,0
autosave16_04_2013_13_50_58_1.jpg,1113,556,103,94,1_17,0
autosave16_04_2013_13_51_50_0.jpg,942,795,31,29,2_3_2,0
autosave16_04_2013_13_52_12_2.jpg,1020,804,30,27,1_23,0
autosave16_04_2013_13_52_15_2.jpg,1086,765,43,30,1_17,0
autosave16_04_2013_14_17_33_0.jpg,1141,293,59,51,1_23,0
autosave16_04_2013_14_20_59_0.jpg,1141,427,28,28,1_23,0
autosave16_04_2013_14_21_03_1.jpg,973,474,33,26,1_17,0
autosave16_04_2013_14_21_37_3.jpg,1274,366,55,45,1_17,0
autosave16_04_2013_14_25_46_0.jpg,1202,390,48,43,1_2,0
autosave16_04_2013_14_26_26_0.jpg,1159,470,48,41,1_23,20
autosave16_04_2013_14_26_46_2.jpg,1102,430,30,26,1_23,0
autosave16_04_2013_14_28_45_2.jpg,4,391,34,36,1_2,0
autosave16_04_2013_14_28_49_0.jpg,351,306,51,50,1_2,0
autosave16_04_2013_14_29_41_1.jpg,1022,471,29,27,1_23,0
autosave16_04_2013_14_31_14_0.jpg,1157,475,33,28,1_20_3,0
autosave16_04_2013_14_31_14_0.jpg,1157,502,34,27,1_21,0
autosave16_04_2013_14_31_24_1.jpg,1025,459,24,19,1_23,0
autosave16_04_2013_14_31_29_1.jpg,958,440,32,28,1_17,0
autosave16_04_2013_14_31_31_4.jpg,1135,276,75,77,1_17,0
autosave16_04_2013_14_31_31_4.jpg,728,472,27,23,1_23,0
autosave16_04_2013_14_31_33_1.jpg,883,434,29,27,1_23,0
autosave16_04_2013_14_32_00_2.jpg,1105,408,35,29,2_3_3,0
autosave16_04_2013_14_32_16_2.jpg,1097,456,31,27,1_12_2,0
autosave16_04_2013_14_32_17_0.jpg,1107,449,31,27,1_12_2,0
autosave16_04_2013_14_32_17_0.jpg,1110,480,30,22,1_22,0
autosave16_04_2013_14_32_26_2.jpg,307,375,44,34,1_22,0
autosave16_04_2013_14_32_26_2.jpg,303,410,43,32,1_23,0
autosave16_04_2013_14_33_52_1.jpg,657,398,40,32,1_23,0
autosave16_04_2013_14_34_26_0.jpg,1095,376,38,32,1_23,0
autosave16_04_2013_14_34_26_0.jpg,1054,438,22,23,1_17,0
autosave16_04_2013_14_34_30_0.jpg,1090,397,39,33,1_23,0
autosave16_04_2013_14_34_48_1.jpg,1256,401,48,41,1_11,0
autosave16_04_2013_14_37_04_1.jpg,1176,461,23,20,1_21,0
autosave16_04_2013_14_41_15_0.jpg,1200,464,38,34,1_23,0
autosave16_04_2013_14_41_20_0.jpg,1150,464,27,28,1_23,0
autosave16_04_2013_14_41_22_1.jpg,1455,352,65,59,1_23,0
autosave16_04_2013_14_42_07_2.jpg,1210,432,34,23,1_23,0
autosave16_04_2013_14_42_44_2.jpg,1668,240,99,74,2_3_3,0
autosave16_04_2013_14_42_46_0.jpg,1787,183,110,91,2_3_3,0
autosave16_04_2013_14_43_00_0.jpg,1026,440,37,24,1_21,0
autosave16_04_2013_14_48_34_2.jpg,999,541,26,27,1_25,0
autosave16_04_2013_14_49_32_3.jpg,1275,415,34,30,1_8,0
autosave16_04_2013_14_51_07_0.jpg,1352,449,34,28,1_2,0
autosave16_04_2013_14_51_45_0.jpg,193,409,36,30,1_2,0
autosave16_04_2013_14_53_06_2.jpg,1150,463,34,30,1_23,0
autosave16_04_2013_14_53_14_0.jpg,1023,439,27,23,1_23,0
autosave16_04_2013_14_57_52_2.jpg,717,537,39,38,1_20_3,25
autosave16_04_2013_14_57_53_0.jpg,703,537,39,38,1_20_3,25
autosave16_04_2013_14_57_53_0.jpg,763,536,28,29,1_25,0
autosave16_04_2013_14_57_53_1.jpg,661,528,54,43,1_20_3,5
autosave16_04_2013_14_57_53_1.jpg,750,531,31,30,1_25,0
autosave16_04_2013_14_59_12_0.jpg,194,188,75,63,1_23,0
autosave16_04_2013_14_59_31_2.jpg,1095,381,47,34,1_23,75
autosave16_04_2013_14_59_32_1.jpg,1138,356,55,45,1_23,30
autosave16_04_2013_14_59_40_0.jpg,853,404,30,26,2_3_3,0
autosave16_04_2013_14_59_59_1.jpg,1162,456,33,25,1_12_2,0
autosave16_04_2013_14_59_59_1.jpg,1162,482,34,29,1_22,0
autosave16_04_2013_15_00_23_0.jpg,226,400,71,70,1_23,0
autosave16_04_2013_15_03_13_3.jpg,1161,466,24,17,1_21,0
autosave16_04_2013_15_03_15_1.jpg,1137,469,24,17,1_21,0
autosave16_04_2013_15_10_15_1.jpg,943,457,31,25,1_23,0
autosave16_04_2013_15_11_20_2.jpg,1135,420,42,31,1_23,0
autosave16_04_2013_15_11_25_2.jpg,997,452,29,23,1_17,0
autosave16_04_2013_15_12_37_2.jpg,1254,429,30,24,1_2,0
autosave16_04_2013_15_20_27_1.jpg,1062,442,30,28,1_17,0
autosave16_04_2013_15_20_27_2.jpg,1064,442,30,28,1_17,0
autosave16_04_2013_15_20_29_0.jpg,1091,417,35,34,1_17,0
autosave16_04_2013_15_20_31_3.jpg,1233,327,58,67,1_17,0
autosave16_04_2013_15_21_58_1.jpg,604,424,34,32,1_23,0
autosave16_04_2013_15_21_58_1.jpg,631,401,33,32,2_3_2,0
autosave16_04_2013_15_22_00_1.jpg,1020,442,30,31,1_23,0
autosave16_04_2013_15_22_01_2.jpg,1146,394,39,45,1_23,0
autosave16_04_2013_15_28_01_0.jpg,989,469,24,19,1_17,0
autosave16_04_2013_15_28_04_0.jpg,1082,386,58,51,1_17,0
autosave16_04_2013_15_28_19_1.jpg,983,470,25,23,1_17,0
autosave16_04_2013_15_28_21_3.jpg,631,426,31,32,1_17,0
autosave16_04_2013_15_31_03_0.jpg,984,435,23,23,2_3_2,0
autosave16_04_2013_15_31_06_1.jpg,1118,272,75,62,2_3_2,0
autosave16_04_2013_15_32_13_3.jpg,162,391,43,36,1_23,0
autosave16_04_2013_15_32_20_1.jpg,922,421,38,32,1_17,0
autosave16_04_2013_15_32_24_0.jpg,800,435,32,26,1_23,0
autosave16_04_2013_15_32_25_1.jpg,1040,375,45,43,1_23,0
autosave16_04_2013_15_32_46_2.jpg,1017,461,20,17,2_3_3,0
autosave16_04_2013_15_33_08_0.jpg,1130,473,26,21,1_12_2,0
autosave16_04_2013_15_33_08_0.jpg,1131,494,24,21,1_22,0
autosave16_04_2013_15_37_28_3.jpg,620,384,33,28,1_23,0
autosave16_04_2013_15_37_30_0.jpg,671,377,33,28,1_23,0
autosave16_10_2012_06_52_54_1.jpg,732,350,27,26,1_25,0
autosave16_10_2012_06_53_32_1.jpg,866,327,25,23,1_23,0
autosave16_10_2012_06_53_36_1.jpg,698,320,26,24,1_23,0
autosave16_10_2012_07_08_22_0.jpg,631,322,20,20,1_15,0
autosave16_10_2012_07_10_36_0.jpg,662,382,29,24,1_25,0
autosave16_10_2012_07_10_36_1.jpg,734,369,37,35,1_25,0
autosave16_10_2012_07_10_39_1.jpg,669,354,20,21,1_25,0
autosave16_10_2012_07_12_27_2.jpg,754,284,43,30,1_25,0
autosave16_10_2012_07_12_31_2.jpg,656,316,20,21,1_25,0
autosave16_10_2012_07_12_31_2.jpg,655,337,20,17,1_20_3,0
autosave16_10_2012_07_12_32_1.jpg,710,288,31,27,1_25,0
autosave16_10_2012_07_12_32_1.jpg,706,315,33,26,1_20_3,0
autosave16_10_2012_08_03_41_0.jpg,706,398,19,20,1_25,0
autosave16_10_2012_08_04_29_3.jpg,975,280,33,32,1_22,0
autosave16_10_2012_08_09_47_0.jpg,102,323,17,19,1_22,60
autosave16_10_2012_08_09_57_0.jpg,445,247,80,71,1_22,0
autosave16_10_2012_08_11_00_2.jpg,669,368,17,17,1_20_2,0
autosave16_10_2012_08_12_38_2.jpg,603,355,25,24,1_25,0
autosave16_10_2012_08_12_39_1.jpg,688,311,41,42,1_25,0
autosave16_10_2012_08_13_09_2.jpg,607,286,28,28,1_23,0
autosave16_10_2012_08_13_13_2.jpg,633,270,33,29,1_23,0
autosave16_10_2012_08_14_17_1.jpg,594,272,38,37,1_23,50
autosave16_10_2012_08_14_24_1.jpg,566,346,18,17,1_16,0
autosave16_10_2012_08_14_26_0.jpg,609,323,26,24,1_16,0
autosave16_10_2012_08_20_53_0.jpg,601,321,21,21,1_16,0
autosave16_10_2012_08_22_40_2.jpg,636,343,18,16,1_15,0
autosave16_10_2012_08_22_53_0.jpg,551,347,18,20,1_23,0
autosave16_10_2012_08_23_15_4.jpg,566,346,18,18,1_23,0
autosave16_10_2012_08_24_53_5.jpg,651,345,19,21,1_23,0
autosave16_10_2012_08_25_52_0.jpg,815,222,74,67,1_11_1,0
autosave16_10_2012_08_27_46_5.jpg,1119,337,26,22,1_17,35
autosave16_10_2012_08_27_46_5.jpg,1118,361,25,22,1_23,15
autosave16_10_2012_08_28_16_0.jpg,661,331,26,24,1_23,0
autosave16_10_2012_08_31_13_1.jpg,539,370,18,16,1_17,0
autosave16_10_2012_08_33_37_4.jpg,586,323,24,24,1_23,30
autosave16_10_2012_08_33_46_0.jpg,252,265,21,21,1_23,0
autosave16_10_2012_08_33_46_2.jpg,210,264,24,23,1_23,0
autosave16_10_2012_08_34_11_5.jpg,662,295,24,24,1_11_1,0
autosave16_10_2012_08_44_38_0.jpg,1093,0,100,77,1_23,0
autosave16_10_2012_08_44_42_2.jpg,539,324,17,16,1_16,0
autosave16_10_2012_08_44_44_2.jpg,570,283,23,21,1_16,0
autosave16_10_2012_08_44_44_2.jpg,567,324,24,21,1_23,0
autosave16_10_2012_08_44_45_1.jpg,596,266,28,24,1_16,0
autosave16_10_2012_08_44_45_1.jpg,591,315,29,24,1_23,0
autosave16_10_2012_08_46_21_2.jpg,775,297,39,33,1_23,0
autosave16_10_2012_08_46_25_2.jpg,409,224,37,36,1_17,0
autosave16_10_2012_08_46_25_3.jpg,387,225,37,36,1_17,0
autosave16_10_2012_08_46_38_1.jpg,641,333,23,22,1_23,0
autosave16_10_2012_08_46_42_0.jpg,1014,208,76,76,1_23,0
autosave16_10_2012_08_47_52_1.jpg,522,344,18,16,1_17,0
autosave16_10_2012_08_47_52_5.jpg,583,334,22,20,1_17,0
autosave16_10_2012_08_47_54_0.jpg,651,327,24,22,1_17,0
autosave16_10_2012_08_47_57_0.jpg,164,300,23,24,1_16,30
autosave16_10_2012_08_47_57_4.jpg,604,306,26,25,1_16,20
autosave16_10_2012_08_51_00_1.jpg,507,358,21,19,1_17,0
autosave16_10_2012_08_52_05_0.jpg,245,295,20,20,1_23,0
autosave16_10_2012_08_53_03_0.jpg,580,273,25,26,1_16,0
autosave16_10_2012_08_53_05_3.jpg,578,282,21,21,1_16,0
autosave16_10_2012_08_59_13_0.jpg,582,281,26,27,1_16,0
autosave16_10_2012_09_00_49_2.jpg,589,266,22,23,1_16,0
autosave16_10_2012_09_00_51_3.jpg,712,66,63,58,1_16,0
autosave16_10_2012_09_01_39_5.jpg,385,315,23,25,1_23,0
autosave16_10_2012_09_01_52_3.jpg,603,332,20,20,1_17,0
autosave16_10_2012_09_02_27_0.jpg,1155,37,125,110,1_16,1
autosave16_10_2012_09_02_37_1.jpg,1189,339,28,27,1_23,0
autosave16_10_2012_09_06_49_0.jpg,579,335,27,24,1_11,0
autosave16_10_2012_09_09_48_1.jpg,695,295,32,32,1_23,0
autosave16_10_2012_09_09_49_1.jpg,783,271,54,44,1_23,0
autosave16_10_2012_09_09_52_1.jpg,665,288,31,25,1_17,0
autosave16_10_2012_09_10_35_1.jpg,615,328,24,22,1_11_1,0
autosave16_10_2012_10_07_19_2.jpg,882,306,22,21,1_2,0
autosave16_10_2012_11_10_06_5.jpg,807,329,18,17,1_25,10
autosave16_10_2012_11_10_40_0.jpg,468,368,18,22,1_25,0
autosave16_10_2012_11_13_58_0.jpg,1179,346,21,19,1_16,0
autosave16_10_2012_11_14_16_2.jpg,976,325,19,16,1_15,0
autosave16_10_2012_11_15_01_2.jpg,834,358,20,18,1_25,0
autosave16_10_2012_11_15_50_2.jpg,792,284,17,16,1_5,0
autosave16_10_2012_11_15_51_0.jpg,822,283,20,18,1_5,0
autosave16_10_2012_11_15_57_2.jpg,843,316,19,22,1_15,30
autosave16_10_2012_11_16_48_1.jpg,878,307,22,22,1_5,0
autosave16_10_2012_11_16_48_2.jpg,936,294,25,23,1_5,0
autosave16_10_2012_11_16_49_0.jpg,1027,262,36,32,1_5,0
autosave16_10_2012_11_16_49_1.jpg,1238,187,41,49,1_5,10
autosave16_10_2012_11_16_50_1.jpg,463,310,17,17,1_15,0
autosave16_10_2012_11_16_50_2.jpg,440,301,21,20,1_15,0
autosave16_10_2012_11_16_57_2.jpg,911,302,18,17,1_5,0
autosave16_10_2012_11_17_57_0.jpg,1036,294,23,24,1_5,0
autosave16_10_2012_11_20_13_1.jpg,885,269,26,25,1_17,15
autosave16_10_2012_11_23_51_2.jpg,688,286,24,24,1_5,0
autosave16_10_2012_11_24_22_0.jpg,661,288,23,22,1_5,0
autosave16_10_2012_11_24_24_2.jpg,741,134,63,55,1_5,0
autosave16_10_2012_11_24_24_3.jpg,788,68,78,72,1_5,0
autosave16_10_2012_11_24_52_3.jpg,1045,300,21,19,1_17,0
autosave16_10_2012_11_25_17_2.jpg,703,381,22,22,1_20_2,0
autosave16_10_2012_11_25_17_2.jpg,725,381,23,23,1_25,0
autosave16_10_2012_11_25_19_2.jpg,742,380,24,23,1_25,0
autosave16_10_2012_11_25_42_0.jpg,832,281,26,23,1_15,0
autosave16_10_2012_11_29_38_1.jpg,893,308,21,19,1_11_1,0
autosave16_10_2012_11_40_40_0.jpg,741,302,25,22,1_11,0
autosave16_10_2012_11_43_35_1.jpg,954,291,28,23,1_25,0
autosave16_10_2012_11_43_35_2.jpg,1045,280,30,26,1_25,0
autosave16_10_2012_11_48_35_1.jpg,701,329,21,18,1_25,0
autosave16_10_2012_11_48_35_2.jpg,719,318,25,21,1_25,0
autosave16_10_2012_11_48_37_1.jpg,877,239,53,46,1_25,0
autosave16_10_2012_11_48_37_1.jpg,690,312,20,16,1_20_3,0
autosave16_10_2012_11_48_37_2.jpg,978,197,74,64,1_25,0
autosave16_10_2012_11_48_37_2.jpg,699,308,20,16,1_20_3,0
autosave16_10_2012_11_48_37_2.jpg,700,325,22,17,1_25,0
autosave16_10_2012_11_48_37_3.jpg,1150,120,104,96,1_25,0
autosave16_10_2012_11_48_37_3.jpg,707,300,23,19,1_20_3,0
autosave16_10_2012_11_48_37_3.jpg,709,319,22,17,1_25,0
autosave16_10_2012_11_48_41_2.jpg,747,358,25,31,1_25,30
autosave16_10_2012_11_48_41_3.jpg,654,315,21,17,1_20_2,0
autosave16_10_2012_11_48_41_3.jpg,781,367,36,32,1_25,0
autosave16_10_2012_11_48_42_1.jpg,663,306,23,18,1_20_2,0
autosave16_10_2012_11_48_42_1.jpg,666,324,22,16,1_25,0
autosave16_10_2012_11_48_42_1.jpg,841,361,45,43,1_25,0
autosave16_10_2012_11_48_42_1.jpg,410,358,20,19,1_25,0
autosave16_10_2012_11_49_05_0.jpg,848,342,48,44,1_25,0
autosave16_10_2012_11_49_05_1.jpg,864,340,53,49,1_25,0
autosave16_10_2012_11_49_43_2.jpg,732,331,20,16,1_12_2,0
autosave16_10_2012_11_49_44_2.jpg,803,289,34,27,1_12_2,0
autosave16_10_2012_11_49_44_3.jpg,848,268,39,31,1_12_2,0
autosave16_10_2012_11_58_08_0.jpg,1081,248,37,33,1_17,0
autosave16_10_2012_12_00_06_5.jpg,835,302,19,16,1_5,0
autosave16_10_2012_12_00_12_2.jpg,1155,206,47,40,1_5,5
autosave16_10_2012_12_00_12_4.jpg,1230,186,49,43,1_5,9
autosave16_10_2012_12_04_44_5.jpg,703,304,21,18,1_23,0
autosave16_10_2012_12_05_17_0.jpg,750,271,31,22,1_23,0
autosave16_10_2012_12_08_13_1.jpg,769,278,33,28,1_15,0
autosave16_10_2012_12_08_58_0.jpg,832,363,35,28,1_25,2
autosave16_10_2012_12_08_58_1.jpg,764,360,35,28,1_25,0
autosave16_10_2012_12_08_58_3.jpg,401,333,46,38,1_25,0
autosave21_01_2013_09_15_35_0.jpg,959,340,28,23,1_25,0
autosave21_01_2013_09_15_35_0.jpg,413,340,25,19,1_25,0
autosave21_01_2013_09_15_35_2.jpg,1018,327,34,23,1_25,0
autosave21_01_2013_09_15_35_2.jpg,370,322,28,23,1_25,0
autosave21_01_2013_09_15_38_2.jpg,414,337,26,26,1_20_3,0
autosave21_01_2013_09_15_38_2.jpg,418,362,25,22,1_25,0
autosave21_01_2013_09_16_50_1.jpg,1005,332,36,27,1_25,0
autosave21_01_2013_09_16_53_2.jpg,968,333,32,27,1_25,0
autosave21_01_2013_09_26_22_0.jpg,873,250,39,32,1_22,0
autosave21_01_2013_09_27_57_0.jpg,710,339,29,27,1_23,0
autosave21_01_2013_09_28_04_1.jpg,753,335,25,31,1_23,0
autosave21_01_2013_09_28_28_1.jpg,731,358,29,30,1_23,0
autosave21_01_2013_09_28_34_1.jpg,738,365,29,26,1_23,0
autosave21_01_2013_09_29_06_2.jpg,715,353,29,25,1_23,0
autosave21_01_2013_09_34_50_1.jpg,862,354,34,29,1_16,0
autosave21_01_2013_09_34_52_0.jpg,1008,311,39,35,1_16,0
autosave21_01_2013_09_34_54_0.jpg,856,320,32,27,1_17,0
autosave21_01_2013_09_37_01_0.jpg,816,333,26,26,1_11_1,0
autosave21_01_2013_09_37_13_2.jpg,768,344,32,21,1_20,0
autosave21_01_2013_09_37_13_2.jpg,764,366,31,22,1_25,0
autosave21_01_2013_09_37_14_0.jpg,121,312,33,24,1_20,0
autosave21_01_2013_09_37_14_0.jpg,118,338,36,24,1_25,0
autosave21_01_2013_09_37_14_0.jpg,799,331,34,25,1_20,0
autosave21_01_2013_09_37_14_0.jpg,799,355,34,25,1_25,0
autosave21_01_2013_09_38_41_0.jpg,1074,243,64,50,1_23,0
autosave21_01_2013_09_38_41_1.jpg,1147,215,64,55,1_23,0
autosave21_01_2013_09_39_47_0.jpg,569,309,29,25,1_17,0
autosave21_01_2013_09_39_49_1.jpg,784,201,49,42,1_17,0
autosave21_01_2013_09_39_53_0.jpg,688,339,26,25,1_23,0
autosave21_01_2013_09_39_59_1.jpg,750,356,24,24,1_23,0
autosave21_01_2013_09_42_39_2.jpg,810,337,32,27,1_23,0
autosave21_01_2013_09_42_48_0.jpg,817,308,35,27,1_17,0
autosave21_01_2013_09_42_55_0.jpg,907,259,42,35,1_17,0
autosave21_01_2013_09_42_57_0.jpg,1204,75,65,63,1_17,0
autosave21_01_2013_09_45_33_1.jpg,807,342,24,20,1_11_1,0
autosave21_01_2013_09_50_16_0.jpg,739,363,25,21,1_16,5
autosave21_01_2013_09_50_16_1.jpg,747,356,27,24,1_16,4
autosave21_01_2013_09_50_24_2.jpg,751,311,39,29,1_16,0
autosave21_01_2013_09_57_21_2.jpg,772,339,30,22,1_17,0
autosave21_01_2013_09_57_31_2.jpg,768,334,19,19,1_17,0
autosave21_01_2013_09_58_28_1.jpg,769,347,27,22,1_17,0
autosave21_01_2013_09_58_34_0.jpg,880,332,37,30,1_23,0
autosave21_01_2013_09_58_34_0.jpg,774,341,26,21,1_17,0
autosave21_01_2013_09_58_42_0.jpg,832,340,32,27,1_17,0
autosave21_01_2013_10_08_18_0.jpg,1056,178,39,66,1_23,0
autosave21_01_2013_10_08_29_0.jpg,924,339,35,34,1_23,0
